INFO launcher : Processing jar directory: /home/lc2n18/t00/rmasbench-sequential/RSLB2/boot/../../roborescue/jars
INFO launcher : Processing ../../roborescue/jars/human.jar
INFO launcher : Processing ../../roborescue/jars/sample.jar
WARN launcher : Class sample.CustomRegistryTestAgent$CustomEntityFactory not found
INFO launcher : Processing ../../roborescue/jars/collapse.jar
INFO launcher : Processing ../../roborescue/jars/misc.jar
INFO launcher : Processing ../../roborescue/jars/clear.jar
INFO launcher : Processing ../../roborescue/jars/maps.jar
INFO launcher : Processing ../../roborescue/jars/resq-fire.jar
INFO launcher : Processing ../../roborescue/jars/ignition.jar
INFO launcher : Processing ../../roborescue/jars/handy.jar
INFO launcher : Processing ../../roborescue/jars/standard.jar
INFO launcher : Registered entity factory 'rescuecore2.standard.entities.StandardEntityFactory' with registry System
INFO launcher : Registered property factory 'rescuecore2.standard.entities.StandardPropertyFactory' with registry System
INFO launcher : Registered message factory 'rescuecore2.standard.messages.StandardMessageFactory' with registry System
INFO launcher : Processing ../../roborescue/jars/gis2.jar
INFO launcher : Processing ../../roborescue/jars/traffic3.jar
INFO launcher : Processing ../../roborescue/jars/kernel.jar
INFO launcher : Launching 1 instances of component 'traffic3.simulator.TrafficSimulator'...
INFO launcher : Launching instance 1...
INFO traffic3.simulator.TrafficSimulator : traffic3.simulator.TrafficSimulator@64758d42 connected
INFO launcher : success
INFO traffic3.simulator.TrafficSimulator : Unrecognised message type: urn:rescuecore2:messages.control:ks_aftershocks_info : TIMES = [], INTENSITIES = []
INFO traffic3.simulator.TrafficSimulator : Timestep 1
INFO traffic3.simulator.TrafficSimulator : Timestep 1 took 760 ms
INFO traffic3.simulator.TrafficSimulator : Timestep 2
INFO traffic3.simulator.TrafficSimulator : Timestep 2 took 270 ms
INFO traffic3.simulator.TrafficSimulator : Timestep 3
INFO traffic3.simulator.TrafficSimulator : Timestep 3 took 366 ms
INFO traffic3.simulator.TrafficSimulator : Timestep 4
INFO traffic3.simulator.TrafficSimulator : Timestep 4 took 130 ms
INFO traffic3.simulator.TrafficSimulator : Timestep 5
INFO traffic3.simulator.TrafficSimulator : Timestep 5 took 245 ms
INFO traffic3.simulator.TrafficSimulator : Timestep 6
INFO traffic3.simulator.TrafficSimulator : Timestep 6 took 201 ms
INFO traffic3.simulator.TrafficSimulator : Timestep 7
INFO traffic3.simulator.TrafficSimulator : Timestep 7 took 233 ms
INFO traffic3.simulator.TrafficSimulator : Timestep 8
INFO traffic3.simulator.TrafficSimulator : Timestep 8 took 100 ms
INFO traffic3.simulator.TrafficSimulator : Timestep 9
INFO traffic3.simulator.TrafficSimulator : Timestep 9 took 121 ms
INFO traffic3.simulator.TrafficSimulator : Timestep 10
INFO traffic3.simulator.TrafficSimulator : Timestep 10 took 91 ms
INFO traffic3.simulator.TrafficSimulator : Timestep 11
INFO traffic3.simulator.TrafficSimulator : Timestep 11 took 264 ms
INFO traffic3.simulator.TrafficSimulator : Timestep 12
INFO traffic3.simulator.TrafficSimulator : Timestep 12 took 111 ms
INFO traffic3.simulator.TrafficSimulator : Timestep 13
INFO traffic3.simulator.TrafficSimulator : Timestep 13 took 95 ms
INFO traffic3.simulator.TrafficSimulator : Timestep 14
INFO traffic3.simulator.TrafficSimulator : Timestep 14 took 92 ms
INFO traffic3.simulator.TrafficSimulator : Timestep 15
INFO traffic3.simulator.TrafficSimulator : Timestep 15 took 176 ms
INFO traffic3.simulator.TrafficSimulator : Timestep 16
INFO traffic3.simulator.TrafficSimulator : Timestep 16 took 105 ms
INFO traffic3.simulator.TrafficSimulator : Timestep 17
INFO traffic3.simulator.TrafficSimulator : Timestep 17 took 112 ms
INFO traffic3.simulator.TrafficSimulator : Timestep 18
INFO traffic3.simulator.TrafficSimulator : Timestep 18 took 155 ms
INFO traffic3.simulator.TrafficSimulator : Timestep 19
INFO traffic3.simulator.TrafficSimulator : Timestep 19 took 161 ms
INFO traffic3.simulator.TrafficSimulator : Timestep 20
INFO traffic3.simulator.TrafficSimulator : Timestep 20 took 90 ms
INFO traffic3.simulator.TrafficSimulator : Timestep 21
INFO traffic3.simulator.TrafficSimulator : Timestep 21 took 176 ms
INFO traffic3.simulator.TrafficSimulator : Timestep 22
INFO traffic3.simulator.TrafficSimulator : Timestep 22 took 171 ms
INFO traffic3.simulator.TrafficSimulator : Timestep 23
INFO traffic3.simulator.TrafficSimulator : Timestep 23 took 172 ms
INFO traffic3.simulator.TrafficSimulator : Timestep 24
INFO traffic3.simulator.TrafficSimulator : Timestep 24 took 166 ms
INFO traffic3.simulator.TrafficSimulator : Timestep 25
INFO traffic3.simulator.TrafficSimulator : Timestep 25 took 1176 ms
INFO traffic3.simulator.TrafficSimulator : Timestep 26
INFO traffic3.simulator.TrafficSimulator : Timestep 26 took 593 ms
INFO traffic3.simulator.TrafficSimulator : Timestep 27
INFO traffic3.simulator.TrafficSimulator : Timestep 27 took 362 ms
INFO traffic3.simulator.TrafficSimulator : Timestep 28
INFO traffic3.simulator.TrafficSimulator : Timestep 28 took 378 ms
INFO traffic3.simulator.TrafficSimulator : Timestep 29
INFO traffic3.simulator.TrafficSimulator : Timestep 29 took 241 ms
INFO traffic3.simulator.TrafficSimulator : Timestep 30
INFO traffic3.simulator.TrafficSimulator : Timestep 30 took 467 ms
INFO traffic3.simulator.TrafficSimulator : Timestep 31
INFO traffic3.simulator.TrafficSimulator : Timestep 31 took 260 ms
INFO traffic3.simulator.TrafficSimulator : Timestep 32
INFO traffic3.simulator.TrafficSimulator : Timestep 32 took 200 ms
INFO traffic3.simulator.TrafficSimulator : Timestep 33
INFO traffic3.simulator.TrafficSimulator : Timestep 33 took 280 ms
INFO traffic3.simulator.TrafficSimulator : Timestep 34
INFO traffic3.simulator.TrafficSimulator : Timestep 34 took 150 ms
INFO traffic3.simulator.TrafficSimulator : Timestep 35
INFO traffic3.simulator.TrafficSimulator : Timestep 35 took 147 ms
INFO traffic3.simulator.TrafficSimulator : Timestep 36
INFO traffic3.simulator.TrafficSimulator : Timestep 36 took 209 ms
INFO traffic3.simulator.TrafficSimulator : Timestep 37
INFO traffic3.simulator.TrafficSimulator : Timestep 37 took 144 ms
INFO traffic3.simulator.TrafficSimulator : Timestep 38
INFO traffic3.simulator.TrafficSimulator : Timestep 38 took 131 ms
INFO traffic3.simulator.TrafficSimulator : Timestep 39
INFO traffic3.simulator.TrafficSimulator : Timestep 39 took 95 ms
INFO traffic3.simulator.TrafficSimulator : Timestep 40
INFO traffic3.simulator.TrafficSimulator : Timestep 40 took 161 ms
INFO traffic3.simulator.TrafficSimulator : Timestep 41
INFO traffic3.simulator.TrafficSimulator : Timestep 41 took 84 ms
INFO traffic3.simulator.TrafficSimulator : Timestep 42
INFO traffic3.simulator.TrafficSimulator : Timestep 42 took 136 ms
INFO traffic3.simulator.TrafficSimulator : Timestep 43
INFO traffic3.simulator.TrafficSimulator : Timestep 43 took 58 ms
INFO traffic3.simulator.TrafficSimulator : Timestep 44
INFO traffic3.simulator.TrafficSimulator : Timestep 44 took 75 ms
INFO traffic3.simulator.TrafficSimulator : Timestep 45
INFO traffic3.simulator.TrafficSimulator : Timestep 45 took 70 ms
INFO traffic3.simulator.TrafficSimulator : Timestep 46
INFO traffic3.simulator.TrafficSimulator : Timestep 46 took 104 ms
INFO traffic3.simulator.TrafficSimulator : Timestep 47
INFO traffic3.simulator.TrafficSimulator : Timestep 47 took 82 ms
INFO traffic3.simulator.TrafficSimulator : Timestep 48
INFO traffic3.simulator.TrafficSimulator : Timestep 48 took 76 ms
INFO traffic3.simulator.TrafficSimulator : Timestep 49
INFO traffic3.simulator.TrafficSimulator : Timestep 49 took 87 ms
INFO traffic3.simulator.TrafficSimulator : Timestep 50
INFO traffic3.simulator.TrafficSimulator : Timestep 50 took 92 ms
INFO traffic3.simulator.TrafficSimulator : Timestep 51
INFO traffic3.simulator.TrafficSimulator : Timestep 51 took 102 ms
INFO traffic3.simulator.TrafficSimulator : Timestep 52
INFO traffic3.simulator.TrafficSimulator : Timestep 52 took 76 ms
INFO traffic3.simulator.TrafficSimulator : Timestep 53
INFO traffic3.simulator.TrafficSimulator : Timestep 53 took 70 ms
INFO traffic3.simulator.TrafficSimulator : Timestep 54
INFO traffic3.simulator.TrafficSimulator : Timestep 54 took 83 ms
