INFO launcher : Processing jar directory: /home/lc2n18/t00/rmasbench-sequential/RSLB2/boot/../../roborescue/jars
INFO launcher : Processing ../../roborescue/jars/human.jar
INFO launcher : Processing ../../roborescue/jars/sample.jar
WARN launcher : Class sample.CustomRegistryTestAgent$CustomEntityFactory not found
INFO launcher : Processing ../../roborescue/jars/collapse.jar
INFO launcher : Processing ../../roborescue/jars/misc.jar
INFO launcher : Processing ../../roborescue/jars/clear.jar
INFO launcher : Processing ../../roborescue/jars/maps.jar
INFO launcher : Processing ../../roborescue/jars/resq-fire.jar
INFO launcher : Processing ../../roborescue/jars/ignition.jar
INFO launcher : Processing ../../roborescue/jars/handy.jar
INFO launcher : Processing ../../roborescue/jars/standard.jar
INFO launcher : Registered entity factory 'rescuecore2.standard.entities.StandardEntityFactory' with registry System
INFO launcher : Registered property factory 'rescuecore2.standard.entities.StandardPropertyFactory' with registry System
INFO launcher : Registered message factory 'rescuecore2.standard.messages.StandardMessageFactory' with registry System
INFO launcher : Processing ../../roborescue/jars/gis2.jar
INFO launcher : Processing ../../roborescue/jars/traffic3.jar
INFO launcher : Processing ../../roborescue/jars/kernel.jar
INFO launcher : Launching 1 instances of component 'firesimulator.FireSimulatorWrapper'...
INFO launcher : Launching instance 1...
INFO firesimulator.FireSimulatorWrapper : firesimulator.FireSimulatorWrapper@5a17c839 connected
INFO firesimulator.world.World : World initialising
INFO firesimulator.world.World : loaded radiation sample file "rays/14542274827.rays"
INFO firesimulator.world.World : World width: 944775mm
INFO firesimulator.world.World : World height: 964205mm
INFO firesimulator.world.World : grid cell size=5000mm, x*y=189*193 = 36477
INFO firesimulator.world.World : World initialised
INFO launcher : success
INFO firesimulator.FireSimulatorWrapper : Unrecognised message type: urn:rescuecore2:messages.control:ks_aftershocks_info : TIMES = [], INTENSITIES = []
INFO firesimulator.FireSimulatorWrapper : Time 1 took 263ms
INFO firesimulator.FireSimulatorWrapper : Time 2 took 158ms
INFO firesimulator.FireSimulatorWrapper : Time 3 took 136ms
INFO firesimulator.FireSimulatorWrapper : Time 4 took 84ms
INFO firesimulator.FireSimulatorWrapper : Time 5 took 131ms
INFO firesimulator.FireSimulatorWrapper : Time 6 took 53ms
INFO firesimulator.FireSimulatorWrapper : Time 7 took 129ms
INFO firesimulator.FireSimulatorWrapper : Time 8 took 36ms
INFO firesimulator.FireSimulatorWrapper : Time 9 took 37ms
INFO firesimulator.FireSimulatorWrapper : Time 10 took 24ms
INFO firesimulator.FireSimulatorWrapper : Time 11 took 106ms
INFO firesimulator.FireSimulatorWrapper : Time 12 took 24ms
INFO firesimulator.FireSimulatorWrapper : Time 13 took 42ms
INFO firesimulator.FireSimulatorWrapper : Time 14 took 58ms
INFO firesimulator.FireSimulatorWrapper : Time 15 took 28ms
INFO firesimulator.FireSimulatorWrapper : Time 16 took 92ms
INFO firesimulator.FireSimulatorWrapper : Time 17 took 42ms
INFO firesimulator.FireSimulatorWrapper : Time 18 took 153ms
INFO firesimulator.FireSimulatorWrapper : Time 19 took 27ms
INFO firesimulator.FireSimulatorWrapper : Time 20 took 35ms
INFO firesimulator.FireSimulatorWrapper : Time 21 took 28ms
INFO firesimulator.FireSimulatorWrapper : Time 22 took 41ms
INFO firesimulator.FireSimulatorWrapper : Time 23 took 28ms
INFO firesimulator.FireSimulatorWrapper : Time 24 took 119ms
INFO firesimulator.FireSimulatorWrapper : Time 25 took 189ms
INFO firesimulator.FireSimulatorWrapper : Time 26 took 78ms
INFO firesimulator.FireSimulatorWrapper : Time 27 took 40ms
INFO firesimulator.FireSimulatorWrapper : Time 28 took 48ms
INFO firesimulator.FireSimulatorWrapper : Time 29 took 34ms
INFO firesimulator.FireSimulatorWrapper : Time 30 took 48ms
INFO firesimulator.FireSimulatorWrapper : Time 31 took 103ms
INFO firesimulator.FireSimulatorWrapper : Time 32 took 32ms
INFO firesimulator.FireSimulatorWrapper : Time 33 took 40ms
INFO firesimulator.FireSimulatorWrapper : Time 34 took 50ms
INFO firesimulator.FireSimulatorWrapper : Time 35 took 41ms
INFO firesimulator.FireSimulatorWrapper : Time 36 took 114ms
INFO firesimulator.FireSimulatorWrapper : Time 37 took 42ms
INFO firesimulator.FireSimulatorWrapper : Time 38 took 82ms
INFO firesimulator.FireSimulatorWrapper : Time 39 took 51ms
INFO firesimulator.FireSimulatorWrapper : Time 40 took 38ms
INFO firesimulator.FireSimulatorWrapper : Time 41 took 42ms
INFO firesimulator.FireSimulatorWrapper : Time 42 took 50ms
INFO firesimulator.FireSimulatorWrapper : Time 43 took 36ms
INFO firesimulator.FireSimulatorWrapper : Time 44 took 35ms
INFO firesimulator.FireSimulatorWrapper : Time 45 took 28ms
INFO firesimulator.FireSimulatorWrapper : Time 46 took 25ms
INFO firesimulator.FireSimulatorWrapper : Time 47 took 18ms
INFO firesimulator.FireSimulatorWrapper : Time 48 took 18ms
INFO firesimulator.FireSimulatorWrapper : Time 49 took 19ms
INFO firesimulator.FireSimulatorWrapper : Time 50 took 26ms
INFO firesimulator.FireSimulatorWrapper : Time 51 took 23ms
INFO firesimulator.FireSimulatorWrapper : Time 52 took 30ms
INFO firesimulator.FireSimulatorWrapper : Time 53 took 20ms
INFO firesimulator.FireSimulatorWrapper : Time 54 took 29ms
INFO firesimulator.FireSimulatorWrapper : Time 55 took 19ms
INFO firesimulator.FireSimulatorWrapper : Time 56 took 43ms
INFO firesimulator.FireSimulatorWrapper : Time 57 took 25ms
INFO firesimulator.FireSimulatorWrapper : Time 58 took 27ms
INFO firesimulator.FireSimulatorWrapper : Time 59 took 27ms
INFO firesimulator.FireSimulatorWrapper : Time 60 took 28ms
INFO firesimulator.FireSimulatorWrapper : Time 61 took 21ms
INFO firesimulator.FireSimulatorWrapper : Time 62 took 49ms
INFO firesimulator.FireSimulatorWrapper : Time 63 took 42ms
INFO firesimulator.FireSimulatorWrapper : Time 64 took 42ms
INFO firesimulator.FireSimulatorWrapper : Time 65 took 18ms
INFO firesimulator.FireSimulatorWrapper : Time 66 took 22ms
INFO firesimulator.FireSimulatorWrapper : Time 67 took 31ms
INFO firesimulator.FireSimulatorWrapper : Time 68 took 37ms
INFO firesimulator.FireSimulatorWrapper : Time 69 took 39ms
INFO firesimulator.FireSimulatorWrapper : Time 70 took 20ms
INFO firesimulator.FireSimulatorWrapper : Time 71 took 19ms
INFO firesimulator.FireSimulatorWrapper : Time 72 took 23ms
INFO firesimulator.FireSimulatorWrapper : Time 73 took 36ms
INFO firesimulator.FireSimulatorWrapper : Time 74 took 32ms
INFO firesimulator.FireSimulatorWrapper : Time 75 took 23ms
INFO firesimulator.FireSimulatorWrapper : Time 76 took 23ms
INFO firesimulator.FireSimulatorWrapper : Time 77 took 18ms
INFO firesimulator.FireSimulatorWrapper : Time 78 took 22ms
INFO firesimulator.FireSimulatorWrapper : Time 79 took 18ms
INFO firesimulator.FireSimulatorWrapper : Time 80 took 22ms
INFO firesimulator.FireSimulatorWrapper : Time 81 took 18ms
INFO firesimulator.FireSimulatorWrapper : Time 82 took 20ms
