INFO launcher : Processing jar directory: /home/lc2n18/t00/rmasbench-sequential/RSLB2/boot/../../roborescue/jars
INFO launcher : Processing ../../roborescue/jars/human.jar
INFO launcher : Processing ../../roborescue/jars/sample.jar
WARN launcher : Class sample.CustomRegistryTestAgent$CustomEntityFactory not found
INFO launcher : Processing ../../roborescue/jars/collapse.jar
INFO launcher : Processing ../../roborescue/jars/misc.jar
INFO launcher : Processing ../../roborescue/jars/clear.jar
INFO launcher : Processing ../../roborescue/jars/maps.jar
INFO launcher : Processing ../../roborescue/jars/resq-fire.jar
INFO launcher : Processing ../../roborescue/jars/ignition.jar
INFO launcher : Processing ../../roborescue/jars/handy.jar
INFO launcher : Processing ../../roborescue/jars/standard.jar
INFO launcher : Registered entity factory 'rescuecore2.standard.entities.StandardEntityFactory' with registry System
INFO launcher : Registered property factory 'rescuecore2.standard.entities.StandardPropertyFactory' with registry System
INFO launcher : Registered message factory 'rescuecore2.standard.messages.StandardMessageFactory' with registry System
INFO launcher : Processing ../../roborescue/jars/gis2.jar
INFO launcher : Processing ../../roborescue/jars/traffic3.jar
INFO launcher : Processing ../../roborescue/jars/kernel.jar
INFO launcher : Launching 1 instances of component 'traffic3.simulator.TrafficSimulator'...
INFO launcher : Launching instance 1...
INFO traffic3.simulator.TrafficSimulator : traffic3.simulator.TrafficSimulator@4faea6b6 connected
INFO launcher : success
INFO traffic3.simulator.TrafficSimulator : Unrecognised message type: urn:rescuecore2:messages.control:ks_aftershocks_info : TIMES = [], INTENSITIES = []
INFO traffic3.simulator.TrafficSimulator : Timestep 1
INFO traffic3.simulator.TrafficSimulator : Timestep 1 took 808 ms
INFO traffic3.simulator.TrafficSimulator : Timestep 2
INFO traffic3.simulator.TrafficSimulator : Timestep 2 took 271 ms
INFO traffic3.simulator.TrafficSimulator : Timestep 3
INFO traffic3.simulator.TrafficSimulator : Timestep 3 took 331 ms
INFO traffic3.simulator.TrafficSimulator : Timestep 4
INFO traffic3.simulator.TrafficSimulator : Timestep 4 took 158 ms
INFO traffic3.simulator.TrafficSimulator : Timestep 5
INFO traffic3.simulator.TrafficSimulator : Timestep 5 took 225 ms
INFO traffic3.simulator.TrafficSimulator : Timestep 6
INFO traffic3.simulator.TrafficSimulator : Timestep 6 took 182 ms
INFO traffic3.simulator.TrafficSimulator : Timestep 7
INFO traffic3.simulator.TrafficSimulator : Timestep 7 took 126 ms
INFO traffic3.simulator.TrafficSimulator : Timestep 8
INFO traffic3.simulator.TrafficSimulator : Timestep 8 took 204 ms
INFO traffic3.simulator.TrafficSimulator : Timestep 9
INFO traffic3.simulator.TrafficSimulator : Timestep 9 took 137 ms
INFO traffic3.simulator.TrafficSimulator : Timestep 10
INFO traffic3.simulator.TrafficSimulator : Timestep 10 took 84 ms
INFO traffic3.simulator.TrafficSimulator : Timestep 11
INFO traffic3.simulator.TrafficSimulator : Timestep 11 took 156 ms
INFO traffic3.simulator.TrafficSimulator : Timestep 12
INFO traffic3.simulator.TrafficSimulator : Timestep 12 took 84 ms
INFO traffic3.simulator.TrafficSimulator : Timestep 13
INFO traffic3.simulator.TrafficSimulator : Timestep 13 took 185 ms
INFO traffic3.simulator.TrafficSimulator : Timestep 14
INFO traffic3.simulator.TrafficSimulator : Timestep 14 took 95 ms
INFO traffic3.simulator.TrafficSimulator : Timestep 15
INFO traffic3.simulator.TrafficSimulator : Timestep 15 took 93 ms
INFO traffic3.simulator.TrafficSimulator : Timestep 16
INFO traffic3.simulator.TrafficSimulator : Timestep 16 took 100 ms
INFO traffic3.simulator.TrafficSimulator : Timestep 17
INFO traffic3.simulator.TrafficSimulator : Timestep 17 took 75 ms
INFO traffic3.simulator.TrafficSimulator : Timestep 18
INFO traffic3.simulator.TrafficSimulator : Timestep 18 took 251 ms
INFO traffic3.simulator.TrafficSimulator : Timestep 19
INFO traffic3.simulator.TrafficSimulator : Timestep 19 took 80 ms
INFO traffic3.simulator.TrafficSimulator : Timestep 20
INFO traffic3.simulator.TrafficSimulator : Timestep 20 took 74 ms
INFO traffic3.simulator.TrafficSimulator : Timestep 21
INFO traffic3.simulator.TrafficSimulator : Timestep 21 took 78 ms
INFO traffic3.simulator.TrafficSimulator : Timestep 22
INFO traffic3.simulator.TrafficSimulator : Timestep 22 took 143 ms
INFO traffic3.simulator.TrafficSimulator : Timestep 23
INFO traffic3.simulator.TrafficSimulator : Timestep 23 took 219 ms
INFO traffic3.simulator.TrafficSimulator : Timestep 24
INFO traffic3.simulator.TrafficSimulator : Timestep 24 took 155 ms
INFO traffic3.simulator.TrafficSimulator : Timestep 25
INFO traffic3.simulator.TrafficSimulator : Timestep 25 took 1313 ms
INFO traffic3.simulator.TrafficSimulator : Timestep 26
INFO traffic3.simulator.TrafficSimulator : Timestep 26 took 502 ms
INFO traffic3.simulator.TrafficSimulator : Timestep 27
INFO traffic3.simulator.TrafficSimulator : Timestep 27 took 315 ms
INFO traffic3.simulator.TrafficSimulator : Timestep 28
INFO traffic3.simulator.TrafficSimulator : Timestep 28 took 240 ms
INFO traffic3.simulator.TrafficSimulator : Timestep 29
INFO traffic3.simulator.TrafficSimulator : Timestep 29 took 252 ms
INFO traffic3.simulator.TrafficSimulator : Timestep 30
INFO traffic3.simulator.TrafficSimulator : Timestep 30 took 223 ms
INFO traffic3.simulator.TrafficSimulator : Timestep 31
INFO traffic3.simulator.TrafficSimulator : Timestep 31 took 338 ms
INFO traffic3.simulator.TrafficSimulator : Timestep 32
INFO traffic3.simulator.TrafficSimulator : Timestep 32 took 150 ms
INFO traffic3.simulator.TrafficSimulator : Timestep 33
INFO traffic3.simulator.TrafficSimulator : Timestep 33 took 162 ms
INFO traffic3.simulator.TrafficSimulator : Timestep 34
INFO traffic3.simulator.TrafficSimulator : Timestep 34 took 332 ms
INFO traffic3.simulator.TrafficSimulator : Timestep 35
INFO traffic3.simulator.TrafficSimulator : Timestep 35 took 100 ms
INFO traffic3.simulator.TrafficSimulator : Timestep 36
INFO traffic3.simulator.TrafficSimulator : Timestep 36 took 259 ms
INFO traffic3.simulator.TrafficSimulator : Timestep 37
INFO traffic3.simulator.TrafficSimulator : Timestep 37 took 156 ms
INFO traffic3.simulator.TrafficSimulator : Timestep 38
INFO traffic3.simulator.TrafficSimulator : Timestep 38 took 130 ms
INFO traffic3.simulator.TrafficSimulator : Timestep 39
INFO traffic3.simulator.TrafficSimulator : Timestep 39 took 98 ms
INFO traffic3.simulator.TrafficSimulator : Timestep 40
INFO traffic3.simulator.TrafficSimulator : Timestep 40 took 157 ms
INFO traffic3.simulator.TrafficSimulator : Timestep 41
INFO traffic3.simulator.TrafficSimulator : Timestep 41 took 117 ms
INFO traffic3.simulator.TrafficSimulator : Timestep 42
INFO traffic3.simulator.TrafficSimulator : Timestep 42 took 193 ms
INFO traffic3.simulator.TrafficSimulator : Timestep 43
INFO traffic3.simulator.TrafficSimulator : Timestep 43 took 104 ms
INFO traffic3.simulator.TrafficSimulator : Timestep 44
INFO traffic3.simulator.TrafficSimulator : Timestep 44 took 67 ms
INFO traffic3.simulator.TrafficSimulator : Timestep 45
INFO traffic3.simulator.TrafficSimulator : Timestep 45 took 103 ms
INFO traffic3.simulator.TrafficSimulator : Timestep 46
INFO traffic3.simulator.TrafficSimulator : Timestep 46 took 114 ms
INFO traffic3.simulator.TrafficSimulator : Timestep 47
INFO traffic3.simulator.TrafficSimulator : Timestep 47 took 87 ms
INFO traffic3.simulator.TrafficSimulator : Timestep 48
INFO traffic3.simulator.TrafficSimulator : Timestep 48 took 200 ms
INFO traffic3.simulator.TrafficSimulator : Timestep 49
INFO traffic3.simulator.TrafficSimulator : Timestep 49 took 92 ms
INFO traffic3.simulator.TrafficSimulator : Timestep 50
INFO traffic3.simulator.TrafficSimulator : Timestep 50 took 151 ms
INFO traffic3.simulator.TrafficSimulator : Timestep 51
INFO traffic3.simulator.TrafficSimulator : Timestep 51 took 103 ms
INFO traffic3.simulator.TrafficSimulator : Timestep 52
INFO traffic3.simulator.TrafficSimulator : Timestep 52 took 116 ms
INFO traffic3.simulator.TrafficSimulator : Timestep 53
INFO traffic3.simulator.TrafficSimulator : Timestep 53 took 105 ms
INFO traffic3.simulator.TrafficSimulator : Timestep 54
INFO traffic3.simulator.TrafficSimulator : Timestep 54 took 103 ms
INFO traffic3.simulator.TrafficSimulator : Timestep 55
INFO traffic3.simulator.TrafficSimulator : Timestep 55 took 76 ms
INFO traffic3.simulator.TrafficSimulator : Timestep 56
INFO traffic3.simulator.TrafficSimulator : Timestep 56 took 79 ms
INFO traffic3.simulator.TrafficSimulator : Timestep 57
INFO traffic3.simulator.TrafficSimulator : Timestep 57 took 83 ms
INFO traffic3.simulator.TrafficSimulator : Timestep 58
INFO traffic3.simulator.TrafficSimulator : Timestep 58 took 50 ms
INFO traffic3.simulator.TrafficSimulator : Timestep 59
INFO traffic3.simulator.TrafficSimulator : Timestep 59 took 64 ms
INFO traffic3.simulator.TrafficSimulator : Timestep 60
INFO traffic3.simulator.TrafficSimulator : Timestep 60 took 66 ms
INFO traffic3.simulator.TrafficSimulator : Timestep 61
INFO traffic3.simulator.TrafficSimulator : Timestep 61 took 103 ms
INFO traffic3.simulator.TrafficSimulator : Timestep 62
INFO traffic3.simulator.TrafficSimulator : Timestep 62 took 74 ms
INFO traffic3.simulator.TrafficSimulator : Timestep 63
INFO traffic3.simulator.TrafficSimulator : Timestep 63 took 114 ms
INFO traffic3.simulator.TrafficSimulator : Timestep 64
INFO traffic3.simulator.TrafficSimulator : Timestep 64 took 83 ms
INFO traffic3.simulator.TrafficSimulator : Timestep 65
INFO traffic3.simulator.TrafficSimulator : Timestep 65 took 111 ms
INFO traffic3.simulator.TrafficSimulator : Timestep 66
INFO traffic3.simulator.TrafficSimulator : Timestep 66 took 140 ms
