INFO launcher : Processing jar directory: /home/lc2n18/t00/rmasbench-sequential/RSLB2/boot/../../roborescue/jars
INFO launcher : Processing ../../roborescue/jars/human.jar
INFO launcher : Processing ../../roborescue/jars/sample.jar
WARN launcher : Class sample.CustomRegistryTestAgent$CustomEntityFactory not found
INFO launcher : Processing ../../roborescue/jars/collapse.jar
INFO launcher : Processing ../../roborescue/jars/misc.jar
INFO launcher : Processing ../../roborescue/jars/clear.jar
INFO launcher : Processing ../../roborescue/jars/maps.jar
INFO launcher : Processing ../../roborescue/jars/resq-fire.jar
INFO launcher : Processing ../../roborescue/jars/ignition.jar
INFO launcher : Processing ../../roborescue/jars/handy.jar
INFO launcher : Processing ../../roborescue/jars/standard.jar
INFO launcher : Registered entity factory 'rescuecore2.standard.entities.StandardEntityFactory' with registry System
INFO launcher : Registered property factory 'rescuecore2.standard.entities.StandardPropertyFactory' with registry System
INFO launcher : Registered message factory 'rescuecore2.standard.messages.StandardMessageFactory' with registry System
INFO launcher : Processing ../../roborescue/jars/gis2.jar
INFO launcher : Processing ../../roborescue/jars/traffic3.jar
INFO launcher : Processing ../../roborescue/jars/kernel.jar
INFO launcher : Launching 1 instances of component 'traffic3.simulator.TrafficSimulator'...
INFO launcher : Launching instance 1...
INFO traffic3.simulator.TrafficSimulator : traffic3.simulator.TrafficSimulator@47fce633 connected
INFO launcher : success
INFO traffic3.simulator.TrafficSimulator : Unrecognised message type: urn:rescuecore2:messages.control:ks_aftershocks_info : TIMES = [], INTENSITIES = []
INFO traffic3.simulator.TrafficSimulator : Timestep 1
INFO traffic3.simulator.TrafficSimulator : Timestep 1 took 505 ms
INFO traffic3.simulator.TrafficSimulator : Timestep 2
INFO traffic3.simulator.TrafficSimulator : Timestep 2 took 144 ms
INFO traffic3.simulator.TrafficSimulator : Timestep 3
INFO traffic3.simulator.TrafficSimulator : Timestep 3 took 193 ms
INFO traffic3.simulator.TrafficSimulator : Timestep 4
INFO traffic3.simulator.TrafficSimulator : Timestep 4 took 74 ms
INFO traffic3.simulator.TrafficSimulator : Timestep 5
INFO traffic3.simulator.TrafficSimulator : Timestep 5 took 194 ms
INFO traffic3.simulator.TrafficSimulator : Timestep 6
INFO traffic3.simulator.TrafficSimulator : Timestep 6 took 83 ms
INFO traffic3.simulator.TrafficSimulator : Timestep 7
INFO traffic3.simulator.TrafficSimulator : Timestep 7 took 143 ms
INFO traffic3.simulator.TrafficSimulator : Timestep 8
INFO traffic3.simulator.TrafficSimulator : Timestep 8 took 47 ms
INFO traffic3.simulator.TrafficSimulator : Timestep 9
INFO traffic3.simulator.TrafficSimulator : Timestep 9 took 44 ms
INFO traffic3.simulator.TrafficSimulator : Timestep 10
INFO traffic3.simulator.TrafficSimulator : Timestep 10 took 41 ms
INFO traffic3.simulator.TrafficSimulator : Timestep 11
INFO traffic3.simulator.TrafficSimulator : Timestep 11 took 124 ms
INFO traffic3.simulator.TrafficSimulator : Timestep 12
INFO traffic3.simulator.TrafficSimulator : Timestep 12 took 44 ms
INFO traffic3.simulator.TrafficSimulator : Timestep 13
INFO traffic3.simulator.TrafficSimulator : Timestep 13 took 52 ms
INFO traffic3.simulator.TrafficSimulator : Timestep 14
INFO traffic3.simulator.TrafficSimulator : Timestep 14 took 53 ms
INFO traffic3.simulator.TrafficSimulator : Timestep 15
INFO traffic3.simulator.TrafficSimulator : Timestep 15 took 45 ms
INFO traffic3.simulator.TrafficSimulator : Timestep 16
INFO traffic3.simulator.TrafficSimulator : Timestep 16 took 151 ms
INFO traffic3.simulator.TrafficSimulator : Timestep 17
INFO traffic3.simulator.TrafficSimulator : Timestep 17 took 42 ms
INFO traffic3.simulator.TrafficSimulator : Timestep 18
INFO traffic3.simulator.TrafficSimulator : Timestep 18 took 117 ms
INFO traffic3.simulator.TrafficSimulator : Timestep 19
INFO traffic3.simulator.TrafficSimulator : Timestep 19 took 74 ms
INFO traffic3.simulator.TrafficSimulator : Timestep 20
INFO traffic3.simulator.TrafficSimulator : Timestep 20 took 39 ms
INFO traffic3.simulator.TrafficSimulator : Timestep 21
INFO traffic3.simulator.TrafficSimulator : Timestep 21 took 45 ms
INFO traffic3.simulator.TrafficSimulator : Timestep 22
INFO traffic3.simulator.TrafficSimulator : Timestep 22 took 66 ms
INFO traffic3.simulator.TrafficSimulator : Timestep 23
INFO traffic3.simulator.TrafficSimulator : Timestep 23 took 53 ms
INFO traffic3.simulator.TrafficSimulator : Timestep 24
INFO traffic3.simulator.TrafficSimulator : Timestep 24 took 127 ms
INFO traffic3.simulator.TrafficSimulator : Timestep 25
INFO traffic3.simulator.TrafficSimulator : Timestep 25 took 1164 ms
INFO traffic3.simulator.TrafficSimulator : Timestep 26
INFO traffic3.simulator.TrafficSimulator : Timestep 26 took 533 ms
INFO traffic3.simulator.TrafficSimulator : Timestep 27
INFO traffic3.simulator.TrafficSimulator : Timestep 27 took 400 ms
INFO traffic3.simulator.TrafficSimulator : Timestep 28
INFO traffic3.simulator.TrafficSimulator : Timestep 28 took 297 ms
INFO traffic3.simulator.TrafficSimulator : Timestep 29
INFO traffic3.simulator.TrafficSimulator : Timestep 29 took 610 ms
INFO traffic3.simulator.TrafficSimulator : Timestep 30
INFO traffic3.simulator.TrafficSimulator : Timestep 30 took 292 ms
INFO traffic3.simulator.TrafficSimulator : Timestep 31
INFO traffic3.simulator.TrafficSimulator : Timestep 31 took 238 ms
INFO traffic3.simulator.TrafficSimulator : Timestep 32
INFO traffic3.simulator.TrafficSimulator : Timestep 32 took 64 ms
INFO traffic3.simulator.TrafficSimulator : Timestep 33
INFO traffic3.simulator.TrafficSimulator : Timestep 33 took 81 ms
INFO traffic3.simulator.TrafficSimulator : Timestep 34
INFO traffic3.simulator.TrafficSimulator : Timestep 34 took 127 ms
INFO traffic3.simulator.TrafficSimulator : Timestep 35
INFO traffic3.simulator.TrafficSimulator : Timestep 35 took 111 ms
INFO traffic3.simulator.TrafficSimulator : Timestep 36
INFO traffic3.simulator.TrafficSimulator : Timestep 36 took 149 ms
INFO traffic3.simulator.TrafficSimulator : Timestep 37
INFO traffic3.simulator.TrafficSimulator : Timestep 37 took 68 ms
INFO traffic3.simulator.TrafficSimulator : Timestep 38
INFO traffic3.simulator.TrafficSimulator : Timestep 38 took 183 ms
INFO traffic3.simulator.TrafficSimulator : Timestep 39
INFO traffic3.simulator.TrafficSimulator : Timestep 39 took 67 ms
INFO traffic3.simulator.TrafficSimulator : Timestep 40
INFO traffic3.simulator.TrafficSimulator : Timestep 40 took 64 ms
INFO traffic3.simulator.TrafficSimulator : Timestep 41
INFO traffic3.simulator.TrafficSimulator : Timestep 41 took 86 ms
INFO traffic3.simulator.TrafficSimulator : Timestep 42
INFO traffic3.simulator.TrafficSimulator : Timestep 42 took 115 ms
INFO traffic3.simulator.TrafficSimulator : Timestep 43
INFO traffic3.simulator.TrafficSimulator : Timestep 43 took 76 ms
INFO traffic3.simulator.TrafficSimulator : Timestep 44
INFO traffic3.simulator.TrafficSimulator : Timestep 44 took 90 ms
INFO traffic3.simulator.TrafficSimulator : Timestep 45
INFO traffic3.simulator.TrafficSimulator : Timestep 45 took 172 ms
INFO traffic3.simulator.TrafficSimulator : Timestep 46
INFO traffic3.simulator.TrafficSimulator : Timestep 46 took 132 ms
INFO traffic3.simulator.TrafficSimulator : Timestep 47
INFO traffic3.simulator.TrafficSimulator : Timestep 47 took 68 ms
INFO traffic3.simulator.TrafficSimulator : Timestep 48
INFO traffic3.simulator.TrafficSimulator : Timestep 48 took 24 ms
INFO traffic3.simulator.TrafficSimulator : Timestep 49
INFO traffic3.simulator.TrafficSimulator : Timestep 49 took 27 ms
INFO traffic3.simulator.TrafficSimulator : Timestep 50
INFO traffic3.simulator.TrafficSimulator : Timestep 50 took 4 ms
INFO traffic3.simulator.TrafficSimulator : Timestep 51
INFO traffic3.simulator.TrafficSimulator : Timestep 51 took 0 ms
INFO traffic3.simulator.TrafficSimulator : Timestep 52
INFO traffic3.simulator.TrafficSimulator : Timestep 52 took 0 ms
INFO traffic3.simulator.TrafficSimulator : Timestep 53
INFO traffic3.simulator.TrafficSimulator : Timestep 53 took 51 ms
INFO traffic3.simulator.TrafficSimulator : Timestep 54
INFO traffic3.simulator.TrafficSimulator : Timestep 54 took 100 ms
INFO traffic3.simulator.TrafficSimulator : Timestep 55
INFO traffic3.simulator.TrafficSimulator : Timestep 55 took 68 ms
INFO traffic3.simulator.TrafficSimulator : Timestep 56
INFO traffic3.simulator.TrafficSimulator : Timestep 56 took 102 ms
INFO traffic3.simulator.TrafficSimulator : Timestep 57
INFO traffic3.simulator.TrafficSimulator : Timestep 57 took 72 ms
INFO traffic3.simulator.TrafficSimulator : Timestep 58
INFO traffic3.simulator.TrafficSimulator : Timestep 58 took 64 ms
INFO traffic3.simulator.TrafficSimulator : Timestep 59
INFO traffic3.simulator.TrafficSimulator : Timestep 59 took 68 ms
INFO traffic3.simulator.TrafficSimulator : Timestep 60
INFO traffic3.simulator.TrafficSimulator : Timestep 60 took 57 ms
INFO traffic3.simulator.TrafficSimulator : Timestep 61
INFO traffic3.simulator.TrafficSimulator : Timestep 61 took 53 ms
INFO traffic3.simulator.TrafficSimulator : Timestep 62
INFO traffic3.simulator.TrafficSimulator : Timestep 62 took 111 ms
INFO traffic3.simulator.TrafficSimulator : Timestep 63
INFO traffic3.simulator.TrafficSimulator : Timestep 63 took 125 ms
INFO traffic3.simulator.TrafficSimulator : Timestep 64
INFO traffic3.simulator.TrafficSimulator : Timestep 64 took 87 ms
INFO traffic3.simulator.TrafficSimulator : Timestep 65
INFO traffic3.simulator.TrafficSimulator : Timestep 65 took 59 ms
INFO traffic3.simulator.TrafficSimulator : Timestep 66
INFO traffic3.simulator.TrafficSimulator : Timestep 66 took 62 ms
INFO traffic3.simulator.TrafficSimulator : Timestep 67
INFO traffic3.simulator.TrafficSimulator : Timestep 67 took 115 ms
INFO traffic3.simulator.TrafficSimulator : Timestep 68
INFO traffic3.simulator.TrafficSimulator : Timestep 68 took 86 ms
INFO traffic3.simulator.TrafficSimulator : Timestep 69
INFO traffic3.simulator.TrafficSimulator : Timestep 69 took 210 ms
INFO traffic3.simulator.TrafficSimulator : Timestep 70
INFO traffic3.simulator.TrafficSimulator : Timestep 70 took 42 ms
INFO traffic3.simulator.TrafficSimulator : Timestep 71
INFO traffic3.simulator.TrafficSimulator : Timestep 71 took 29 ms
