INFO startup : Looking for gis, perception, communication, agent, simulator and viewer implementations
INFO startup : Processing jar directory: /home/lc2n18/t00/rmasbench-sequential/RSLB2/boot/../../roborescue/jars
INFO startup : Processing ../../roborescue/jars/human.jar
INFO startup : Adding human.ControlledAgentGUI$ControlViewer to kernel.viewers
INFO startup : Adding human.ControlledAmbulanceTeam to kernel.agents
INFO startup : Adding human.ControlledFireBrigade to kernel.agents
INFO startup : Adding human.ControlledPoliceForce to kernel.agents
INFO startup : Processing ../../roborescue/jars/sample.jar
INFO startup : Adding sample.SampleCivilian to kernel.agents
INFO startup : Adding sample.SampleFireBrigade to kernel.agents
INFO startup : Adding sample.SamplePoliceForce to kernel.agents
INFO startup : Adding sample.SampleAmbulanceTeam to kernel.agents
INFO startup : Adding sample.SampleCentre to kernel.agents
INFO startup : Adding sample.ChannelTestAgent to kernel.agents
INFO startup : Adding sample.CustomRegistryTestAgent to kernel.agents
INFO startup : No INSTANCE field in class sample.CustomRegistryTestAgent$CustomEntityFactory
INFO startup : Could not instantiate class sample.CustomRegistryTestAgent$CustomEntityFactory
INFO startup : Adding sample.SampleAmbulanceTeam to kernel.agents
INFO startup : Adding sample.SampleCentre to kernel.agents
INFO startup : Adding sample.SampleCivilian to kernel.agents
INFO startup : Adding sample.SampleFireBrigade to kernel.agents
INFO startup : Adding sample.SamplePoliceForce to kernel.agents
INFO startup : Adding sample.SampleSimulator to kernel.simulators
INFO startup : Adding sample.SampleViewer to kernel.viewers
INFO startup : Processing ../../roborescue/jars/collapse.jar
INFO startup : Adding collapse.CollapseSimulator to kernel.simulators
INFO startup : Adding collapse.CollapseSimulator to kernel.simulators
INFO startup : Processing ../../roborescue/jars/misc.jar
INFO startup : Adding misc.MiscSimulator to kernel.simulators
INFO startup : Adding misc.MiscSimulator to kernel.simulators
INFO startup : Processing ../../roborescue/jars/clear.jar
INFO startup : Adding clear.ClearSimulator to kernel.simulators
INFO startup : Processing ../../roborescue/jars/maps.jar
INFO startup : Processing ../../roborescue/jars/resq-fire.jar
INFO startup : Adding firesimulator.FireSimulatorWrapper to kernel.simulators
INFO startup : Processing ../../roborescue/jars/ignition.jar
INFO startup : Adding ignition.IgnitionSimulator to kernel.simulators
INFO startup : Processing ../../roborescue/jars/handy.jar
INFO startup : Processing ../../roborescue/jars/standard.jar
INFO startup : Adding rescuecore2.standard.components.StandardSimulator to kernel.simulators
INFO startup : Adding rescuecore2.standard.components.StandardViewer to kernel.viewers
INFO startup : Registered entity factory 'rescuecore2.standard.entities.StandardEntityFactory' with registry System
INFO startup : Registered property factory 'rescuecore2.standard.entities.StandardPropertyFactory' with registry System
INFO startup : Adding rescuecore2.standard.kernel.LineOfSightPerception to kernel.perception
INFO startup : Adding rescuecore2.standard.kernel.StandardPerception to kernel.perception
INFO startup : Adding rescuecore2.standard.kernel.comms.ChannelCommunicationModel to kernel.communication
INFO startup : Adding rescuecore2.standard.kernel.comms.StandardCommunicationModel to kernel.communication
INFO startup : Registered message factory 'rescuecore2.standard.messages.StandardMessageFactory' with registry System
INFO startup : Processing ../../roborescue/jars/gis2.jar
INFO startup : Adding gis2.GMLWorldModelCreator to kernel.gis
INFO startup : Processing ../../roborescue/jars/traffic3.jar
INFO startup : Adding traffic3.simulator.TrafficSimulator to kernel.simulators
INFO startup : Processing ../../roborescue/jars/kernel.jar
INFO startup : Adding kernel.AbstractCommunicationModel to kernel.communication
INFO startup : Adding kernel.RemoteGISWorldModelCreator to kernel.gis
INFO kernel : Could not instantiate class human.ControlledAgentGUI$ControlViewer
INFO kernel : Logging to /dev/null
INFO kernel : Created channel: Voice channel 0 (range = 30000, max 1 messages of size 256)
INFO kernel : Created channel: Radio channel 1 (bandwidth = 4000)
INFO kernel : Created channel: Radio channel 2 (bandwidth = 4000)
INFO kernel : Kernel initialised
INFO kernel : Perception module: Standard perception
INFO kernel : Communication module: Channel communication model
INFO kernel : Command filter: kernel.ChainedCommandFilter@2fc72df3
INFO kernel : Score function: Score graph
INFO kernel : Termination condition: Timestep >= 300
INFO kernel : Command collector: CompositeCommandCollector [Timed command collector]
INFO kernel : Agent controlled entity registered: Fire brigade (362174175)
INFO kernel : Agent controlled entity registered: Fire brigade (1578524041)
INFO kernel : Agent controlled entity registered: Fire brigade (747532129)
INFO kernel : Agent controlled entity registered: Fire brigade (916116076)
INFO kernel : Agent controlled entity registered: Fire brigade (372798146)
INFO kernel : Agent controlled entity registered: Fire brigade (1216957950)
INFO kernel : Agent controlled entity registered: Fire brigade (1734427271)
INFO kernel : Agent controlled entity registered: Fire brigade (6670187)
INFO kernel : Agent controlled entity registered: Fire brigade (1920906549)
INFO kernel : Agent controlled entity registered: Fire brigade (1657300380)
INFO kernel : Agent controlled entity registered: Fire brigade (1237691950)
INFO kernel : Agent controlled entity registered: Fire brigade (1599551424)
INFO kernel : Agent controlled entity registered: Fire brigade (1744825418)
INFO kernel : Agent controlled entity registered: Fire brigade (2122560852)
INFO kernel : Agent controlled entity registered: Fire brigade (653404778)
INFO kernel : Agent controlled entity registered: Fire brigade (213827656)
INFO kernel : Agent controlled entity registered: Fire brigade (20245682)
INFO kernel : Agent controlled entity registered: Fire brigade (615606628)
INFO kernel : Agent controlled entity registered: Fire brigade (70494696)
INFO kernel : Agent controlled entity registered: Fire brigade (1781400741)
INFO kernel : Agent controlled entity registered: Fire brigade (667527434)
INFO kernel : Agent controlled entity registered: Fire brigade (1656884228)
INFO kernel : Agent controlled entity registered: Fire brigade (59462593)
INFO kernel : Agent controlled entity registered: Fire brigade (972982610)
INFO kernel : Agent controlled entity registered: Fire brigade (2035320987)
INFO kernel : Agent controlled entity registered: Fire brigade (804035962)
INFO kernel : Agent controlled entity registered: Fire brigade (111891956)
INFO kernel : Agent controlled entity registered: Fire brigade (1985299050)
INFO kernel : Agent controlled entity registered: Fire brigade (1897031058)
INFO kernel : Agent controlled entity registered: Fire brigade (1491414397)
INFO kernel : Agent controlled entity registered: Fire brigade (1446502557)
INFO kernel : Agent controlled entity registered: Fire brigade (349798935)
INFO kernel : Agent controlled entity registered: Fire brigade (211073886)
INFO kernel : Agent controlled entity registered: Fire brigade (352849266)
INFO kernel : Agent controlled entity registered: Fire brigade (303360883)
INFO kernel : Agent controlled entity registered: Fire brigade (1358530950)
INFO kernel : Agent controlled entity registered: Fire brigade (1544906308)
INFO kernel : Agent controlled entity registered: Fire station (64173)
INFO kernel : Agent controlled entity registered: Fire brigade (744576890)
INFO kernel : Agent controlled entity registered: Fire brigade (1726298191)
INFO kernel : Agent controlled entity registered: Fire brigade (922962082)
INFO kernel : Listening for connections on port 8044
INFO kernel : Waiting for all agents, simulators and viewers to connect.
INFO kernel : Connection timeout is 3600000ms
INFO kernel : Waiting for 40 entities of type urn:rescuecore2.standard:entity:firebrigade
INFO kernel : Waiting for 1 entities of type urn:rescuecore2.standard:entity:firestation
INFO kernel : Simulator 'misc.MiscSimulator' id 1 (TCPConnection: local port 8044, endpoint = /127.0.0.1:51650 request ID 1) connected
INFO kernel : Simulator 'firesimulator.FireSimulatorWrapper' id 2 (TCPConnection: local port 8044, endpoint = /127.0.0.1:51652 request ID 1) connected
INFO kernel : Simulator 'traffic3.simulator.TrafficSimulator' id 3 (TCPConnection: local port 8044, endpoint = /127.0.0.1:51654 request ID 1) connected
INFO kernel : Simulator 1 (TCPConnection: local port 8044, endpoint = /127.0.0.1:51650 request ID 1) acknowledged
INFO kernel : Simulator 3 (TCPConnection: local port 8044, endpoint = /127.0.0.1:51654 request ID 1) acknowledged
INFO kernel : Agent 'RSLBench.PlatoonFireAgent' id 362174175 (TCPConnection: local port 8044, endpoint = /127.0.0.1:51656 request ID 1) connected
INFO kernel : Agent 362174175 (TCPConnection: local port 8044, endpoint = /127.0.0.1:51656 request ID 1) acknowledged
INFO kernel : Waiting for 39 entities of type urn:rescuecore2.standard:entity:firebrigade
INFO kernel : Waiting for 1 entities of type urn:rescuecore2.standard:entity:firestation
INFO kernel : Agent 'RSLBench.PlatoonFireAgent' id 1578524041 (TCPConnection: local port 8044, endpoint = /127.0.0.1:51658 request ID 2) connected
INFO kernel : Agent 1578524041 (TCPConnection: local port 8044, endpoint = /127.0.0.1:51658 request ID 2) acknowledged
INFO kernel : Waiting for 38 entities of type urn:rescuecore2.standard:entity:firebrigade
INFO kernel : Waiting for 1 entities of type urn:rescuecore2.standard:entity:firestation
INFO kernel : Agent 'RSLBench.PlatoonFireAgent' id 747532129 (TCPConnection: local port 8044, endpoint = /127.0.0.1:51660 request ID 3) connected
INFO kernel : Simulator 2 (TCPConnection: local port 8044, endpoint = /127.0.0.1:51652 request ID 1) acknowledged
INFO kernel : Agent 747532129 (TCPConnection: local port 8044, endpoint = /127.0.0.1:51660 request ID 3) acknowledged
INFO kernel : Waiting for 37 entities of type urn:rescuecore2.standard:entity:firebrigade
INFO kernel : Waiting for 1 entities of type urn:rescuecore2.standard:entity:firestation
INFO kernel : Agent 'RSLBench.PlatoonFireAgent' id 916116076 (TCPConnection: local port 8044, endpoint = /127.0.0.1:51662 request ID 4) connected
INFO kernel : Agent 916116076 (TCPConnection: local port 8044, endpoint = /127.0.0.1:51662 request ID 4) acknowledged
INFO kernel : Waiting for 36 entities of type urn:rescuecore2.standard:entity:firebrigade
INFO kernel : Waiting for 1 entities of type urn:rescuecore2.standard:entity:firestation
INFO kernel : Agent 'RSLBench.PlatoonFireAgent' id 372798146 (TCPConnection: local port 8044, endpoint = /127.0.0.1:51664 request ID 5) connected
INFO kernel : Agent 372798146 (TCPConnection: local port 8044, endpoint = /127.0.0.1:51664 request ID 5) acknowledged
INFO kernel : Waiting for 35 entities of type urn:rescuecore2.standard:entity:firebrigade
INFO kernel : Waiting for 1 entities of type urn:rescuecore2.standard:entity:firestation
INFO kernel : Agent 'RSLBench.PlatoonFireAgent' id 1216957950 (TCPConnection: local port 8044, endpoint = /127.0.0.1:51666 request ID 6) connected
INFO kernel : Agent 1216957950 (TCPConnection: local port 8044, endpoint = /127.0.0.1:51666 request ID 6) acknowledged
INFO kernel : Waiting for 34 entities of type urn:rescuecore2.standard:entity:firebrigade
INFO kernel : Waiting for 1 entities of type urn:rescuecore2.standard:entity:firestation
INFO kernel : Agent 'RSLBench.PlatoonFireAgent' id 1734427271 (TCPConnection: local port 8044, endpoint = /127.0.0.1:51668 request ID 7) connected
INFO kernel : Agent 1734427271 (TCPConnection: local port 8044, endpoint = /127.0.0.1:51668 request ID 7) acknowledged
INFO kernel : Waiting for 33 entities of type urn:rescuecore2.standard:entity:firebrigade
INFO kernel : Waiting for 1 entities of type urn:rescuecore2.standard:entity:firestation
INFO kernel : Agent 'RSLBench.PlatoonFireAgent' id 6670187 (TCPConnection: local port 8044, endpoint = /127.0.0.1:51670 request ID 8) connected
INFO kernel : Agent 6670187 (TCPConnection: local port 8044, endpoint = /127.0.0.1:51670 request ID 8) acknowledged
INFO kernel : Waiting for 32 entities of type urn:rescuecore2.standard:entity:firebrigade
INFO kernel : Waiting for 1 entities of type urn:rescuecore2.standard:entity:firestation
INFO kernel : Agent 'RSLBench.PlatoonFireAgent' id 1920906549 (TCPConnection: local port 8044, endpoint = /127.0.0.1:51672 request ID 9) connected
INFO kernel : Agent 1920906549 (TCPConnection: local port 8044, endpoint = /127.0.0.1:51672 request ID 9) acknowledged
INFO kernel : Waiting for 31 entities of type urn:rescuecore2.standard:entity:firebrigade
INFO kernel : Waiting for 1 entities of type urn:rescuecore2.standard:entity:firestation
INFO kernel : Agent 'RSLBench.PlatoonFireAgent' id 1657300380 (TCPConnection: local port 8044, endpoint = /127.0.0.1:51674 request ID 10) connected
INFO kernel : Agent 1657300380 (TCPConnection: local port 8044, endpoint = /127.0.0.1:51674 request ID 10) acknowledged
INFO kernel : Waiting for 30 entities of type urn:rescuecore2.standard:entity:firebrigade
INFO kernel : Waiting for 1 entities of type urn:rescuecore2.standard:entity:firestation
INFO kernel : Agent 'RSLBench.PlatoonFireAgent' id 1237691950 (TCPConnection: local port 8044, endpoint = /127.0.0.1:51676 request ID 11) connected
INFO kernel : Agent 1237691950 (TCPConnection: local port 8044, endpoint = /127.0.0.1:51676 request ID 11) acknowledged
INFO kernel : Waiting for 29 entities of type urn:rescuecore2.standard:entity:firebrigade
INFO kernel : Waiting for 1 entities of type urn:rescuecore2.standard:entity:firestation
INFO kernel : Agent 'RSLBench.PlatoonFireAgent' id 1599551424 (TCPConnection: local port 8044, endpoint = /127.0.0.1:51678 request ID 12) connected
INFO kernel : Agent 1599551424 (TCPConnection: local port 8044, endpoint = /127.0.0.1:51678 request ID 12) acknowledged
INFO kernel : Waiting for 28 entities of type urn:rescuecore2.standard:entity:firebrigade
INFO kernel : Waiting for 1 entities of type urn:rescuecore2.standard:entity:firestation
INFO kernel : Agent 'RSLBench.PlatoonFireAgent' id 1744825418 (TCPConnection: local port 8044, endpoint = /127.0.0.1:51680 request ID 13) connected
INFO kernel : Agent 1744825418 (TCPConnection: local port 8044, endpoint = /127.0.0.1:51680 request ID 13) acknowledged
INFO kernel : Waiting for 27 entities of type urn:rescuecore2.standard:entity:firebrigade
INFO kernel : Waiting for 1 entities of type urn:rescuecore2.standard:entity:firestation
INFO kernel : Agent 'RSLBench.PlatoonFireAgent' id 2122560852 (TCPConnection: local port 8044, endpoint = /127.0.0.1:51682 request ID 14) connected
INFO kernel : Agent 2122560852 (TCPConnection: local port 8044, endpoint = /127.0.0.1:51682 request ID 14) acknowledged
INFO kernel : Waiting for 26 entities of type urn:rescuecore2.standard:entity:firebrigade
INFO kernel : Waiting for 1 entities of type urn:rescuecore2.standard:entity:firestation
INFO kernel : Agent 'RSLBench.PlatoonFireAgent' id 653404778 (TCPConnection: local port 8044, endpoint = /127.0.0.1:51684 request ID 15) connected
INFO kernel : Agent 653404778 (TCPConnection: local port 8044, endpoint = /127.0.0.1:51684 request ID 15) acknowledged
INFO kernel : Waiting for 25 entities of type urn:rescuecore2.standard:entity:firebrigade
INFO kernel : Waiting for 1 entities of type urn:rescuecore2.standard:entity:firestation
INFO kernel : Agent 'RSLBench.PlatoonFireAgent' id 213827656 (TCPConnection: local port 8044, endpoint = /127.0.0.1:51686 request ID 16) connected
INFO kernel : Agent 213827656 (TCPConnection: local port 8044, endpoint = /127.0.0.1:51686 request ID 16) acknowledged
INFO kernel : Waiting for 24 entities of type urn:rescuecore2.standard:entity:firebrigade
INFO kernel : Waiting for 1 entities of type urn:rescuecore2.standard:entity:firestation
INFO kernel : Agent 'RSLBench.PlatoonFireAgent' id 20245682 (TCPConnection: local port 8044, endpoint = /127.0.0.1:51688 request ID 17) connected
INFO kernel : Agent 20245682 (TCPConnection: local port 8044, endpoint = /127.0.0.1:51688 request ID 17) acknowledged
INFO kernel : Waiting for 23 entities of type urn:rescuecore2.standard:entity:firebrigade
INFO kernel : Waiting for 1 entities of type urn:rescuecore2.standard:entity:firestation
INFO kernel : Agent 'RSLBench.PlatoonFireAgent' id 615606628 (TCPConnection: local port 8044, endpoint = /127.0.0.1:51690 request ID 18) connected
INFO kernel : Agent 615606628 (TCPConnection: local port 8044, endpoint = /127.0.0.1:51690 request ID 18) acknowledged
INFO kernel : Waiting for 22 entities of type urn:rescuecore2.standard:entity:firebrigade
INFO kernel : Waiting for 1 entities of type urn:rescuecore2.standard:entity:firestation
INFO kernel : Agent 'RSLBench.PlatoonFireAgent' id 70494696 (TCPConnection: local port 8044, endpoint = /127.0.0.1:51692 request ID 19) connected
INFO kernel : Agent 70494696 (TCPConnection: local port 8044, endpoint = /127.0.0.1:51692 request ID 19) acknowledged
INFO kernel : Waiting for 21 entities of type urn:rescuecore2.standard:entity:firebrigade
INFO kernel : Waiting for 1 entities of type urn:rescuecore2.standard:entity:firestation
INFO kernel : Agent 'RSLBench.PlatoonFireAgent' id 1781400741 (TCPConnection: local port 8044, endpoint = /127.0.0.1:51694 request ID 20) connected
INFO kernel : Agent 1781400741 (TCPConnection: local port 8044, endpoint = /127.0.0.1:51694 request ID 20) acknowledged
INFO kernel : Waiting for 20 entities of type urn:rescuecore2.standard:entity:firebrigade
INFO kernel : Waiting for 1 entities of type urn:rescuecore2.standard:entity:firestation
INFO kernel : Agent 'RSLBench.PlatoonFireAgent' id 667527434 (TCPConnection: local port 8044, endpoint = /127.0.0.1:51696 request ID 21) connected
INFO kernel : Agent 667527434 (TCPConnection: local port 8044, endpoint = /127.0.0.1:51696 request ID 21) acknowledged
INFO kernel : Waiting for 19 entities of type urn:rescuecore2.standard:entity:firebrigade
INFO kernel : Waiting for 1 entities of type urn:rescuecore2.standard:entity:firestation
INFO kernel : Agent 'RSLBench.PlatoonFireAgent' id 1656884228 (TCPConnection: local port 8044, endpoint = /127.0.0.1:51698 request ID 22) connected
INFO kernel : Agent 1656884228 (TCPConnection: local port 8044, endpoint = /127.0.0.1:51698 request ID 22) acknowledged
INFO kernel : Waiting for 18 entities of type urn:rescuecore2.standard:entity:firebrigade
INFO kernel : Waiting for 1 entities of type urn:rescuecore2.standard:entity:firestation
INFO kernel : Agent 'RSLBench.PlatoonFireAgent' id 59462593 (TCPConnection: local port 8044, endpoint = /127.0.0.1:51700 request ID 23) connected
INFO kernel : Agent 59462593 (TCPConnection: local port 8044, endpoint = /127.0.0.1:51700 request ID 23) acknowledged
INFO kernel : Waiting for 17 entities of type urn:rescuecore2.standard:entity:firebrigade
INFO kernel : Waiting for 1 entities of type urn:rescuecore2.standard:entity:firestation
INFO kernel : Agent 'RSLBench.PlatoonFireAgent' id 972982610 (TCPConnection: local port 8044, endpoint = /127.0.0.1:51702 request ID 24) connected
INFO kernel : Agent 972982610 (TCPConnection: local port 8044, endpoint = /127.0.0.1:51702 request ID 24) acknowledged
INFO kernel : Waiting for 16 entities of type urn:rescuecore2.standard:entity:firebrigade
INFO kernel : Waiting for 1 entities of type urn:rescuecore2.standard:entity:firestation
INFO kernel : Agent 'RSLBench.PlatoonFireAgent' id 2035320987 (TCPConnection: local port 8044, endpoint = /127.0.0.1:51704 request ID 25) connected
INFO kernel : Agent 2035320987 (TCPConnection: local port 8044, endpoint = /127.0.0.1:51704 request ID 25) acknowledged
INFO kernel : Waiting for 15 entities of type urn:rescuecore2.standard:entity:firebrigade
INFO kernel : Waiting for 1 entities of type urn:rescuecore2.standard:entity:firestation
INFO kernel : Agent 'RSLBench.PlatoonFireAgent' id 804035962 (TCPConnection: local port 8044, endpoint = /127.0.0.1:51706 request ID 26) connected
INFO kernel : Agent 804035962 (TCPConnection: local port 8044, endpoint = /127.0.0.1:51706 request ID 26) acknowledged
INFO kernel : Waiting for 14 entities of type urn:rescuecore2.standard:entity:firebrigade
INFO kernel : Waiting for 1 entities of type urn:rescuecore2.standard:entity:firestation
INFO kernel : Agent 'RSLBench.PlatoonFireAgent' id 111891956 (TCPConnection: local port 8044, endpoint = /127.0.0.1:51708 request ID 27) connected
INFO kernel : Agent 111891956 (TCPConnection: local port 8044, endpoint = /127.0.0.1:51708 request ID 27) acknowledged
INFO kernel : Waiting for 13 entities of type urn:rescuecore2.standard:entity:firebrigade
INFO kernel : Waiting for 1 entities of type urn:rescuecore2.standard:entity:firestation
INFO kernel : Agent 'RSLBench.PlatoonFireAgent' id 1985299050 (TCPConnection: local port 8044, endpoint = /127.0.0.1:51710 request ID 28) connected
INFO kernel : Agent 1985299050 (TCPConnection: local port 8044, endpoint = /127.0.0.1:51710 request ID 28) acknowledged
INFO kernel : Waiting for 12 entities of type urn:rescuecore2.standard:entity:firebrigade
INFO kernel : Waiting for 1 entities of type urn:rescuecore2.standard:entity:firestation
INFO kernel : Agent 'RSLBench.PlatoonFireAgent' id 1897031058 (TCPConnection: local port 8044, endpoint = /127.0.0.1:51712 request ID 29) connected
INFO kernel : Agent 1897031058 (TCPConnection: local port 8044, endpoint = /127.0.0.1:51712 request ID 29) acknowledged
INFO kernel : Waiting for 11 entities of type urn:rescuecore2.standard:entity:firebrigade
INFO kernel : Waiting for 1 entities of type urn:rescuecore2.standard:entity:firestation
INFO kernel : Agent 'RSLBench.PlatoonFireAgent' id 1491414397 (TCPConnection: local port 8044, endpoint = /127.0.0.1:51714 request ID 30) connected
INFO kernel : Agent 1491414397 (TCPConnection: local port 8044, endpoint = /127.0.0.1:51714 request ID 30) acknowledged
INFO kernel : Waiting for 10 entities of type urn:rescuecore2.standard:entity:firebrigade
INFO kernel : Waiting for 1 entities of type urn:rescuecore2.standard:entity:firestation
INFO kernel : Agent 'RSLBench.PlatoonFireAgent' id 1446502557 (TCPConnection: local port 8044, endpoint = /127.0.0.1:51716 request ID 31) connected
INFO kernel : Agent 1446502557 (TCPConnection: local port 8044, endpoint = /127.0.0.1:51716 request ID 31) acknowledged
INFO kernel : Waiting for 9 entities of type urn:rescuecore2.standard:entity:firebrigade
INFO kernel : Waiting for 1 entities of type urn:rescuecore2.standard:entity:firestation
INFO kernel : Agent 'RSLBench.PlatoonFireAgent' id 349798935 (TCPConnection: local port 8044, endpoint = /127.0.0.1:51718 request ID 32) connected
INFO kernel : Agent 349798935 (TCPConnection: local port 8044, endpoint = /127.0.0.1:51718 request ID 32) acknowledged
INFO kernel : Waiting for 8 entities of type urn:rescuecore2.standard:entity:firebrigade
INFO kernel : Waiting for 1 entities of type urn:rescuecore2.standard:entity:firestation
INFO kernel : Agent 'RSLBench.PlatoonFireAgent' id 211073886 (TCPConnection: local port 8044, endpoint = /127.0.0.1:51720 request ID 33) connected
INFO kernel : Agent 211073886 (TCPConnection: local port 8044, endpoint = /127.0.0.1:51720 request ID 33) acknowledged
INFO kernel : Waiting for 7 entities of type urn:rescuecore2.standard:entity:firebrigade
INFO kernel : Waiting for 1 entities of type urn:rescuecore2.standard:entity:firestation
INFO kernel : Agent 'RSLBench.PlatoonFireAgent' id 352849266 (TCPConnection: local port 8044, endpoint = /127.0.0.1:51722 request ID 34) connected
INFO kernel : Agent 352849266 (TCPConnection: local port 8044, endpoint = /127.0.0.1:51722 request ID 34) acknowledged
INFO kernel : Waiting for 6 entities of type urn:rescuecore2.standard:entity:firebrigade
INFO kernel : Waiting for 1 entities of type urn:rescuecore2.standard:entity:firestation
INFO kernel : Agent 'RSLBench.PlatoonFireAgent' id 303360883 (TCPConnection: local port 8044, endpoint = /127.0.0.1:51724 request ID 35) connected
INFO kernel : Agent 303360883 (TCPConnection: local port 8044, endpoint = /127.0.0.1:51724 request ID 35) acknowledged
INFO kernel : Waiting for 5 entities of type urn:rescuecore2.standard:entity:firebrigade
INFO kernel : Waiting for 1 entities of type urn:rescuecore2.standard:entity:firestation
INFO kernel : Agent 'RSLBench.PlatoonFireAgent' id 1358530950 (TCPConnection: local port 8044, endpoint = /127.0.0.1:51726 request ID 36) connected
INFO kernel : Agent 1358530950 (TCPConnection: local port 8044, endpoint = /127.0.0.1:51726 request ID 36) acknowledged
INFO kernel : Waiting for 4 entities of type urn:rescuecore2.standard:entity:firebrigade
INFO kernel : Waiting for 1 entities of type urn:rescuecore2.standard:entity:firestation
INFO kernel : Agent 'RSLBench.PlatoonFireAgent' id 1544906308 (TCPConnection: local port 8044, endpoint = /127.0.0.1:51728 request ID 37) connected
INFO kernel : Agent 1544906308 (TCPConnection: local port 8044, endpoint = /127.0.0.1:51728 request ID 37) acknowledged
INFO kernel : Waiting for 3 entities of type urn:rescuecore2.standard:entity:firebrigade
INFO kernel : Waiting for 1 entities of type urn:rescuecore2.standard:entity:firestation
INFO kernel : Agent 'RSLBench.PlatoonFireAgent' id 744576890 (TCPConnection: local port 8044, endpoint = /127.0.0.1:51730 request ID 38) connected
INFO kernel : Agent 744576890 (TCPConnection: local port 8044, endpoint = /127.0.0.1:51730 request ID 38) acknowledged
INFO kernel : Waiting for 2 entities of type urn:rescuecore2.standard:entity:firebrigade
INFO kernel : Waiting for 1 entities of type urn:rescuecore2.standard:entity:firestation
INFO kernel : Agent 'RSLBench.PlatoonFireAgent' id 1726298191 (TCPConnection: local port 8044, endpoint = /127.0.0.1:51732 request ID 39) connected
INFO kernel : Agent 1726298191 (TCPConnection: local port 8044, endpoint = /127.0.0.1:51732 request ID 39) acknowledged
INFO kernel : Waiting for 1 entities of type urn:rescuecore2.standard:entity:firebrigade
INFO kernel : Waiting for 1 entities of type urn:rescuecore2.standard:entity:firestation
INFO kernel : Agent 'RSLBench.PlatoonFireAgent' id 922962082 (TCPConnection: local port 8044, endpoint = /127.0.0.1:51734 request ID 40) connected
INFO kernel : Agent 922962082 (TCPConnection: local port 8044, endpoint = /127.0.0.1:51734 request ID 40) acknowledged
INFO kernel : Waiting for 1 entities of type urn:rescuecore2.standard:entity:firestation
INFO kernel : Agent 'RSLBench.CenterAgent' id 64173 (TCPConnection: local port 8044, endpoint = /127.0.0.1:51740 request ID 43) connected
INFO kernel : Agent 64173 (TCPConnection: local port 8044, endpoint = /127.0.0.1:51740 request ID 43) acknowledged
INFO kernel : Timestep 1
INFO kernel : Ignoring early commands: 1 < 3
INFO kernel : Timestep 1 complete
INFO kernel : Timestep 2
INFO kernel : Ignoring early commands: 2 < 3
INFO kernel : Timestep 2 complete
INFO kernel : Timestep 3
INFO kernel : Timestep 3 complete
INFO kernel : Timestep 4
INFO kernel : Timestep 4 complete
INFO kernel : Timestep 5
INFO kernel : Timestep 5 complete
INFO kernel : Timestep 6
INFO kernel : Timestep 6 complete
INFO kernel : Timestep 7
INFO kernel : Timestep 7 complete
INFO kernel : Timestep 8
INFO kernel : Timestep 8 complete
INFO kernel : Timestep 9
INFO kernel : Timestep 9 complete
INFO kernel : Timestep 10
INFO kernel : Timestep 10 complete
INFO kernel : Timestep 11
INFO kernel : Timestep 11 complete
INFO kernel : Timestep 12
INFO kernel : Timestep 12 complete
INFO kernel : Timestep 13
INFO kernel : Timestep 13 complete
INFO kernel : Timestep 14
INFO kernel : Timestep 14 complete
INFO kernel : Timestep 15
INFO kernel : Timestep 15 complete
INFO kernel : Timestep 16
INFO kernel : Timestep 16 complete
INFO kernel : Timestep 17
INFO kernel : Timestep 17 complete
INFO kernel : Timestep 18
INFO kernel : Timestep 18 complete
INFO kernel : Timestep 19
INFO kernel : Timestep 19 complete
INFO kernel : Timestep 20
INFO kernel : Timestep 20 complete
INFO kernel : Timestep 21
INFO kernel : Timestep 21 complete
INFO kernel : Timestep 22
INFO kernel : Timestep 22 complete
INFO kernel : Timestep 23
INFO kernel : Timestep 23 complete
INFO kernel : Timestep 24
INFO kernel : Timestep 24 complete
INFO kernel : Timestep 25
INFO kernel : Timestep 25 complete
INFO kernel : Timestep 26
INFO kernel : Timestep 26 complete
INFO kernel : Timestep 27
INFO kernel : Timestep 27 complete
INFO kernel : Timestep 28
INFO kernel : Timestep 28 complete
INFO kernel : Timestep 29
INFO kernel : Timestep 29 complete
INFO kernel : Timestep 30
INFO kernel : Timestep 30 complete
INFO kernel : Timestep 31
INFO kernel : Timestep 31 complete
INFO kernel : Timestep 32
INFO kernel : Timestep 32 complete
INFO kernel : Timestep 33
INFO kernel : Timestep 33 complete
INFO kernel : Timestep 34
INFO kernel : Timestep 34 complete
INFO kernel : Timestep 35
INFO kernel : Timestep 35 complete
INFO kernel : Timestep 36
INFO kernel : Timestep 36 complete
INFO kernel : Timestep 37
INFO kernel : Timestep 37 complete
INFO kernel : Timestep 38
INFO kernel : Timestep 38 complete
INFO kernel : Timestep 39
INFO kernel : Timestep 39 complete
INFO kernel : Timestep 40
INFO kernel : Timestep 40 complete
INFO kernel : Timestep 41
INFO kernel : Timestep 41 complete
INFO kernel : Timestep 42
INFO kernel : Timestep 42 complete
INFO kernel : Timestep 43
INFO kernel : Timestep 43 complete
INFO kernel : Timestep 44
INFO kernel : Timestep 44 complete
INFO kernel : Timestep 45
INFO kernel : Timestep 45 complete
INFO kernel : Timestep 46
INFO kernel : Timestep 46 complete
INFO kernel : Timestep 47
INFO kernel : Timestep 47 complete
INFO kernel : Timestep 48
INFO kernel : Timestep 48 complete
INFO kernel : Timestep 49
INFO kernel : Timestep 49 complete
INFO kernel : Timestep 50
INFO kernel : Timestep 50 complete
INFO kernel : Timestep 51
INFO kernel : Timestep 51 complete
INFO kernel : Timestep 52
INFO kernel : Timestep 52 complete
INFO kernel : Timestep 53
INFO kernel : Timestep 53 complete
INFO kernel : Timestep 54
INFO kernel : Timestep 54 complete
INFO kernel : Timestep 55
INFO kernel : Timestep 55 complete
INFO kernel : Timestep 56
INFO kernel : Timestep 56 complete
INFO kernel : Timestep 57
INFO kernel : Timestep 57 complete
INFO kernel : Timestep 58
INFO kernel : Timestep 58 complete
INFO kernel : Timestep 59
ERROR kernel : Error reading from StreamConnection TCPConnection: local port 8044, endpoint = /127.0.0.1:51682
java.net.SocketException: Connection reset
	at java.net.SocketInputStream.read(SocketInputStream.java:209)
	at java.net.SocketInputStream.read(SocketInputStream.java:141)
	at java.net.SocketInputStream.read(SocketInputStream.java:223)
	at rescuecore2.misc.EncodingTools.readInt32(EncodingTools.java:104)
	at rescuecore2.connection.StreamConnection$ReadThread.work(StreamConnection.java:110)
	at rescuecore2.misc.WorkerThread.run(WorkerThread.java:48)
ERROR kernel : Error reading from StreamConnection TCPConnection: local port 8044, endpoint = /127.0.0.1:51690
java.net.SocketException: Connection reset
	at java.net.SocketInputStream.read(SocketInputStream.java:209)
	at java.net.SocketInputStream.read(SocketInputStream.java:141)
	at java.net.SocketInputStream.read(SocketInputStream.java:223)
	at rescuecore2.misc.EncodingTools.readInt32(EncodingTools.java:104)
	at rescuecore2.connection.StreamConnection$ReadThread.work(StreamConnection.java:110)
	at rescuecore2.misc.WorkerThread.run(WorkerThread.java:48)
ERROR kernel : Error reading from StreamConnection TCPConnection: local port 8044, endpoint = /127.0.0.1:51696
java.net.SocketException: Connection reset
	at java.net.SocketInputStream.read(SocketInputStream.java:209)
	at java.net.SocketInputStream.read(SocketInputStream.java:141)
	at java.net.SocketInputStream.read(SocketInputStream.java:223)
	at rescuecore2.misc.EncodingTools.readInt32(EncodingTools.java:104)
	at rescuecore2.connection.StreamConnection$ReadThread.work(StreamConnection.java:110)
	at rescuecore2.misc.WorkerThread.run(WorkerThread.java:48)
ERROR kernel : Error reading from StreamConnection TCPConnection: local port 8044, endpoint = /127.0.0.1:51722
java.net.SocketException: Connection reset
	at java.net.SocketInputStream.read(SocketInputStream.java:209)
	at java.net.SocketInputStream.read(SocketInputStream.java:141)
	at java.net.SocketInputStream.read(SocketInputStream.java:223)
	at rescuecore2.misc.EncodingTools.readInt32(EncodingTools.java:104)
	at rescuecore2.connection.StreamConnection$ReadThread.work(StreamConnection.java:110)
	at rescuecore2.misc.WorkerThread.run(WorkerThread.java:48)
ERROR kernel : Error reading from StreamConnection TCPConnection: local port 8044, endpoint = /127.0.0.1:51730
java.net.SocketException: Connection reset
	at java.net.SocketInputStream.read(SocketInputStream.java:209)
	at java.net.SocketInputStream.read(SocketInputStream.java:141)
	at java.net.SocketInputStream.read(SocketInputStream.java:223)
	at rescuecore2.misc.EncodingTools.readInt32(EncodingTools.java:104)
	at rescuecore2.connection.StreamConnection$ReadThread.work(StreamConnection.java:110)
	at rescuecore2.misc.WorkerThread.run(WorkerThread.java:48)
ERROR kernel : Error reading from StreamConnection TCPConnection: local port 8044, endpoint = /127.0.0.1:51732
java.net.SocketException: Connection reset
	at java.net.SocketInputStream.read(SocketInputStream.java:209)
	at java.net.SocketInputStream.read(SocketInputStream.java:141)
	at java.net.SocketInputStream.read(SocketInputStream.java:223)
	at rescuecore2.misc.EncodingTools.readInt32(EncodingTools.java:104)
	at rescuecore2.connection.StreamConnection$ReadThread.work(StreamConnection.java:110)
	at rescuecore2.misc.WorkerThread.run(WorkerThread.java:48)
