INFO launcher : Processing jar directory: /home/lc2n18/t00/rmasbench-sequential/RSLB2/boot/../../roborescue/jars
INFO launcher : Processing ../../roborescue/jars/human.jar
INFO launcher : Processing ../../roborescue/jars/sample.jar
WARN launcher : Class sample.CustomRegistryTestAgent$CustomEntityFactory not found
INFO launcher : Processing ../../roborescue/jars/collapse.jar
INFO launcher : Processing ../../roborescue/jars/misc.jar
INFO launcher : Processing ../../roborescue/jars/clear.jar
INFO launcher : Processing ../../roborescue/jars/maps.jar
INFO launcher : Processing ../../roborescue/jars/resq-fire.jar
INFO launcher : Processing ../../roborescue/jars/ignition.jar
INFO launcher : Processing ../../roborescue/jars/handy.jar
INFO launcher : Processing ../../roborescue/jars/standard.jar
INFO launcher : Registered entity factory 'rescuecore2.standard.entities.StandardEntityFactory' with registry System
INFO launcher : Registered property factory 'rescuecore2.standard.entities.StandardPropertyFactory' with registry System
INFO launcher : Registered message factory 'rescuecore2.standard.messages.StandardMessageFactory' with registry System
INFO launcher : Processing ../../roborescue/jars/gis2.jar
INFO launcher : Processing ../../roborescue/jars/traffic3.jar
INFO launcher : Processing ../../roborescue/jars/kernel.jar
INFO launcher : Launching 1 instances of component 'misc.MiscSimulator'...
INFO launcher : Launching instance 1...
INFO misc.MiscSimulator : misc.MiscSimulator@474fcfbb connected
INFO misc.MiscSimulator : MiscSimulator connected. World has 4683 entities.
INFO launcher : success
INFO misc.MiscSimulator : Unrecognised message type: urn:rescuecore2:messages.control:ks_aftershocks_info : TIMES = [], INTENSITIES = []
INFO misc.MiscSimulator : Timestep 1
INFO misc.MiscSimulator : processExplodedGasStations for []
INFO misc.MiscSimulator : Timestep 1 took 3 ms
INFO misc.MiscSimulator : Timestep 2
INFO misc.MiscSimulator : processExplodedGasStations for []
INFO misc.MiscSimulator : Timestep 2 took 0 ms
INFO misc.MiscSimulator : Timestep 3
INFO misc.MiscSimulator : processExplodedGasStations for []
INFO misc.MiscSimulator : Timestep 3 took 1 ms
INFO misc.MiscSimulator : Timestep 4
INFO misc.MiscSimulator : processExplodedGasStations for []
INFO misc.MiscSimulator : Timestep 4 took 0 ms
INFO misc.MiscSimulator : Timestep 5
INFO misc.MiscSimulator : processExplodedGasStations for []
INFO misc.MiscSimulator : Timestep 5 took 1 ms
INFO misc.MiscSimulator : Timestep 6
INFO misc.MiscSimulator : processExplodedGasStations for []
INFO misc.MiscSimulator : Timestep 6 took 0 ms
INFO misc.MiscSimulator : Timestep 7
INFO misc.MiscSimulator : processExplodedGasStations for []
INFO misc.MiscSimulator : Timestep 7 took 0 ms
INFO misc.MiscSimulator : Timestep 8
INFO misc.MiscSimulator : processExplodedGasStations for []
INFO misc.MiscSimulator : Timestep 8 took 0 ms
INFO misc.MiscSimulator : Timestep 9
INFO misc.MiscSimulator : processExplodedGasStations for []
INFO misc.MiscSimulator : Timestep 9 took 0 ms
INFO misc.MiscSimulator : Timestep 10
INFO misc.MiscSimulator : processExplodedGasStations for []
INFO misc.MiscSimulator : Timestep 10 took 0 ms
INFO misc.MiscSimulator : Timestep 11
INFO misc.MiscSimulator : processExplodedGasStations for []
INFO misc.MiscSimulator : Timestep 11 took 0 ms
INFO misc.MiscSimulator : Timestep 12
INFO misc.MiscSimulator : processExplodedGasStations for []
INFO misc.MiscSimulator : Timestep 12 took 0 ms
INFO misc.MiscSimulator : Timestep 13
INFO misc.MiscSimulator : processExplodedGasStations for []
INFO misc.MiscSimulator : Timestep 13 took 0 ms
INFO misc.MiscSimulator : Timestep 14
INFO misc.MiscSimulator : processExplodedGasStations for []
INFO misc.MiscSimulator : Timestep 14 took 0 ms
INFO misc.MiscSimulator : Timestep 15
INFO misc.MiscSimulator : processExplodedGasStations for []
INFO misc.MiscSimulator : Timestep 15 took 0 ms
INFO misc.MiscSimulator : Timestep 16
INFO misc.MiscSimulator : processExplodedGasStations for []
INFO misc.MiscSimulator : Timestep 16 took 6 ms
INFO misc.MiscSimulator : Timestep 17
INFO misc.MiscSimulator : processExplodedGasStations for []
INFO misc.MiscSimulator : Timestep 17 took 0 ms
INFO misc.MiscSimulator : Timestep 18
INFO misc.MiscSimulator : processExplodedGasStations for []
INFO misc.MiscSimulator : Timestep 18 took 0 ms
INFO misc.MiscSimulator : Timestep 19
INFO misc.MiscSimulator : processExplodedGasStations for []
INFO misc.MiscSimulator : Timestep 19 took 1 ms
INFO misc.MiscSimulator : Timestep 20
INFO misc.MiscSimulator : processExplodedGasStations for []
INFO misc.MiscSimulator : Timestep 20 took 0 ms
INFO misc.MiscSimulator : Timestep 21
INFO misc.MiscSimulator : processExplodedGasStations for []
INFO misc.MiscSimulator : Timestep 21 took 0 ms
INFO misc.MiscSimulator : Timestep 22
INFO misc.MiscSimulator : processExplodedGasStations for []
INFO misc.MiscSimulator : Timestep 22 took 0 ms
INFO misc.MiscSimulator : Timestep 23
INFO misc.MiscSimulator : processExplodedGasStations for []
INFO misc.MiscSimulator : Timestep 23 took 0 ms
INFO misc.MiscSimulator : Timestep 24
INFO misc.MiscSimulator : processExplodedGasStations for []
INFO misc.MiscSimulator : Timestep 24 took 0 ms
INFO misc.MiscSimulator : Timestep 25
INFO misc.MiscSimulator : processExplodedGasStations for []
INFO misc.MiscSimulator : Timestep 25 took 1 ms
INFO misc.MiscSimulator : Timestep 26
INFO misc.MiscSimulator : processExplodedGasStations for []
INFO misc.MiscSimulator : Timestep 26 took 1 ms
INFO misc.MiscSimulator : Timestep 27
INFO misc.MiscSimulator : processExplodedGasStations for []
INFO misc.MiscSimulator : Timestep 27 took 1 ms
INFO misc.MiscSimulator : Timestep 28
INFO misc.MiscSimulator : processExplodedGasStations for []
INFO misc.MiscSimulator : Timestep 28 took 0 ms
INFO misc.MiscSimulator : Timestep 29
INFO misc.MiscSimulator : processExplodedGasStations for []
INFO misc.MiscSimulator : Timestep 29 took 0 ms
INFO misc.MiscSimulator : Timestep 30
INFO misc.MiscSimulator : processExplodedGasStations for []
INFO misc.MiscSimulator : Timestep 30 took 0 ms
INFO misc.MiscSimulator : Timestep 31
INFO misc.MiscSimulator : processExplodedGasStations for []
INFO misc.MiscSimulator : Timestep 31 took 70 ms
INFO misc.MiscSimulator : Timestep 32
INFO misc.MiscSimulator : processExplodedGasStations for []
INFO misc.MiscSimulator : Timestep 32 took 0 ms
INFO misc.MiscSimulator : Timestep 33
INFO misc.MiscSimulator : processExplodedGasStations for []
INFO misc.MiscSimulator : Timestep 33 took 0 ms
INFO misc.MiscSimulator : Timestep 34
INFO misc.MiscSimulator : processExplodedGasStations for []
INFO misc.MiscSimulator : Timestep 34 took 0 ms
INFO misc.MiscSimulator : Timestep 35
INFO misc.MiscSimulator : processExplodedGasStations for []
INFO misc.MiscSimulator : Timestep 35 took 0 ms
INFO misc.MiscSimulator : Timestep 36
INFO misc.MiscSimulator : processExplodedGasStations for []
INFO misc.MiscSimulator : Timestep 36 took 0 ms
INFO misc.MiscSimulator : Timestep 37
INFO misc.MiscSimulator : processExplodedGasStations for []
INFO misc.MiscSimulator : Timestep 37 took 0 ms
INFO misc.MiscSimulator : Timestep 38
INFO misc.MiscSimulator : processExplodedGasStations for []
INFO misc.MiscSimulator : Timestep 38 took 0 ms
INFO misc.MiscSimulator : Timestep 39
INFO misc.MiscSimulator : processExplodedGasStations for []
INFO misc.MiscSimulator : Timestep 39 took 0 ms
INFO misc.MiscSimulator : Timestep 40
INFO misc.MiscSimulator : processExplodedGasStations for []
INFO misc.MiscSimulator : Timestep 40 took 0 ms
INFO misc.MiscSimulator : Timestep 41
INFO misc.MiscSimulator : processExplodedGasStations for []
INFO misc.MiscSimulator : Timestep 41 took 0 ms
INFO misc.MiscSimulator : Timestep 42
INFO misc.MiscSimulator : processExplodedGasStations for []
INFO misc.MiscSimulator : Timestep 42 took 0 ms
INFO misc.MiscSimulator : Timestep 43
INFO misc.MiscSimulator : processExplodedGasStations for []
INFO misc.MiscSimulator : Timestep 43 took 0 ms
INFO misc.MiscSimulator : Timestep 44
INFO misc.MiscSimulator : processExplodedGasStations for []
INFO misc.MiscSimulator : Timestep 44 took 0 ms
INFO misc.MiscSimulator : Timestep 45
INFO misc.MiscSimulator : processExplodedGasStations for []
INFO misc.MiscSimulator : Timestep 45 took 1 ms
INFO misc.MiscSimulator : Timestep 46
INFO misc.MiscSimulator : processExplodedGasStations for []
INFO misc.MiscSimulator : Timestep 46 took 0 ms
INFO misc.MiscSimulator : Timestep 47
INFO misc.MiscSimulator : processExplodedGasStations for []
INFO misc.MiscSimulator : Timestep 47 took 0 ms
INFO misc.MiscSimulator : Timestep 48
INFO misc.MiscSimulator : processExplodedGasStations for []
INFO misc.MiscSimulator : Timestep 48 took 0 ms
INFO misc.MiscSimulator : Timestep 49
INFO misc.MiscSimulator : processExplodedGasStations for []
INFO misc.MiscSimulator : Timestep 49 took 1 ms
INFO misc.MiscSimulator : Timestep 50
INFO misc.MiscSimulator : processExplodedGasStations for []
INFO misc.MiscSimulator : Timestep 50 took 0 ms
INFO misc.MiscSimulator : Timestep 51
INFO misc.MiscSimulator : processExplodedGasStations for []
INFO misc.MiscSimulator : Timestep 51 took 0 ms
INFO misc.MiscSimulator : Timestep 52
INFO misc.MiscSimulator : processExplodedGasStations for []
INFO misc.MiscSimulator : Timestep 52 took 0 ms
INFO misc.MiscSimulator : Timestep 53
INFO misc.MiscSimulator : processExplodedGasStations for []
INFO misc.MiscSimulator : Timestep 53 took 0 ms
INFO misc.MiscSimulator : Timestep 54
INFO misc.MiscSimulator : processExplodedGasStations for []
INFO misc.MiscSimulator : Timestep 54 took 0 ms
INFO misc.MiscSimulator : Timestep 55
INFO misc.MiscSimulator : processExplodedGasStations for []
INFO misc.MiscSimulator : Timestep 55 took 0 ms
INFO misc.MiscSimulator : Timestep 56
INFO misc.MiscSimulator : processExplodedGasStations for []
INFO misc.MiscSimulator : Timestep 56 took 0 ms
INFO misc.MiscSimulator : Timestep 57
INFO misc.MiscSimulator : processExplodedGasStations for []
INFO misc.MiscSimulator : Timestep 57 took 0 ms
INFO misc.MiscSimulator : Timestep 58
INFO misc.MiscSimulator : processExplodedGasStations for []
INFO misc.MiscSimulator : Timestep 58 took 0 ms
INFO misc.MiscSimulator : Timestep 59
INFO misc.MiscSimulator : processExplodedGasStations for []
INFO misc.MiscSimulator : Timestep 59 took 0 ms
INFO misc.MiscSimulator : Timestep 60
INFO misc.MiscSimulator : processExplodedGasStations for []
INFO misc.MiscSimulator : Timestep 60 took 0 ms
INFO misc.MiscSimulator : Timestep 61
INFO misc.MiscSimulator : processExplodedGasStations for []
INFO misc.MiscSimulator : Timestep 61 took 0 ms
