# solver: BinaryMaxSum
# max_time: 300000
# main_solver: BinaryMaxSum
# random.seed: 10
# run: 1cbe16b1-b394-4849-a490-aa9c98dd7014
# experiment.start_time: 25
# experiment.end_time: 300
# kernel.agents.ignoreuntil: 3
# agent.only_assigned: true
# util.class: RSLBench.Helpers.Utility.ThirdUtilityFunction
# util.fire_brigade_area: 200
# util.trade_off: 10
# util.hysteresis: 1.1
# map.name: paris
# map.scenario: 33agents.xml
# agent.search.class: RSLBench.Search.BreadthFirstSearch
# problem.prune: no
# problem.max_neighbors: 4
# agent.interteam: no
# util.blockade.fire_penalty: 100
# util.blockade.police_penalty: 50
# util.police.eta: 0.0
# dcop.iterations: 100
# dcop.anytime: yes
# dcop.greedy_correction: no
# maxsum.damping: 0.9
time	nOnceBurned	nBurning	iterations	NCCCs	MessageNum	MessageBytes	OtherNum	OtherBytes	final	best	final_greedy	best_greedy	utilities	score	utility	violations	solvable	cpu_time
25	15	15	100	51928	92070	736560	0	0	45.91540577027379	45.91540577027379	62.037682277828054	62.037682277828054	26.815022561262737,26.815022561262737,25.536379825959656,25.536379825959656,25.536379825959656,25.536379825959656,31.06352017095172,36.1621574764757,36.1621574764757,36.1621574764757,36.1621574764757,36.1621574764757,36.1621574764757,36.1621574764757,36.1621574764757,36.1621574764757,36.1621574764757,36.1621574764757,36.1621574764757,36.1621574764757,35.33558798080932,35.33558798080932,32.64483580981076,37.24335363875391,37.24335363875391,37.24335363875391,37.24335363875391,37.24335363875391,37.24335363875391,37.24335363875391,37.24335363875391,41.255992463696074,41.255992463696074,41.255992463696074,41.255992463696074,41.255992463696074,41.255992463696074,41.255992463696074,41.255992463696074,41.255992463696074,41.255992463696074,41.255992463696074,41.255992463696074,41.255992463696074,41.255992463696074,41.255992463696074,41.255992463696074,41.255992463696074,41.255992463696074,41.255992463696074,41.255992463696074,41.255992463696074,41.255992463696074,41.255992463696074,41.255992463696074,41.255992463696074,41.255992463696074,43.94674463469461,43.94674463469461,44.77331413036099,44.77331413036099,44.77331413036099,44.77331413036099,44.77331413036099,44.77331413036099,44.77331413036099,44.77331413036099,44.77331413036099,44.77331413036099,44.77331413036099,44.77331413036099,44.77331413036099,44.77331413036099,44.77331413036099,44.77331413036099,44.77331413036099,44.77331413036099,44.77331413036099,44.77331413036099,44.77331413036099,44.77331413036099,44.77331413036099,44.77331413036099,44.77331413036099,44.77331413036099,44.77331413036099,44.77331413036099,44.77331413036099,44.77331413036099,44.77331413036099,44.77331413036099,44.77331413036099,44.77331413036099,44.77331413036099,44.77331413036099,45.91540577027379,45.91540577027379,45.91540577027379,45.91540577027379,45.91540577027379	0.9960817657423182	45.91540577027379	11	true	999
26	15	15	100	51955	92070	736560	0	0	59.349397751244894	61.15601777212855	69.50730900969718	69.58920668609382	55.69736469615589,55.69736469615589,55.69736469615589,55.69736469615589,55.69736469615589,55.69736469615589,55.69736469615589,55.69736469615589,55.69736469615589,55.69736469615589,55.69736469615589,55.69736469615589,55.69736469615589,55.69736469615589,55.69736469615589,55.69736469615589,55.69736469615589,55.69736469615589,55.69736469615589,57.46145713881015,57.46145713881015,57.46145713881015,57.46145713881015,57.46145713881015,57.46145713881015,57.46145713881015,57.46145713881015,57.46145713881015,57.46145713881015,57.46145713881015,57.46145713881015,57.46145713881015,57.46145713881015,57.46145713881015,57.46145713881015,57.46145713881015,57.46145713881015,57.46145713881015,57.46145713881015,57.46145713881015,57.46145713881015,57.46145713881015,57.46145713881015,57.46145713881015,57.46145713881015,57.46145713881015,57.46145713881015,57.46145713881015,57.46145713881015,60.46799801620861,60.46799801620861,60.46799801620861,61.15601777212855,61.15601777212855,61.15601777212855,61.15601777212855,59.28174387436576,59.28174387436576,59.28174387436576,59.28174387436576,59.28174387436576,59.28174387436576,59.28174387436576,56.87201369101242,56.87201369101242,56.87201369101242,56.87201369101242,56.87201369101242,56.87201369101242,56.87201369101242,56.87201369101242,59.28174387436576,59.28174387436576,59.28174387436576,59.28174387436576,59.28174387436576,59.55323464005886,59.55323464005886,59.349397751244894,59.349397751244894,59.349397751244894,59.349397751244894,59.349397751244894,59.349397751244894,59.349397751244894,59.349397751244894,59.349397751244894,59.349397751244894,59.349397751244894,59.349397751244894,59.349397751244894,59.349397751244894,59.349397751244894,59.349397751244894,59.349397751244894,59.349397751244894,59.349397751244894,59.349397751244894,59.349397751244894,59.349397751244894	0.9960817657423182	61.15601777212855	9	true	609
27	15	15	100	52089	92070	736560	0	0	65.9781329079987	65.9781329079987	73.20065163796588	73.20065163796588	65.02042141991532,65.02042141991532,65.02042141991532,64.98465923376648,64.98465923376648,64.98465923376648,64.98465923376648,64.98465923376648,64.98465923376648,64.98465923376648,64.98465923376648,64.98465923376648,64.98465923376648,64.98465923376648,64.98465923376648,64.98465923376648,64.98465923376648,64.98465923376648,64.98465923376648,64.98465923376648,64.98465923376648,64.98465923376648,64.98465923376648,64.98465923376648,64.98465923376648,64.98465923376648,64.98465923376648,64.98465923376648,64.98465923376648,64.98465923376648,64.98465923376648,64.98465923376648,64.98465923376648,64.98465923376648,64.98465923376648,64.98465923376648,64.98465923376648,64.98465923376648,64.98465923376648,64.98465923376648,64.98465923376648,64.98465923376648,64.98465923376648,64.98465923376648,64.98465923376648,64.98465923376648,64.98465923376648,64.98465923376648,64.98465923376648,64.98465923376648,64.98465923376648,64.98465923376648,64.98465923376648,64.98465923376648,64.98465923376648,64.98465923376648,64.98465923376648,64.98465923376648,64.98465923376648,64.98465923376648,64.98465923376648,64.98465923376648,64.98465923376648,64.98465923376648,64.98465923376648,64.98465923376648,64.98465923376648,64.98465923376648,64.98465923376648,64.98465923376648,64.98465923376648,64.98465923376648,64.98465923376648,64.98465923376648,64.98465923376648,64.98465923376648,64.98465923376648,64.98465923376648,64.98465923376648,64.98465923376648,64.98465923376648,64.98465923376648,64.98465923376648,64.98465923376648,64.98465923376648,64.98465923376648,64.98465923376648,64.98465923376648,64.98465923376648,64.98465923376648,64.98465923376648,64.98465923376648,64.98465923376648,64.98465923376648,64.98465923376648,64.98465923376648,64.98465923376648,65.9781329079987,65.9781329079987,65.9781329079987	0.9960817657423182	65.9781329079987	8	true	163
28	15	15	100	52099	92070	736560	0	0	68.89245228799093	68.89245228799093	75.96610030673189	75.96610030673189	60.698732261868116,60.698732261868116,60.698732261868116,60.698732261868116,60.698732261868116,64.64497437862224,67.82099539134255,67.82099539134255,67.82099539134255,67.82099539134255,67.82099539134255,67.82099539134255,67.82099539134255,67.82099539134255,67.82099539134255,67.82099539134255,67.82099539134255,67.82099539134255,67.82099539134255,67.82099539134255,67.82099539134255,67.51753068150497,67.51753068150497,67.51753068150497,67.51753068150497,67.51753068150497,67.51753068150497,67.51753068150497,67.51753068150497,67.51753068150497,67.51753068150497,67.51753068150497,67.51753068150497,67.51753068150497,67.51753068150497,67.51753068150497,67.51753068150497,67.51753068150497,67.51753068150497,67.51753068150497,67.51753068150497,67.51753068150497,67.51753068150497,67.51753068150497,67.51753068150497,67.51753068150497,67.51753068150497,67.51753068150497,67.51753068150497,67.51753068150497,67.51753068150497,67.51753068150497,67.51753068150497,67.51753068150497,67.51753068150497,67.51753068150497,67.51753068150497,67.51753068150497,67.51753068150497,67.51753068150497,67.51753068150497,67.51753068150497,67.51753068150497,67.51753068150497,67.51753068150497,67.51753068150497,67.51753068150497,67.51753068150497,67.51753068150497,67.51753068150497,68.89245228799093,68.89245228799093,68.89245228799093,68.89245228799093,68.89245228799093,68.89245228799093,68.89245228799093,68.89245228799093,68.89245228799093,68.89245228799093,68.89245228799093,68.89245228799093,68.89245228799093,68.89245228799093,68.89245228799093,68.89245228799093,68.89245228799093,68.89245228799093,68.89245228799093,68.89245228799093,68.89245228799093,68.89245228799093,68.89245228799093,68.89245228799093,68.89245228799093,68.89245228799093,68.89245228799093,68.89245228799093,68.89245228799093,68.89245228799093	0.9960817657423182	68.89245228799093	8	true	157
29	15	15	100	51880	92070	736560	0	0	67.48541524969956	67.48541524969956	71.64521387912241	71.64521387912241	38.19827223140597,38.19827223140597,38.19827223140597,38.19827223140597,38.19827223140597,38.158803076804496,38.158803076804496,38.158803076804496,38.158803076804496,38.158803076804496,38.158803076804496,43.86265044277234,49.1709211571282,49.1709211571282,49.1709211571282,49.1709211571282,49.1709211571282,49.1709211571282,49.1709211571282,49.1709211571282,49.1709211571282,49.1709211571282,49.1709211571282,49.1709211571282,49.1709211571282,49.1709211571282,49.1709211571282,49.1709211571282,51.83280628088129,51.83280628088129,51.83280628088129,51.83280628088129,51.83280628088129,51.83280628088129,51.83280628088129,51.83280628088129,51.83280628088129,51.83280628088129,51.83280628088129,51.83280628088129,51.83280628088129,51.83280628088129,51.83280628088129,51.83280628088129,51.83280628088129,51.83280628088129,51.83280628088129,51.83280628088129,51.83280628088129,55.66377085320155,57.29435665903869,57.29435665903869,57.29435665903869,57.29435665903869,57.29435665903869,57.29435665903869,57.29435665903869,57.29435665903869,57.29435665903869,57.29435665903869,57.29435665903869,57.29435665903869,60.5424586820298,60.5424586820298,63.02126764568072,63.02126764568072,63.02126764568072,63.02126764568072,63.02126764568072,63.02126764568072,63.02126764568072,63.02126764568072,63.02126764568072,64.40756079933784,64.40756079933784,64.40756079933784,64.40756079933784,64.40756079933784,64.40756079933784,64.40756079933784,64.40756079933784,64.40756079933784,64.40756079933784,64.40756079933784,64.40756079933784,64.40756079933784,64.40756079933784,64.40756079933784,64.40756079933784,64.40756079933784,64.40756079933784,64.40756079933784,64.40756079933784,64.40756079933784,64.40756079933784,64.40756079933784,64.40756079933784,64.40756079933784,67.48541524969956,67.48541524969956	0.9956704147505866	67.48541524969956	7	true	100
30	17	17	100	52411	104346	834768	0	0	53.36329301862152	53.36329301862152	76.63671131635775	76.63671131635775	48.25228487047445,48.25228487047445,50.4602895126025,50.4602895126025,41.81867646996014,41.81867646996014,41.81867646996014,41.81867646996014,41.7199101002943,41.7199101002943,41.7199101002943,41.7199101002943,41.7199101002943,41.7199101002943,41.7199101002943,41.7199101002943,41.7199101002943,41.7199101002943,41.7199101002943,41.7199101002943,41.7199101002943,41.7199101002943,41.7199101002943,41.7199101002943,41.7199101002943,41.7199101002943,41.7199101002943,41.7199101002943,41.7199101002943,41.7199101002943,41.7199101002943,41.7199101002943,41.7199101002943,41.7199101002943,41.7199101002943,41.7199101002943,41.7199101002943,41.7199101002943,41.7199101002943,41.7199101002943,41.7199101002943,41.7199101002943,41.7199101002943,41.7199101002943,41.7199101002943,47.72213661072436,53.36329301862152,53.36329301862152,53.36329301862152,53.36329301862152,53.36329301862152,53.36329301862152,53.36329301862152,53.36329301862152,53.36329301862152,53.36329301862152,53.36329301862152,53.36329301862152,53.36329301862152,53.36329301862152,53.36329301862152,53.36329301862152,53.36329301862152,53.36329301862152,53.36329301862152,53.36329301862152,53.36329301862152,53.36329301862152,53.36329301862152,53.36329301862152,53.36329301862152,53.36329301862152,53.36329301862152,53.36329301862152,53.36329301862152,53.36329301862152,53.36329301862152,53.36329301862152,53.36329301862152,53.36329301862152,53.36329301862152,53.36329301862152,53.36329301862152,53.36329301862152,53.36329301862152,53.36329301862152,53.36329301862152,53.36329301862152,53.36329301862152,53.36329301862152,53.36329301862152,53.36329301862152,53.36329301862152,53.36329301862152,53.36329301862152,53.36329301862152,53.36329301862152,53.36329301862152,53.36329301862152,53.36329301862152	0.9952702495229601	53.36329301862152	11	true	112
31	17	16	100	52070	98208	785664	0	0	54.4103984147271	54.4103984147271	71.17202334172636	71.17202334172636	18.38379279733133,18.38379279733133,24.99607342006457,22.26972317897227,22.26972317897227,22.26972317897227,22.26972317897227,22.26972317897227,22.26972317897227,22.26972317897227,22.26972317897227,22.26972317897227,22.26972317897227,22.26972317897227,22.26972317897227,22.26972317897227,22.26972317897227,22.26972317897227,22.26972317897227,22.26972317897227,22.26972317897227,22.26972317897227,22.26972317897227,22.26972317897227,22.26972317897227,25.83406796212455,28.632628573593948,28.632628573593948,28.632628573593948,28.632628573593948,28.632628573593948,31.944680785910478,35.47942104579498,34.17756716199624,34.17756716199624,34.17756716199624,34.17756716199624,34.17756716199624,34.17756716199624,34.17756716199624,34.17756716199624,34.17756716199624,34.17756716199624,34.17756716199624,37.37542188350829,35.47225786029885,35.47225786029885,35.47225786029885,35.47225786029885,35.47225786029885,35.47225786029885,35.47225786029885,35.47225786029885,35.47225786029885,35.47225786029885,35.47225786029885,35.47225786029885,35.47225786029885,35.47225786029885,35.47225786029885,35.47225786029885,40.40866497416141,44.94501665225479,49.67188384849965,49.67188384849965,46.76908194973004,46.76908194973004,46.76908194973004,46.76908194973004,46.76908194973004,46.76908194973004,46.76908194973004,46.76908194973004,46.76908194973004,46.76908194973004,54.4103984147271,54.4103984147271,54.4103984147271,54.4103984147271,54.4103984147271,54.4103984147271,54.4103984147271,54.4103984147271,54.4103984147271,54.4103984147271,54.4103984147271,54.4103984147271,54.4103984147271,54.4103984147271,54.4103984147271,54.4103984147271,54.4103984147271,54.4103984147271,54.4103984147271,54.4103984147271,54.4103984147271,54.4103984147271,54.4103984147271,54.4103984147271,54.4103984147271	0.9952902084353822	54.4103984147271	9	true	92
32	18	16	100	52102	98208	785664	0	0	26.70387317196961	46.00223472936382	72.39098546634968	73.2427566611904	40.78489286772201,40.78489286772201,46.00223472936382,42.13233819603691,33.645961181396146,28.976388000727724,28.976388000727724,28.976388000727724,28.976388000727724,28.976388000727724,28.976388000727724,28.976388000727724,28.976388000727724,28.976388000727724,28.976388000727724,28.976388000727724,28.976388000727724,28.976388000727724,28.976388000727724,28.976388000727724,28.976388000727724,28.976388000727724,28.976388000727724,28.976388000727724,28.976388000727724,28.976388000727724,28.976388000727724,28.976388000727724,28.976388000727724,28.976388000727724,28.976388000727724,28.976388000727724,28.976388000727724,28.976388000727724,28.976388000727724,28.976388000727724,28.976388000727724,28.976388000727724,28.976388000727724,28.976388000727724,28.976388000727724,28.976388000727724,28.976388000727724,28.976388000727724,28.976388000727724,28.976388000727724,28.976388000727724,28.976388000727724,28.976388000727724,28.976388000727724,28.976388000727724,28.976388000727724,28.976388000727724,28.976388000727724,28.976388000727724,28.976388000727724,28.976388000727724,28.976388000727724,28.976388000727724,28.976388000727724,28.976388000727724,28.976388000727724,28.976388000727724,28.976388000727724,28.976388000727724,28.976388000727724,28.976388000727724,28.976388000727724,28.976388000727724,28.976388000727724,28.976388000727724,28.976388000727724,28.976388000727724,28.976388000727724,28.976388000727724,28.976388000727724,26.70387317196961,26.70387317196961,26.70387317196961,26.70387317196961,26.70387317196961,26.70387317196961,26.70387317196961,26.70387317196961,26.70387317196961,26.70387317196961,26.70387317196961,26.70387317196961,26.70387317196961,26.70387317196961,26.70387317196961,26.70387317196961,26.70387317196961,26.70387317196961,26.70387317196961,26.70387317196961,26.70387317196961,26.70387317196961,26.70387317196961,26.70387317196961	0.9952995299054691	46.00223472936382	15	true	91
33	20	18	100	52612	110484	883872	0	0	31.78004479599589	47.327532936133935	71.64267702514825	71.32038496927136	31.403382706273426,31.403382706273426,38.25722440405982,41.494603223219485,41.494603223219485,40.10523721117016,40.10523721117016,41.37726546965716,41.37726546965716,41.37726546965716,41.37726546965716,41.37726546965716,41.37726546965716,41.37726546965716,41.37726546965716,41.37726546965716,41.37726546965716,41.37726546965716,41.37726546965716,41.37726546965716,41.37726546965716,41.37726546965716,41.37726546965716,41.37726546965716,41.37726546965716,41.37726546965716,41.37726546965716,41.37726546965716,47.327532936133935,47.327532936133935,47.327532936133935,46.1297582626314,46.1297582626314,46.1297582626314,46.1297582626314,46.1297582626314,46.1297582626314,46.1297582626314,46.1297582626314,46.1297582626314,46.1297582626314,46.1297582626314,46.1297582626314,46.1297582626314,46.1297582626314,46.1297582626314,46.1297582626314,46.1297582626314,46.1297582626314,46.1297582626314,46.261432586536,46.261432586536,41.63253035052387,41.63253035052387,41.63253035052387,41.63253035052387,41.63253035052387,41.63253035052387,41.63253035052387,41.63253035052387,41.63253035052387,41.63253035052387,41.63253035052387,41.63253035052387,41.63253035052387,39.69818274046051,36.57371703746566,36.57371703746566,31.78004479599589,31.78004479599589,31.78004479599589,31.78004479599589,31.78004479599589,31.78004479599589,31.78004479599589,31.78004479599589,31.78004479599589,31.78004479599589,31.78004479599589,31.78004479599589,31.78004479599589,31.78004479599589,31.78004479599589,31.78004479599589,31.78004479599589,31.78004479599589,31.78004479599589,31.78004479599589,31.78004479599589,31.78004479599589,31.78004479599589,31.78004479599589,31.78004479599589,31.78004479599589,31.78004479599589,31.78004479599589,31.78004479599589,31.78004479599589,31.78004479599589,31.78004479599589	0.9940563382341114	47.327532936133935	15	true	101
34	21	18	100	52538	110484	883872	0	0	43.30211130554758	43.30211130554758	63.43969272027212	63.43969272027212	17.822461039850417,17.822461039850417,15.009534079301304,14.93105857679,11.923658612642612,11.923658612642612,11.923658612642612,11.923658612642612,11.923658612642612,11.923658612642612,11.923658612642612,11.923658612642612,11.923658612642612,11.923658612642612,11.923658612642612,11.923658612642612,11.923658612642612,11.923658612642612,11.923658612642612,11.923658612642612,11.923658612642612,11.923658612642612,11.923658612642612,11.923658612642612,11.923658612642612,11.923658612642612,11.923658612642612,11.923658612642612,11.923658612642612,11.923658612642612,11.923658612642612,11.923658612642612,11.923658612642612,11.923658612642612,11.923658612642612,11.923658612642612,11.923658612642612,11.923658612642612,11.923658612642612,11.923658612642612,11.923658612642612,11.923658612642612,11.923658612642612,11.923658612642612,11.923658612642612,11.923658612642612,11.923658612642612,11.923658612642612,11.923658612642612,11.923658612642612,11.923658612642612,11.923658612642612,11.923658612642612,11.923658612642612,11.923658612642612,11.923658612642612,11.923658612642612,11.923658612642612,11.923658612642612,11.923658612642612,11.923658612642612,11.923658612642612,11.923658612642612,26.079763037264243,26.079763037264243,26.079763037264243,26.079763037264243,26.079763037264243,26.079763037264243,26.079763037264243,26.079763037264243,26.079763037264243,34.28461324629614,34.28461324629614,34.28461324629614,34.28461324629614,37.52984223956714,37.52984223956714,37.52984223956714,37.52984223956714,40.580635403826804,40.580635403826804,42.85919344490463,42.85919344490463,42.85919344490463,43.30211130554758,43.30211130554758,43.30211130554758,43.30211130554758,43.30211130554758,43.30211130554758,43.30211130554758,43.30211130554758,43.30211130554758,43.30211130554758,43.30211130554758,43.30211130554758,43.30211130554758,43.30211130554758,43.30211130554758	0.9934341026897011	43.30211130554758	14	true	101
35	21	18	100	52615	110484	883872	0	0	38.32741682941278	40.85713759644636	60.585343243754764	60.848249810054895	-27.51757755684317,-27.51757755684317,-30.935778105627556,-33.767806694321145,-37.441242897202976,-37.441242897202976,-42.123316253930376,-42.123316253930376,-42.123316253930376,-43.76178684306302,-43.76178684306302,-45.96226718551348,-45.96226718551348,-45.96226718551348,-45.96226718551348,-45.96226718551348,-35.29815677179407,-28.228607523206847,-28.228607523206847,-28.228607523206847,-28.228607523206847,-28.228607523206847,-28.228607523206847,-28.228607523206847,-28.228607523206847,-22.459485840194432,-22.459485840194432,-22.459485840194432,-22.459485840194432,-21.18161353245479,-21.18161353245479,-21.18161353245479,-21.18161353245479,-21.18161353245479,-21.18161353245479,-21.18161353245479,-21.18161353245479,-21.18161353245479,-13.390939440274963,-13.390939440274963,-13.390939440274963,-5.859694086899836,-5.859694086899836,-5.859694086899836,-5.859694086899836,-5.859694086899836,-5.859694086899836,-5.859694086899836,-5.859694086899836,-5.859694086899836,1.3057614194138267,8.21390796737441,27.339694036507083,39.04730986330713,39.04730986330713,39.04730986330713,39.04730986330713,39.04730986330713,39.04730986330713,39.04730986330713,39.04730986330713,39.04730986330713,39.04730986330713,39.04730986330713,39.04730986330713,39.04730986330713,39.04730986330713,39.04730986330713,39.04730986330713,39.04730986330713,39.04730986330713,39.04730986330713,39.04730986330713,39.04730986330713,37.5791489298618,37.5791489298618,37.5791489298618,37.5791489298618,37.5791489298618,37.5791489298618,37.5791489298618,37.5791489298618,37.5791489298618,37.5791489298618,37.5791489298618,37.5791489298618,37.5791489298618,37.5791489298618,37.5791489298618,40.85713759644636,40.85713759644636,40.85713759644636,40.85713759644636,40.85713759644636,40.85713759644636,38.32741682941278,38.32741682941278,38.32741682941278,38.32741682941278,38.32741682941278	0.9932798049436692	40.85713759644636	11	true	115
36	21	19	100	52781	116622	932976	0	0	21.623405261056575	21.623405261056575	65.25697528265023	65.25697528265023	-8.41778415243513,-8.41778415243513,-13.381781578812337,-20.21279123422486,-20.21279123422486,-20.21279123422486,-20.21279123422486,-20.21279123422486,-21.172614452159593,-22.727894953958895,-22.727894953958895,-22.727894953958895,-22.727894953958895,-22.727894953958895,-22.727894953958895,-22.727894953958895,-22.727894953958895,-27.914351095691543,-35.5412208684795,-35.5412208684795,-37.11766258453072,-28.411068527511386,-28.411068527511386,-28.411068527511386,-3.631559717756115,4.633965690577924,4.633965690577924,4.633965690577924,4.633965690577924,4.633965690577924,4.633965690577924,4.633965690577924,4.633965690577924,4.633965690577924,4.633965690577924,4.633965690577924,4.633965690577924,4.633965690577924,4.633965690577924,4.633965690577924,4.633965690577924,4.633965690577924,4.633965690577924,4.633965690577924,4.633965690577924,4.633965690577924,4.633965690577924,4.633965690577924,4.633965690577924,4.633965690577924,4.633965690577924,4.633965690577924,11.979367268523603,11.979367268523603,11.979367268523603,11.979367268523603,11.979367268523603,11.979367268523603,19.029590594152097,19.029590594152097,19.029590594152097,19.029590594152097,19.029590594152097,19.029590594152097,19.029590594152097,19.029590594152097,19.029590594152097,19.029590594152097,19.029590594152097,20.873069957230598,20.873069957230598,20.873069957230598,20.873069957230598,20.873069957230598,20.873069957230598,20.873069957230598,20.873069957230598,20.873069957230598,20.873069957230598,20.873069957230598,20.873069957230598,20.873069957230598,20.873069957230598,20.873069957230598,20.873069957230598,20.873069957230598,21.623405261056575,21.623405261056575,21.623405261056575,21.623405261056575,21.623405261056575,21.623405261056575,21.623405261056575,21.623405261056575,21.623405261056575,21.623405261056575,21.623405261056575,21.623405261056575,21.623405261056575,21.623405261056575	0.9931440404734577	21.623405261056575	13	true	323
37	22	19	100	52783	116622	932976	0	0	-7.840181063864103	6.989547794607212	59.62107847615171	61.665771056310504	6.989547794607212,6.989547794607212,-3.744752235734879,-3.744752235734879,-6.581071449606483,-10.26182834207664,-10.26182834207664,-10.26182834207664,-10.26182834207664,-10.26182834207664,-14.959358551040381,-14.959358551040381,-14.959358551040381,-14.959358551040381,-14.959358551040381,-14.959358551040381,-14.959358551040381,-14.959358551040381,-14.959358551040381,-14.959358551040381,-14.959358551040381,-14.959358551040381,-14.959358551040381,-14.959358551040381,-14.959358551040381,-14.959358551040381,-10.26182834207664,-10.26182834207664,-10.26182834207664,-8.889671678719758,-8.889671678719758,-8.889671678719758,-13.346733536138679,-13.346733536138679,-13.346733536138679,-13.346733536138679,-13.346733536138679,-13.346733536138679,-13.346733536138679,-13.346733536138679,-13.346733536138679,-13.346733536138679,-13.346733536138679,-13.346733536138679,-13.346733536138679,-13.346733536138679,-13.346733536138679,-13.346733536138679,-13.346733536138679,-13.346733536138679,-13.346733536138679,-13.346733536138679,-13.346733536138679,-13.346733536138679,-13.346733536138679,-13.346733536138679,-13.346733536138679,-13.346733536138679,-13.346733536138679,-13.346733536138679,-13.346733536138679,-13.346733536138679,-13.346733536138679,-13.346733536138679,-13.346733536138679,-13.346733536138679,-12.25539972969969,-12.25539972969969,-12.25539972969969,-12.25539972969969,-12.25539972969969,-12.581792753852497,-12.581792753852497,-12.581792753852497,-13.480388516059378,-14.948707194227921,-14.948707194227921,-16.999762445439238,-19.643872621215266,-19.643872621215266,-26.817293357312522,-26.817293357312522,-26.817293357312522,-26.817293357312522,-26.817293357312522,-26.817293357312522,-26.817293357312522,-26.817293357312522,-26.817293357312522,-26.817293357312522,-26.817293357312522,-26.817293357312522,-31.457288330842808,-31.457288330842808,-31.457288330842808,-31.457288330842808,-31.457288330842808,-12.321685163179716,-9.740452655679684,-7.840181063864103	0.9927872292204326	6.989547794607212	21	true	103
38	22	17	100	52451	104346	834768	0	0	44.83752578180154	44.83752578180154	53.40620106339382	53.40620106339382	-38.96568194091995,-38.96568194091995,-38.96568194091995,-38.96568194091995,-40.48369508845313,-40.48369508845313,-43.15144494549159,-43.15144494549159,-43.15144494549159,-43.15144494549159,-43.15144494549159,-43.15144494549159,-43.15144494549159,-43.15144494549159,-43.15144494549159,-43.15144494549159,-43.15144494549159,-43.15144494549159,-43.15144494549159,-43.15144494549159,-43.15144494549159,-43.15144494549159,-43.15144494549159,-43.15144494549159,-43.15144494549159,-43.15144494549159,-43.15144494549159,-28.07230164375685,-20.88206811463649,-6.066128482560643,5.550881321293758,5.550881321293758,5.550881321293758,5.550881321293758,5.550881321293758,5.550881321293758,5.550881321293758,5.550881321293758,5.550881321293758,5.550881321293758,5.550881321293758,5.550881321293758,5.550881321293758,5.550881321293758,5.550881321293758,5.550881321293758,5.550881321293758,5.550881321293758,5.563254093980852,4.336651359531835,9.359069194975561,13.980081210514626,13.980081210514626,13.980081210514626,13.980081210514626,13.980081210514626,27.018377728286822,27.018377728286822,27.018377728286822,27.018377728286822,27.018377728286822,27.018377728286822,27.018377728286822,32.55385673072888,37.001126369340625,37.001126369340625,37.001126369340625,37.001126369340625,37.001126369340625,37.001126369340625,37.001126369340625,37.001126369340625,37.001126369340625,37.001126369340625,37.001126369340625,37.001126369340625,37.001126369340625,37.001126369340625,40.279078999155736,44.30514275422722,44.30514275422722,44.30514275422722,44.30514275422722,44.30514275422722,44.30514275422722,44.30514275422722,44.30514275422722,44.30514275422722,44.30514275422722,42.988629354870824,42.988629354870824,42.988629354870824,42.988629354870824,42.988629354870824,42.988629354870824,42.988629354870824,44.79717287967553,44.79717287967553,44.83752578180154,44.83752578180154	0.9928757283540846	44.83752578180154	11	false	111
39	22	16	100	52166	98208	785664	0	0	26.344555156321363	27.7300850453004	46.445254309371	45.604788345137486	-131.15175869593514,-131.15175869593514,-131.15175869593514,-69.43461597247949,-29.97205960023392,-25.26785964569558,-21.594597617358396,-9.867476046616794,-9.867476046616794,-9.867476046616794,21.127498017916984,22.918280971476406,22.918235971208624,23.408064992824997,22.487170269639996,22.487170269639996,22.49012864831669,22.49012864831669,22.49012864831669,22.49012864831669,22.49012864831669,22.49012864831669,22.49012864831669,22.49012864831669,25.767746917994078,25.767746917994078,25.767746917994078,25.767746917994078,25.767746917994078,25.767746917994078,25.736469770038784,25.736469770038784,25.736469770038784,25.736469770038784,25.736469770038784,25.736469770038784,27.7300850453004,27.7300850453004,27.240256023684026,27.240256023684026,25.737615921414033,25.737615921414033,23.096627998748808,23.096627998748808,23.096627998748808,23.096627998748808,23.096627998748808,23.096627998748808,23.096627998748808,23.096627998748808,23.096627998748808,23.096627998748808,23.096627998748808,23.096627998748808,23.096627998748808,23.096627998748808,23.096627998748808,23.096627998748808,23.096627998748808,23.096627998748808,23.096627998748808,23.096627998748808,23.096627998748808,23.096627998748808,25.737615921414033,25.737615921414033,25.737615921414033,25.737615921414033,25.737615921414033,25.737615921414033,25.737615921414033,25.737615921414033,25.737615921414033,25.737615921414033,25.737615921414033,25.737615921414033,25.737615921414033,25.737615921414033,25.737615921414033,25.737615921414033,25.737615921414033,25.737615921414033,25.737615921414033,25.737615921414033,25.737615921414033,25.737615921414033,25.737615921414033,25.737615921414033,25.737615921414033,25.737615921414033,27.554128395937557,27.554128395937557,27.554128395937557,27.554128395937557,27.554128395937557,27.554128395937557,27.554128395937557,26.344555156321363,26.344555156321363,26.344555156321363	0.9929690161645258	27.7300850453004	13	false	113
40	23	14	100	51720	85932	687456	0	0	1.4178650325617497	1.4178650325617497	39.82111721289283	39.82111721289283	-41.87979744848868,-41.87979744848868,-50.31393052032824,-50.31393052032824,-50.31393052032824,-50.31393052032824,-50.31393052032824,-50.31393052032824,-50.31393052032824,-50.31393052032824,-50.31393052032824,-50.31393052032824,-50.31393052032824,-50.31393052032824,-50.31393052032824,-50.31393052032824,-48.82074393207937,-48.82074393207937,-47.85789267949088,-47.85789267949088,-47.85789267949088,-47.85789267949088,-47.85789267949088,-47.85789267949088,-47.85789267949088,-47.85789267949088,-47.85789267949088,-47.85789267949088,-47.85789267949088,-47.85789267949088,-47.85789267949088,-47.85789267949088,-25.23377776390484,-25.23377776390484,-25.23377776390484,-25.23377776390484,-25.23377776390484,-25.23377776390484,-25.23377776390484,-25.23377776390484,-25.253188804565383,-25.253188804565383,-25.253188804565383,-25.253188804565383,-25.84298807928363,-25.84298807928363,-25.84298807928363,-25.84298807928363,-25.84298807928363,-25.84298807928363,-25.84298807928363,-25.84298807928363,-25.84298807928363,-25.84298807928363,-25.84298807928363,-25.84298807928363,-25.84298807928363,-25.84298807928363,-25.84298807928363,-25.84298807928363,-25.84298807928363,-25.84298807928363,-25.84298807928363,-25.84298807928363,-25.84298807928363,-25.84298807928363,-25.84298807928363,-25.84298807928363,-25.84298807928363,-25.84298807928363,-25.84298807928363,-25.84298807928363,-25.84298807928363,-25.84298807928363,-25.84298807928363,-25.84298807928363,-20.316510491571634,-15.154686461899828,-15.154686461899828,-15.154686461899828,-15.154686461899828,-15.154686461899828,1.4178650325617497,1.4178650325617497,1.4178650325617497,1.4178650325617497,1.4178650325617497,1.4178650325617497,1.4178650325617497,1.4178650325617497,1.4178650325617497,1.4178650325617497,1.4178650325617497,1.4178650325617497,1.4178650325617497,1.4178650325617497,1.4178650325617497,1.4178650325617497,1.4178650325617497,1.4178650325617497	0.9928436698079414	1.4178650325617497	17	false	86
41	24	14	100	51606	85932	687456	0	0	-37.4355505925413	-37.4355505925413	31.180249521180144	31.180249521180144	-85.54788418691588,-85.54788418691588,-66.33517241358365,-92.74631918679559,-92.74631918679559,-92.74631918679559,-92.74631918679559,-92.74631918679559,-92.74631918679559,-92.74631918679559,-92.74631918679559,-92.74631918679559,-92.74631918679559,-92.74631918679559,-86.16796415528958,-86.16796415528958,-86.16796415528958,-86.16796415528958,-86.16796415528958,-86.16796415528958,-86.16796415528958,-86.16796415528958,-86.16796415528958,-86.16796415528958,-86.16796415528958,-86.16796415528958,-86.16796415528958,-86.16796415528958,-86.16796415528958,-86.16796415528958,-86.16796415528958,-86.16796415528958,-86.16796415528958,-86.16796415528958,-86.16796415528958,-86.16796415528958,-86.16796415528958,-86.16796415528958,-86.16796415528958,-86.16796415528958,-86.16796415528958,-86.16796415528958,-86.16796415528958,-86.16796415528958,-86.16796415528958,-86.16796415528958,-86.16796415528958,-86.16796415528958,-86.16796415528958,-76.74850737501204,-76.74850737501204,-76.74850737501204,-76.74850737501204,-67.53451110660485,-67.53451110660485,-60.51035603870531,-60.51035603870531,-60.51035603870531,-60.51035603870531,-54.983570902896005,-50.40622975489415,-50.40622975489415,-50.40622975489415,-46.63451956282911,-46.63451956282911,-41.14826553950782,-41.14826553950782,-41.14826553950782,-41.14826553950782,-38.127884917242326,-38.127884917242326,-38.127884917242326,-38.127884917242326,-38.127884917242326,-38.127884917242326,-38.127884917242326,-38.127884917242326,-38.127884917242326,-38.127884917242326,-38.127884917242326,-38.127884917242326,-38.127884917242326,-38.127884917242326,-38.127884917242326,-38.127884917242326,-38.127884917242326,-38.127884917242326,-38.127884917242326,-38.127884917242326,-38.127884917242326,-38.127884917242326,-37.50494881394495,-37.4355505925413,-37.4355505925413,-37.4355505925413,-37.4355505925413,-37.4355505925413,-37.4355505925413,-37.4355505925413,-37.4355505925413	0.9923233855579358	-37.4355505925413	23	false	85
42	25	15	100	51913	92070	736560	0	0	-17.963220584753095	-13.043996840514952	38.25092504025996	37.86828076561501	-51.24749871071776,-51.24749871071776,-91.71330608624136,-91.71330608624136,-91.71330608624136,-91.71330608624136,-91.71330608624136,-91.71330608624136,-91.71330608624136,-91.71330608624136,-91.71330608624136,-91.71330608624136,-91.71330608624136,-91.71330608624136,-91.71330608624136,-85.10007063792867,-85.10007063792867,-85.10007063792867,-85.10007063792867,-85.10007063792867,-85.10007063792867,-85.10007063792867,-85.10007063792867,-85.10007063792867,-85.10007063792867,-85.10007063792867,-85.10007063792867,-85.10007063792867,-85.10007063792867,-85.10007063792867,-85.10007063792867,-85.10007063792867,-85.10007063792867,-85.10007063792867,-85.10007063792867,-85.10007063792867,-85.10007063792867,-85.10007063792867,-85.10007063792867,-85.10007063792867,-85.10007063792867,-85.10007063792867,-85.10007063792867,-85.10007063792867,-85.10007063792867,-85.10007063792867,-85.10007063792867,-85.10007063792867,-85.10007063792867,-85.10007063792867,-85.10007063792867,-85.10007063792867,-85.10007063792867,-85.10007063792867,-85.10007063792867,-85.10007063792867,-85.10007063792867,-85.10007063792867,-85.10007063792867,-85.10007063792867,-85.10007063792867,-85.10007063792867,-85.10007063792867,-85.10007063792867,-85.10007063792867,-85.10007063792867,-85.10007063792867,-85.10007063792867,-66.64716843242095,-57.697274798937684,-57.697274798937684,-57.697274798937684,-50.94867195577494,-45.68182408507384,-37.33708930003914,-37.33708930003914,-29.95186668420788,-21.918494460005984,-17.989511584866626,-17.989511584866626,-17.989511584866626,-17.989511584866626,-13.043996840514952,-13.043996840514952,-13.043996840514952,-13.043996840514952,-13.043996840514952,-13.043996840514952,-15.493979474669691,-15.493979474669691,-15.493979474669691,-15.493979474669691,-19.605622813926473,-18.4054147117269,-18.4054147117269,-18.4054147117269,-18.4054147117269,-18.4054147117269,-17.963220584753095,-17.963220584753095	0.9923576739459429	-13.043996840514952	21	false	90
43	25	14	100	51720	85932	687456	0	0	-48.09054143251376	-46.900472696946025	23.65516918704123	22.960915016531946	-79.02412856909186,-79.02412856909186,-53.83634488519586,-53.83634488519586,-48.8318225452188,-46.900472696946025,-86.73475403815682,-86.73475403815682,-86.73475403815682,-86.73475403815682,-86.73475403815682,-86.73475403815682,-86.73475403815682,-86.73475403815682,-86.73475403815682,-86.73475403815682,-86.73475403815682,-86.73475403815682,-86.73475403815682,-86.73475403815682,-86.73475403815682,-86.73475403815682,-86.73475403815682,-86.73475403815682,-86.73475403815682,-86.73475403815682,-86.73475403815682,-86.73475403815682,-86.73475403815682,-86.73475403815682,-86.73475403815682,-86.73475403815682,-86.73475403815682,-86.73475403815682,-86.73475403815682,-86.73475403815682,-86.73475403815682,-86.73475403815682,-86.73475403815682,-86.73475403815682,-86.73475403815682,-86.73475403815682,-86.73475403815682,-86.73475403815682,-86.73475403815682,-86.73475403815682,-86.73475403815682,-86.73475403815682,-86.73475403815682,-86.73475403815682,-86.73475403815682,-86.73475403815682,-86.73475403815682,-86.73475403815682,-86.73475403815682,-86.73475403815682,-86.73475403815682,-86.73475403815682,-86.73475403815682,-86.73475403815682,-86.73475403815682,-86.73475403815682,-86.73475403815682,-86.73475403815682,-86.73475403815682,-86.73475403815682,-86.73475403815682,-86.73475403815682,-86.73475403815682,-86.73475403815682,-86.73475403815682,-86.73475403815682,-86.73475403815682,-86.73475403815682,-86.73475403815682,-86.73475403815682,-86.73475403815682,-86.73475403815682,-86.73475403815682,-86.73475403815682,-86.73475403815682,-86.73475403815682,-86.73475403815682,-86.73475403815682,-86.73475403815682,-86.73475403815682,-86.73475403815682,-86.73475403815682,-86.73475403815682,-86.73475403815682,-86.73475403815682,-86.73475403815682,-86.73475403815682,-86.73475403815682,-86.73475403815682,-48.09054143251376,-48.09054143251376,-48.09054143251376,-48.09054143251376,-48.09054143251376	0.9921217493657745	-46.900472696946025	25	false	336
44	25	13	100	51533	79794	638352	0	0	-38.72978074847602	-38.72951778270166	14.9405009572069	14.9405009572069	-137.26722604499255,-137.26722604499255,-107.83759429828264,-101.07987134401837,-95.35832218000238,-95.35832218000238,-90.57884005882815,-86.46773863601466,-86.46773863601466,-86.46773863601466,-86.46773863601466,-86.46773863601466,-80.54663461179985,-75.66052162124731,-74.90066283189464,-74.90066283189464,-74.90066283189464,-52.06738636720334,-51.442458931735246,-49.2422591386586,-47.7860717407482,-47.480920367164714,-47.480920367164714,-47.480920367164714,-47.480920367164714,-47.480920367164714,-47.480920367164714,-50.059211466126364,-53.4007317422375,-53.4007317422375,-53.4007317422375,-53.4007317422375,-53.4007317422375,-53.4007317422375,-53.4007317422375,-53.4007317422375,-53.4007317422375,-53.4007317422375,-53.4007317422375,-53.4007317422375,-57.769954342022764,-57.769954342022764,-57.769954342022764,-57.769954342022764,-57.769954342022764,-57.769954342022764,-57.769954342022764,-57.769954342022764,-57.769954342022764,-57.769954342022764,-57.769954342022764,-57.769954342022764,-57.769954342022764,-57.769954342022764,-57.769954342022764,-57.769954342022764,-57.769954342022764,-57.769954342022764,-57.769954342022764,-57.769954342022764,-57.769954342022764,-57.769954342022764,-57.769954342022764,-57.769954342022764,-57.769954342022764,-57.769954342022764,-57.769954342022764,-50.37440219279532,-50.37440219279532,-50.37440219279532,-50.37440219279532,-50.37440219279532,-50.37440219279532,-50.37440219279532,-50.37440219279532,-50.37440219279532,-50.37440219279532,-50.37440219279532,-50.37440219279532,-50.37440219279532,-50.37440219279532,-50.37440219279532,-50.37440219279532,-50.37440219279532,-50.37440219279532,-50.37440219279532,-50.37440219279532,-50.37440219279532,-50.37440219279532,-50.37440219279532,-50.37440219279532,-50.37440219279532,-45.41525794652488,-38.72951778270166,-38.72951778270166,-38.72951778270166,-38.72951778270166,-38.72951778270166,-38.72978074847602,-38.72978074847602	0.9921687953736265	-38.72951778270166	23	false	82
45	25	13	100	51464	79794	638352	0	0	-41.48646933785482	-41.48646933785482	18.663227544743897	18.663227544743897	-93.17205342220262,-93.17205342220262,-66.28146255394573,-68.82282643338371,-68.82282643338371,-68.82282643338371,-68.82282643338371,-68.82282643338371,-68.82282643338371,-68.82282643338371,-68.82282643338371,-68.82282643338371,-68.82282643338371,-68.82282643338371,-68.82282643338371,-68.82282643338371,-60.279924897284054,-60.279924897284054,-60.279924897284054,-60.279924897284054,-60.279924897284054,-60.279924897284054,-60.279924897284054,-60.279924897284054,-52.01724030674384,-45.97973173189053,-45.97973173189053,-45.97973173189053,-45.97973173189053,-41.48646933785482,-41.48646933785482,-41.48646933785482,-41.48646933785482,-41.48646933785482,-41.48646933785482,-41.48646933785482,-41.48646933785482,-41.48646933785482,-41.48646933785482,-41.48646933785482,-41.48646933785482,-41.48646933785482,-41.48646933785482,-41.48646933785482,-41.48646933785482,-41.48646933785482,-41.48646933785482,-41.48646933785482,-41.48646933785482,-41.48646933785482,-41.48646933785482,-41.48646933785482,-41.48646933785482,-41.48646933785482,-41.48646933785482,-41.48646933785482,-41.48646933785482,-41.48646933785482,-41.48646933785482,-41.48646933785482,-41.48646933785482,-41.48646933785482,-41.48646933785482,-41.48646933785482,-41.48646933785482,-41.48646933785482,-41.48646933785482,-41.48646933785482,-41.48646933785482,-41.48646933785482,-41.48646933785482,-41.48646933785482,-41.48646933785482,-41.48646933785482,-41.48646933785482,-41.48646933785482,-41.48646933785482,-41.48646933785482,-41.48646933785482,-41.48646933785482,-41.48646933785482,-41.48646933785482,-41.48646933785482,-41.48646933785482,-41.48646933785482,-41.48646933785482,-41.48646933785482,-41.48646933785482,-41.48646933785482,-41.48646933785482,-41.48646933785482,-41.48646933785482,-41.48646933785482,-41.48646933785482,-41.48646933785482,-41.48646933785482,-41.48646933785482,-41.48646933785482,-41.48646933785482,-41.48646933785482	0.9921307783975846	-41.48646933785482	25	false	82
46	25	13	100	51526	79794	638352	0	0	-39.99641438178827	-39.99641438178827	19.497552018759244	19.497552018759244	-77.67051253965201,-77.67051253965201,-66.9976820747751,-66.9976820747751,-66.9976820747751,-66.9976820747751,-66.9976820747751,-66.9976820747751,-66.9976820747751,-66.9976820747751,-66.9976820747751,-66.9976820747751,-66.9976820747751,-66.9976820747751,-66.9976820747751,-66.9976820747751,-66.9976820747751,-66.9976820747751,-66.9976820747751,-66.9976820747751,-66.9976820747751,-66.9976820747751,-66.9976820747751,-66.9976820747751,-66.9976820747751,-66.9976820747751,-66.9976820747751,-66.9976820747751,-58.55913670820069,-58.55913670820069,-58.55913670820069,-58.55913670820069,-50.36920425818436,-50.36920425818436,-50.36920425818436,-44.42569170640409,-39.99641438178827,-39.99641438178827,-39.99641438178827,-39.99641438178827,-39.99641438178827,-39.99641438178827,-39.99641438178827,-39.99641438178827,-39.99641438178827,-39.99641438178827,-39.99641438178827,-39.99641438178827,-39.99641438178827,-39.99641438178827,-39.99641438178827,-39.99641438178827,-39.99641438178827,-39.99641438178827,-39.99641438178827,-39.99641438178827,-39.99641438178827,-39.99641438178827,-39.99641438178827,-39.99641438178827,-39.99641438178827,-39.99641438178827,-39.99641438178827,-39.99641438178827,-39.99641438178827,-39.99641438178827,-39.99641438178827,-39.99641438178827,-39.99641438178827,-39.99641438178827,-39.99641438178827,-39.99641438178827,-39.99641438178827,-39.99641438178827,-39.99641438178827,-39.99641438178827,-39.99641438178827,-39.99641438178827,-39.99641438178827,-39.99641438178827,-39.99641438178827,-39.99641438178827,-39.99641438178827,-39.99641438178827,-39.99641438178827,-39.99641438178827,-39.99641438178827,-39.99641438178827,-39.99641438178827,-39.99641438178827,-39.99641438178827,-39.99641438178827,-39.99641438178827,-39.99641438178827,-39.99641438178827,-39.99641438178827,-39.99641438178827,-39.99641438178827,-39.99641438178827,-39.99641438178827	0.9921712445441982	-39.99641438178827	25	false	82
47	25	13	100	51662	79794	638352	0	0	-39.62035467811233	-39.40791123279699	20.312211445433668	20.064261307352712	-133.03985713300898,-133.03985713300898,-70.4142226665805,-70.4142226665805,-70.4142226665805,-61.61083147067596,-39.62035467811233,-39.62035467811233,-39.62035467811233,-39.40791123279699,-40.55553697755233,-40.55553697755233,-40.55553697755233,-40.55553697755233,-40.55553697755233,-40.55553697755233,-40.55553697755233,-40.55553697755233,-40.55553697755233,-40.55553697755233,-40.55553697755233,-40.55553697755233,-40.55553697755233,-40.55553697755233,-40.55553697755233,-40.55553697755233,-40.55553697755233,-39.71635100753592,-39.71635100753592,-39.71635100753592,-39.40791123279699,-39.62035467811233,-39.62035467811233,-39.62035467811233,-39.62035467811233,-39.62035467811233,-39.62035467811233,-39.62035467811233,-39.62035467811233,-39.62035467811233,-39.62035467811233,-39.62035467811233,-39.62035467811233,-39.62035467811233,-39.62035467811233,-39.62035467811233,-39.62035467811233,-39.62035467811233,-39.62035467811233,-39.62035467811233,-39.62035467811233,-39.62035467811233,-39.62035467811233,-39.62035467811233,-39.62035467811233,-39.62035467811233,-39.62035467811233,-39.62035467811233,-39.62035467811233,-39.62035467811233,-39.62035467811233,-39.62035467811233,-39.62035467811233,-39.62035467811233,-39.62035467811233,-39.62035467811233,-39.62035467811233,-39.62035467811233,-39.62035467811233,-39.62035467811233,-39.62035467811233,-39.62035467811233,-39.62035467811233,-39.62035467811233,-39.62035467811233,-39.62035467811233,-39.62035467811233,-39.62035467811233,-39.62035467811233,-39.62035467811233,-39.62035467811233,-39.62035467811233,-39.62035467811233,-39.62035467811233,-39.62035467811233,-39.62035467811233,-39.62035467811233,-39.62035467811233,-39.62035467811233,-39.62035467811233,-39.62035467811233,-39.62035467811233,-39.62035467811233,-39.62035467811233,-39.62035467811233,-39.62035467811233,-39.62035467811233,-39.62035467811233,-39.62035467811233,-39.62035467811233	0.9921390032241321	-39.40791123279699	25	false	335
48	25	13	100	51821	79794	638352	0	0	-63.43787589431551	-33.646630635601895	17.970850530302947	18.127930120955675	-100.03941364282151,-100.03941364282151,-100.03941364282151,-100.03941364282151,-100.03941364282151,-100.03941364282151,-81.15340211869973,-48.39924907658763,-49.2352950599264,-49.2352950599264,-49.2352950599264,-49.2352950599264,-49.2352950599264,-49.2352950599264,-50.71405766707519,-50.71405766707519,-50.71405766707519,-52.82807289356782,-55.478647678260344,-55.478647678260344,-55.478647678260344,-55.478647678260344,-55.478647678260344,-55.478647678260344,-55.478647678260344,-55.478647678260344,-55.478647678260344,-50.71405766707519,-50.71405766707519,-50.71405766707519,-50.71405766707519,-50.71405766707519,-50.71405766707519,-50.71405766707519,-50.71405766707519,-50.71405766707519,-50.71405766707519,-50.71405766707519,-50.71405766707519,-49.2352950599264,-49.2352950599264,-49.2352950599264,-49.2352950599264,-49.2352950599264,-49.2352950599264,-49.2352950599264,-49.2352950599264,-49.2352950599264,-49.2352950599264,-49.2352950599264,-49.2352950599264,-49.2352950599264,-49.2352950599264,-49.2352950599264,-49.2352950599264,-49.2352950599264,-49.2352950599264,-49.2352950599264,-49.2352950599264,-43.84206475976439,-43.84206475976439,-43.84206475976439,-43.84206475976439,-43.84206475976439,-43.84206475976439,-39.346569269219195,-39.346569269219195,-39.346569269219195,-36.430271199724785,-36.430271199724785,-36.430271199724785,-36.430271199724785,-36.430271199724785,-34.61849399010961,-34.61849399010961,-33.712629480500034,-33.712629480500034,-33.712629480500034,-33.646630635601895,-34.36512890777053,-35.52788502146726,-37.35244216318837,-39.53376463316137,-42.45313149463812,-42.45313149463812,-46.15565742368019,-46.15565742368019,-46.15565742368019,-50.72820895454056,-50.72820895454056,-56.315141256652254,-56.315141256652254,-56.315141256652254,-56.315141256652254,-63.43787589431551,-63.43787589431551,-63.43787589431551,-63.43787589431551,-63.43787589431551,-63.43787589431551	0.9919254867269577	-33.646630635601895	24	false	88
49	25	12	100	51227	73656	589248	0	0	-11.55488845237286	-10.166090388773641	6.294761124619512	6.3266867910475	-97.36667654988034,-97.36667654988034,-97.36667654988034,-97.36667654988034,-97.36667654988034,-97.36667654988034,-97.36667654988034,-97.36667654988034,-97.36667654988034,-97.36667654988034,-97.36667654988034,-97.36667654988034,-97.36667654988034,-97.36667654988034,-97.36667654988034,-97.36667654988034,-97.36667654988034,-97.36667654988034,-97.36667654988034,-97.36667654988034,-97.36667654988034,-90.23801670628679,-90.23801670628679,-90.23801670628679,-90.23801670628679,-90.23801670628679,-90.23801670628679,-90.23801670628679,-57.37305021056643,-31.165210067518466,-31.165210067518466,-31.165210067518466,-31.165210067518466,-31.165210067518466,-31.165210067518466,-25.71663479877489,-25.71663479877489,-25.71663479877489,-25.71663479877489,-25.71663479877489,-25.71663479877489,-25.71663479877489,-25.71663479877489,-25.71663479877489,-25.71663479877489,-25.71663479877489,-25.71663479877489,-25.71663479877489,-25.71663479877489,-25.71663479877489,-20.992915732054406,-20.992915732054406,-20.992915732054406,-20.992915732054406,-20.992915732054406,-20.992915732054406,-20.992915732054406,-20.992915732054406,-20.992915732054406,-18.686322491909173,-18.686322491909173,-18.0932915116652,-18.74238129989737,-18.74238129989737,-20.56530448223768,-15.94770815775149,-15.94770815775149,-15.94770815775149,-15.94770815775149,-15.94770815775149,-15.94770815775149,-15.94770815775149,-15.94770815775149,-15.94770815775149,-15.94770815775149,-15.94770815775149,-15.94770815775149,-15.94770815775149,-11.438192986138235,-10.166090388773641,-10.166090388773641,-10.166090388773641,-10.166090388773641,-10.166090388773641,-11.55488845237286,-11.55488845237286,-11.55488845237286,-11.55488845237286,-11.55488845237286,-11.55488845237286,-11.55488845237286,-11.55488845237286,-11.55488845237286,-11.55488845237286,-11.55488845237286,-11.55488845237286,-11.55488845237286,-11.55488845237286,-11.55488845237286,-11.55488845237286	0.9919639789152003	-10.166090388773641	17	false	78
50	25	12	100	51194	73656	589248	0	0	-6.0267338697906645	-3.4243098205530416	7.640355372472541	7.95065566778004	-93.36469678341953,-93.36469678341953,-93.36469678341953,-93.36469678341953,-93.36469678341953,-93.36469678341953,-95.28252263648741,-95.28252263648741,-95.28252263648741,-95.28252263648741,-95.28252263648741,-97.72681002112905,-97.72681002112905,-97.72681002112905,-97.72681002112905,-97.72681002112905,-97.72681002112905,-97.72681002112905,-97.72681002112905,-97.72681002112905,-97.72681002112905,-88.6520768083511,-90.62755813057565,-90.62755813057565,-90.62755813057565,-82.48234260328029,-34.54224356733853,-21.444192159536655,-21.444192159536655,-16.45303154822087,-8.059982012595798,-8.059982012595798,-8.059982012595798,-8.059982012595798,-8.059982012595798,-8.059982012595798,-8.059982012595798,-8.059982012595798,-8.059982012595798,-8.059982012595798,-8.059982012595798,-8.059982012595798,-8.059982012595798,-8.059982012595798,-8.059982012595798,-8.059982012595798,-8.059982012595798,-8.059982012595798,-8.059982012595798,-8.059982012595798,-8.059982012595798,-8.059982012595798,-8.059982012595798,-8.059982012595798,-8.059982012595798,-8.059982012595798,-8.059982012595798,-8.059982012595798,-8.059982012595798,-8.059982012595798,-8.059982012595798,-8.059982012595798,-8.059982012595798,-8.059982012595798,-8.059982012595798,-8.059982012595798,-8.059982012595798,-8.059982012595798,-8.059982012595798,-8.059982012595798,-8.059982012595798,-8.059982012595798,-8.059982012595798,-8.059982012595798,-8.059982012595798,-8.059982012595798,-8.059982012595798,-8.059982012595798,-6.159937970382616,-6.159937970382616,-6.159937970382616,-3.4243098205530416,-3.4243098205530416,-3.445983706111967,-3.445983706111967,-6.0267338697906645,-6.0267338697906645,-6.0267338697906645,-6.0267338697906645,-6.0267338697906645,-6.0267338697906645,-6.0267338697906645,-6.0267338697906645,-6.0267338697906645,-6.0267338697906645,-6.0267338697906645,-6.0267338697906645,-6.0267338697906645,-6.0267338697906645,-6.0267338697906645	0.9919639789152003	-3.4243098205530416	15	false	80
51	25	12	100	51510	73656	589248	0	0	-102.98489574202509	-97.91924657654556	10.268506887449043	9.857132965267247	-136.34688704415674,-136.34688704415674,-136.34688704415674,-136.34688704415674,-136.34688704415674,-136.34688704415674,-136.34688704415674,-136.34688704415674,-136.34688704415674,-136.34688704415674,-136.34688704415674,-136.34688704415674,-136.34688704415674,-136.34688704415674,-136.34688704415674,-136.34688704415674,-136.34688704415674,-102.98489574202509,-102.98489574202509,-102.98489574202509,-102.98489574202509,-102.98489574202509,-102.98489574202509,-102.98489574202509,-102.98489574202509,-102.98489574202509,-102.98489574202509,-102.98489574202509,-102.98489574202509,-102.98489574202509,-102.98489574202509,-102.98489574202509,-102.98489574202509,-97.91924657654556,-102.98489574202509,-102.98489574202509,-102.98489574202509,-102.98489574202509,-102.98489574202509,-102.98489574202509,-102.98489574202509,-102.98489574202509,-102.98489574202509,-102.98489574202509,-102.98489574202509,-102.98489574202509,-102.98489574202509,-102.98489574202509,-102.98489574202509,-102.98489574202509,-102.98489574202509,-102.98489574202509,-102.98489574202509,-102.98489574202509,-102.98489574202509,-102.98489574202509,-102.98489574202509,-102.98489574202509,-102.98489574202509,-102.98489574202509,-102.98489574202509,-102.98489574202509,-102.98489574202509,-102.98489574202509,-102.98489574202509,-102.98489574202509,-102.98489574202509,-102.98489574202509,-102.98489574202509,-102.98489574202509,-102.98489574202509,-102.98489574202509,-102.98489574202509,-102.98489574202509,-102.98489574202509,-102.98489574202509,-102.98489574202509,-102.98489574202509,-102.98489574202509,-102.98489574202509,-102.98489574202509,-102.98489574202509,-102.98489574202509,-102.98489574202509,-102.98489574202509,-102.98489574202509,-102.98489574202509,-102.98489574202509,-102.98489574202509,-102.98489574202509,-102.98489574202509,-102.98489574202509,-102.98489574202509,-102.98489574202509,-102.98489574202509,-102.98489574202509,-102.98489574202509,-102.98489574202509,-102.98489574202509,-102.98489574202509	0.9920123408952998	-97.91924657654556	27	false	123
52	25	12	100	51213	73656	589248	0	0	-48.205569141988974	-48.205569141988974	10.606712656101749	10.606712656101749	-127.81461566704645,-127.81461566704645,-127.81461566704645,-127.81461566704645,-127.81461566704645,-127.81461566704645,-127.81461566704645,-127.81461566704645,-127.81461566704645,-127.81461566704645,-127.81461566704645,-89.23844508880465,-89.23844508880465,-89.23844508880465,-89.23844508880465,-89.23844508880465,-89.23844508880465,-89.23844508880465,-89.23844508880465,-89.23844508880465,-89.23844508880465,-89.23844508880465,-89.23844508880465,-89.23844508880465,-89.23844508880465,-89.23844508880465,-89.23844508880465,-89.23844508880465,-89.23844508880465,-89.23844508880465,-89.23844508880465,-89.23844508880465,-89.23844508880465,-89.23844508880465,-89.23844508880465,-89.23844508880465,-89.23844508880465,-89.23844508880465,-89.23844508880465,-89.23844508880465,-89.23844508880465,-89.23844508880465,-89.23844508880465,-89.23844508880465,-89.23844508880465,-89.23844508880465,-89.23844508880465,-89.23844508880465,-89.23844508880465,-89.23844508880465,-89.23844508880465,-89.23844508880465,-89.23844508880465,-89.23844508880465,-89.23844508880465,-89.23844508880465,-89.23844508880465,-89.23844508880465,-89.23844508880465,-89.23844508880465,-89.23844508880465,-89.23844508880465,-89.23844508880465,-89.23844508880465,-89.23844508880465,-89.23844508880465,-89.23844508880465,-89.23844508880465,-89.23844508880465,-89.23844508880465,-85.8389161998875,-79.64189287684317,-71.09590504295575,-71.09590504295575,-71.09590504295575,-71.09590504295575,-71.09590504295575,-71.09590504295575,-71.09590504295575,-71.09590504295575,-71.09590504295575,-63.542933777119686,-58.19402816050501,-58.19402816050501,-58.19402816050501,-54.354097236933185,-54.354097236933185,-54.354097236933185,-54.354097236933185,-54.354097236933185,-51.52376856407992,-49.499999007031946,-49.499999007031946,-48.205569141988974,-48.205569141988974,-48.205569141988974,-48.205569141988974,-48.205569141988974,-48.205569141988974,-48.205569141988974	0.9920123408952998	-48.205569141988974	25	false	79
53	25	11	100	50958	67518	540144	0	0	-14.00576510519834	-14.00576510519834	-6.867859558897164	-6.867859558897164	-165.32081882861632,-165.32081882861632,-165.32081882861632,-165.32081882861632,-165.32081882861632,-124.68557652208509,-111.19066782549571,-98.41995281303451,-98.41995281303451,-98.41995281303451,-98.41995281303451,-98.41995281303451,-98.41995281303451,-98.41995281303451,-98.41995281303451,-98.41995281303451,-98.41995281303451,-73.1391930560467,-25.697727752007488,-28.611807878590454,-28.611807878590454,-28.611807878590454,-28.611807878590454,-28.611807878590454,-28.611807878590454,-28.611807878590454,-28.611807878590454,-28.611807878590454,-28.611807878590454,-28.611807878590454,-28.611807878590454,-28.611807878590454,-28.611807878590454,-28.611807878590454,-28.611807878590454,-28.611807878590454,-27.369373657519624,-27.369373657519624,-27.369373657519624,-27.369373657519624,-27.369373657519624,-27.369373657519624,-27.369373657519624,-27.369373657519624,-27.03671992106886,-27.03671992106886,-27.03671992106886,-27.03671992106886,-27.03671992106886,-27.03671992106886,-27.03671992106886,-27.03671992106886,-27.03671992106886,-27.03671992106886,-27.03671992106886,-27.03671992106886,-27.03671992106886,-21.9290213292305,-21.344531808353842,-18.066961882013565,-18.066961882013565,-18.066961882013565,-18.066961882013565,-16.034010978959365,-16.034010978959365,-14.756232144582055,-14.756232144582055,-14.756232144582055,-14.756232144582055,-14.756232144582055,-14.756232144582055,-14.756232144582055,-14.75631862664378,-14.75631862664378,-14.75631862664378,-14.75631862664378,-14.75631862664378,-17.374144409076067,-17.374144409076067,-17.374144409076067,-17.374144409076067,-17.374144409076067,-17.378410397311626,-17.378410397311626,-17.378410397311626,-17.378410397311626,-14.760711587326695,-14.00576510519834,-14.00576510519834,-14.00576510519834,-14.00576510519834,-14.00576510519834,-14.00576510519834,-14.00576510519834,-14.00576510519834,-14.00576510519834,-14.00576510519834,-14.00576510519834,-14.00576510519834,-14.00576510519834	0.99205905791009	-14.00576510519834	17	false	75
54	25	9	100	50655	55242	441936	0	0	-23.38953612955804	-23.38953612955804	-16.165666794294346	-16.165666794294346	-165.4937256877281,-165.4937256877281,-165.4937256877281,-165.4937256877281,-165.4937256877281,-165.4937256877281,-165.4937256877281,-165.4937256877281,-165.4937256877281,-165.4937256877281,-165.4937256877281,-165.4937256877281,-165.4937256877281,-131.13874463165294,-33.473086080344984,-32.12248942145703,-31.83620834769387,-32.34830760765256,-32.34830760765256,-32.34830760765256,-32.34830760765256,-32.34830760765256,-32.34830760765256,-32.34830760765256,-32.34830760765256,-32.34830760765256,-32.34830760765256,-32.34830760765256,-32.34830760765256,-32.34830760765256,-32.34830760765256,-32.34830760765256,-32.34830760765256,-32.34830760765256,-32.34830760765256,-32.34830760765256,-32.34830760765256,-32.34830760765256,-32.34830760765256,-32.34830760765256,-32.34830760765256,-32.34830760765256,-32.34830760765256,-32.34830760765256,-32.34830760765256,-32.34830760765256,-32.34830760765256,-32.34830760765256,-32.34830760765256,-32.34830760765256,-32.34830760765256,-29.19483843652715,-29.19483843652715,-29.19483843652715,-26.15437684366481,-26.15437684366481,-26.15437684366481,-24.363169295121487,-24.363169295121487,-23.38953612955804,-23.38953612955804,-23.38953612955804,-23.38953612955804,-23.38953612955804,-23.38953612955804,-23.38953612955804,-23.38953612955804,-23.38953612955804,-23.38953612955804,-23.38953612955804,-23.38953612955804,-23.38953612955804,-23.38953612955804,-23.38953612955804,-23.38953612955804,-23.38953612955804,-23.38953612955804,-23.38953612955804,-23.38953612955804,-23.38953612955804,-23.38953612955804,-23.38953612955804,-23.38953612955804,-23.38953612955804,-23.38953612955804,-23.38953612955804,-23.38953612955804,-23.38953612955804,-23.38953612955804,-23.38953612955804,-23.38953612955804,-23.38953612955804,-23.38953612955804,-23.38953612955804,-23.38953612955804,-23.38953612955804,-23.38953612955804,-23.38953612955804,-23.38953612955804,-23.38953612955804	0.9922473150510671	-23.38953612955804	18	false	68
55	25	8	100	50472	49104	392832	0	0	-26.878771653962954	-26.878006359803255	-20.882491189703416	-20.689048809077633	-164.25939457831504,-164.25939457831504,-164.25939457831504,-164.25939457831504,-164.25939457831504,-164.25939457831504,-164.25939457831504,-164.25939457831504,-164.25939457831504,-164.25939457831504,-164.25939457831504,-164.25939457831504,-109.71518580306068,-66.75848964328843,-38.10321442864688,-29.495376922698355,-29.495376922698355,-29.495376922698355,-29.495376922698355,-29.495376922698355,-29.495376922698355,-29.495376922698355,-29.495376922698355,-29.495376922698355,-29.495376922698355,-29.495376922698355,-29.495376922698355,-29.495376922698355,-29.837745663158486,-29.837745663158486,-32.154381127033766,-35.71331601109976,-37.948595969113995,-37.948595969113995,-37.948595969113995,-37.948595969113995,-37.948595969113995,-37.948595969113995,-37.948595969113995,-37.948595969113995,-37.948595969113995,-37.948595969113995,-37.948595969113995,-37.948595969113995,-37.948595969113995,-37.948595969113995,-37.948595969113995,-37.948595969113995,-37.948595969113995,-34.47203346251331,-34.47203346251331,-34.47203346251331,-34.47203346251331,-34.47203346251331,-34.47203346251331,-31.83084841556314,-31.83084841556314,-28.610978698477457,-28.610978698477457,-27.87670712896896,-29.49578126247496,-29.49578126247496,-29.49578126247496,-29.49578126247496,-29.49578126247496,-29.49578126247496,-29.49578126247496,-29.49578126247496,-29.49578126247496,-29.49578126247496,-29.49578126247496,-29.49578126247496,-29.49578126247496,-29.49578126247496,-29.49578126247496,-29.49578126247496,-29.49578126247496,-29.49578126247496,-29.49578126247496,-29.49578126247496,-29.49578126247496,-29.49578126247496,-29.49578126247496,-26.878006359803255,-26.878006359803255,-26.878006359803255,-26.878006359803255,-26.878006359803255,-26.878006359803255,-26.878771653962954,-26.878771653962954,-26.878771653962954,-26.878771653962954,-26.878771653962954,-26.878771653962954,-26.878771653962954,-26.878771653962954,-26.878771653962954,-26.878771653962954,-26.878771653962954	0.9922893530534213	-26.878006359803255	19	false	66
56	25	8	100	50365	49104	392832	0	0	-23.984610427308183	-23.984610427308183	-19.968460974683374	-19.968460974683374	-164.3321949033534,-164.3321949033534,-164.3321949033534,-164.3321949033534,-164.3321949033534,-164.3321949033534,-164.3321949033534,-164.3321949033534,-164.3321949033534,-164.3321949033534,-154.43707235338098,-140.4421719152778,-84.5881324026735,-34.76538779570784,-25.92547750806501,-25.92547750806501,-25.92547750806501,-25.92547750806501,-25.92547750806501,-25.92547750806501,-25.92547750806501,-25.92547750806501,-25.92547750806501,-25.92547750806501,-25.92547750806501,-25.92547750806501,-25.92547750806501,-25.92547750806501,-26.267542892814586,-26.267542892814586,-28.58362301341906,-28.58362301341906,-28.58362301341906,-28.58362301341906,-28.58362301341906,-28.58362301341906,-28.58362301341906,-28.58362301341906,-28.58362301341906,-28.58362301341906,-28.58362301341906,-28.58362301341906,-28.58362301341906,-28.58362301341906,-28.58362301341906,-28.58362301341906,-29.235899711636907,-29.235899711636907,-26.492019219661387,-26.492019219661387,-26.492019219661387,-26.492019219661387,-26.492019219661387,-27.658863488778252,-27.658863488778252,-25.514654569501875,-24.288990545977743,-24.288990545977743,-23.984610427308183,-23.984610427308183,-23.984610427308183,-23.984610427308183,-23.984610427308183,-23.984610427308183,-23.984610427308183,-23.984610427308183,-23.984610427308183,-23.984610427308183,-23.984610427308183,-23.984610427308183,-23.984610427308183,-23.984610427308183,-23.984610427308183,-23.984610427308183,-23.984610427308183,-23.984610427308183,-23.984610427308183,-23.984610427308183,-23.984610427308183,-23.984610427308183,-23.984610427308183,-23.984610427308183,-23.984610427308183,-23.984610427308183,-23.984610427308183,-23.984610427308183,-23.984610427308183,-23.984610427308183,-23.984610427308183,-23.984610427308183,-23.984610427308183,-23.984610427308183,-23.984610427308183,-23.984610427308183,-23.984610427308183,-23.984610427308183,-23.984610427308183,-23.984610427308183,-23.984610427308183,-23.984610427308183	0.9922893530534213	-23.984610427308183	19	false	55
57	25	9	100	50578	55242	441936	0	0	-19.067847090577338	-18.012200470081922	-14.30879101259053	-14.384761005884043	-164.2671245249343,-164.2671245249343,-164.2671245249343,-164.2671245249343,-164.2671245249343,-164.2671245249343,-164.2671245249343,-154.17757710452943,-139.79127320363182,-134.3091364385631,-134.3091364385631,-134.3091364385631,-83.76791489398775,-29.33127635810182,-25.676131958154837,-25.676131958154837,-25.676131958154837,-25.676131958154837,-25.676131958154837,-25.11287525814772,-23.579178149829684,-23.01715747154965,-23.01715747154965,-23.01715747154965,-23.01715747154965,-23.01715747154965,-23.01715747154965,-23.01715747154965,-23.01715747154965,-26.6920889991719,-26.6920889991719,-29.819016585767162,-29.819016585767162,-29.819016585767162,-29.819016585767162,-29.819016585767162,-29.819016585767162,-29.819016585767162,-18.578270278945713,-18.012200470081922,-18.012200470081922,-18.012200470081922,-18.012200470081922,-18.012200470081922,-18.012200470081922,-18.012200470081922,-18.012200470081922,-18.012200470081922,-18.012200470081922,-18.012200470081922,-18.012200470081922,-18.012200470081922,-18.012200470081922,-18.012200470081922,-18.012200470081922,-19.141993222568487,-19.141993222568487,-19.141993222568487,-19.141993222568487,-19.141993222568487,-19.141993222568487,-19.141993222568487,-19.141993222568487,-19.067847090577338,-19.067847090577338,-19.067847090577338,-19.067847090577338,-19.067847090577338,-19.067847090577338,-19.067847090577338,-19.067847090577338,-19.067847090577338,-19.067847090577338,-19.067847090577338,-19.067847090577338,-19.067847090577338,-19.067847090577338,-19.067847090577338,-19.067847090577338,-19.067847090577338,-19.067847090577338,-19.067847090577338,-19.067847090577338,-19.067847090577338,-19.067847090577338,-19.067847090577338,-19.067847090577338,-19.067847090577338,-19.067847090577338,-19.067847090577338,-19.067847090577338,-19.067847090577338,-19.067847090577338,-19.067847090577338,-19.067847090577338,-19.067847090577338,-19.067847090577338,-19.067847090577338,-19.067847090577338,-19.067847090577338	0.9922473150510671	-18.012200470081922	18	false	59
58	25	9	100	50515	55242	441936	0	0	-17.93614827898996	-15.817049018802221	-13.269129599786089	-13.154617775015764	-165.09625409601952,-165.09625409601952,-165.09625409601952,-165.09625409601952,-165.09625409601952,-139.96902562583335,-134.2744940284142,-134.2744940284142,-134.2744940284142,-134.2744940284142,-134.2744940284142,-134.2744940284142,-109.20940470784552,-17.28590071518819,-15.817049018802221,-15.817049018802221,-15.817049018802221,-15.817049018802221,-15.817049018802221,-16.657871971252362,-16.657871971252362,-16.657871971252362,-16.657871971252362,-16.657871971252362,-16.657871971252362,-16.657871971252362,-16.657871971252362,-16.657871971252362,-16.657871971252362,-16.657871971252362,-16.657871971252362,-16.657871971252362,-16.657871971252362,-16.657871971252362,-16.657871971252362,-16.657871971252362,-16.657871971252362,-16.657871971252362,-16.657871971252362,-16.657871971252362,-16.657871971252362,-16.657871971252362,-16.657871971252362,-16.657871971252362,-16.657871971252362,-16.657871971252362,-16.657871971252362,-16.657871971252362,-16.657871971252362,-16.657871971252362,-16.657871971252362,-16.657871971252362,-16.657871971252362,-16.657871971252362,-16.657871971252362,-16.657871971252362,-16.657871971252362,-16.657871971252362,-16.657871971252362,-16.657871971252362,-16.657871971252362,-16.657871971252362,-17.93614827898996,-17.93614827898996,-17.93614827898996,-17.93614827898996,-17.93614827898996,-17.93614827898996,-17.93614827898996,-17.93614827898996,-17.93614827898996,-17.93614827898996,-17.93614827898996,-17.93614827898996,-17.93614827898996,-17.93614827898996,-17.93614827898996,-17.93614827898996,-17.93614827898996,-17.93614827898996,-17.93614827898996,-17.93614827898996,-17.93614827898996,-17.93614827898996,-17.93614827898996,-17.93614827898996,-17.93614827898996,-17.93614827898996,-17.93614827898996,-17.93614827898996,-17.93614827898996,-17.93614827898996,-17.93614827898996,-17.93614827898996,-17.93614827898996,-17.93614827898996,-17.93614827898996,-17.93614827898996,-17.93614827898996,-17.93614827898996	0.9922473150510671	-15.817049018802221	18	false	68
59	25	9	100	50428	55242	441936	0	0	-14.78172438282685	-14.620951019207984	-11.993130889979335	-11.978810469637475	-164.8588234739095,-164.8588234739095,-164.8588234739095,-139.0872301042977,-133.18111022505764,-133.18111022505764,-133.18111022505764,-133.18111022505764,-133.18111022505764,-133.18111022505764,-133.18111022505764,-133.18111022505764,-82.66616936024231,-14.620951019207984,-14.620951019207984,-14.620951019207984,-14.620951019207984,-14.620951019207984,-14.620951019207984,-14.620951019207984,-14.620951019207984,-14.620951019207984,-14.620951019207984,-14.620951019207984,-14.620951019207984,-14.620951019207984,-14.620951019207984,-14.620951019207984,-14.620951019207984,-14.620951019207984,-14.620951019207984,-14.620951019207984,-14.620951019207984,-14.620951019207984,-14.620951019207984,-14.620951019207984,-14.620951019207984,-14.620951019207984,-14.620951019207984,-14.620951019207984,-14.620951019207984,-14.620951019207984,-14.620951019207984,-14.620951019207984,-14.620951019207984,-14.620951019207984,-14.620951019207984,-14.620951019207984,-14.620951019207984,-14.620951019207984,-14.620951019207984,-14.620951019207984,-14.620951019207984,-14.620951019207984,-14.620951019207984,-14.620951019207984,-14.620951019207984,-14.620951019207984,-14.620951019207984,-14.620951019207984,-14.620951019207984,-14.620951019207984,-14.620951019207984,-14.620951019207984,-14.78172438282685,-14.78172438282685,-14.78172438282685,-14.78172438282685,-14.78172438282685,-14.78172438282685,-14.78172438282685,-14.78172438282685,-14.78172438282685,-14.78172438282685,-14.78172438282685,-14.78172438282685,-14.78172438282685,-14.78172438282685,-14.78172438282685,-14.78172438282685,-14.78172438282685,-14.78172438282685,-14.78172438282685,-14.78172438282685,-14.78172438282685,-14.78172438282685,-14.78172438282685,-14.78172438282685,-14.78172438282685,-14.78172438282685,-14.78172438282685,-14.78172438282685,-14.78172438282685,-14.78172438282685,-14.78172438282685,-14.78172438282685,-14.78172438282685,-14.78172438282685,-14.78172438282685,-14.78172438282685	0.9922473150510671	-14.620951019207984	18	false	68
60	25	7	100	50135	42966	343728	0	0	-42.51058490033706	-29.298709222397342	-27.97458262693806	-27.474863110410247	-145.7720466983232,-145.7720466983232,-132.54920831039203,-132.54920831039203,-132.54920831039203,-132.54920831039203,-132.54920831039203,-132.54920831039203,-132.54920831039203,-132.54920831039203,-132.54920831039203,-132.54920831039203,-84.03122083396269,-43.0963713553591,-43.0963713553591,-41.26344419282735,-29.298709222397342,-29.298709222397342,-29.298709222397342,-29.298709222397342,-29.298709222397342,-29.298709222397342,-29.298709222397342,-29.298709222397342,-29.298709222397342,-29.298709222397342,-29.298709222397342,-29.298709222397342,-29.298709222397342,-29.298709222397342,-29.298709222397342,-35.27222292498535,-41.51330731838301,-41.51330731838301,-41.51330731838301,-41.51330731838301,-45.03610435161569,-45.03610435161569,-45.03610435161569,-41.51330731838301,-41.51330731838301,-41.51330731838301,-41.51330731838301,-41.51330731838301,-41.51330731838301,-41.51330731838301,-41.51330731838301,-41.51330731838301,-41.51330731838301,-41.51330731838301,-41.51330731838301,-41.51330731838301,-41.51330731838301,-41.51330731838301,-41.51330731838301,-41.51330731838301,-41.51330731838301,-41.51330731838301,-41.51330731838301,-41.51330731838301,-41.51330731838301,-41.51330731838301,-41.51330731838301,-41.51330731838301,-42.51058490033706,-42.51058490033706,-42.51058490033706,-42.51058490033706,-42.51058490033706,-42.51058490033706,-42.51058490033706,-42.51058490033706,-42.51058490033706,-42.51058490033706,-42.51058490033706,-42.51058490033706,-42.51058490033706,-42.51058490033706,-42.51058490033706,-42.51058490033706,-42.51058490033706,-42.51058490033706,-42.51058490033706,-42.51058490033706,-42.51058490033706,-42.51058490033706,-42.51058490033706,-42.51058490033706,-42.51058490033706,-42.51058490033706,-42.51058490033706,-42.51058490033706,-42.51058490033706,-42.51058490033706,-42.51058490033706,-42.51058490033706,-42.51058490033706,-42.51058490033706,-42.51058490033706,-42.51058490033706	0.9924757824551657	-29.298709222397342	21	false	52
61	25	6	100	49928	36828	294624	0	0	-42.654354303752584	-41.29404292748574	-39.47664865791866	-39.39469918171876	-132.07230408392329,-132.07230408392329,-132.07230408392329,-132.07230408392329,-132.07230408392329,-132.07230408392329,-132.07230408392329,-132.07230408392329,-132.07230408392329,-132.07230408392329,-132.07230408392329,-132.07230408392329,-100.33670846651577,-45.02944562844331,-45.02944562844331,-43.24585877710021,-41.29404292748574,-41.29404292748574,-41.29404292748574,-41.29404292748574,-41.29404292748574,-41.29404292748574,-41.29404292748574,-41.29404292748574,-41.29404292748574,-41.29404292748574,-41.29404292748574,-41.29404292748574,-41.29404292748574,-41.29404292748574,-41.29404292748574,-43.70918076302241,-43.70918076302241,-45.434915201062424,-45.434915201062424,-45.434915201062424,-45.434915201062424,-45.434915201062424,-45.434915201062424,-45.434915201062424,-46.246171068223326,-46.17130276314377,-46.17130276314377,-45.01043143535829,-47.24554429926819,-47.24554429926819,-47.24554429926819,-47.24554429926819,-47.24554429926819,-47.24554429926819,-47.24554429926819,-46.51297667217119,-46.51297667217119,-46.51297667217119,-46.51297667217119,-43.87171277290783,-43.87171277290783,-43.87171277290783,-43.87171277290783,-43.87171277290783,-43.87171277290783,-43.87171277290783,-43.87171277290783,-42.3689923689591,-42.3689923689591,-43.571880223150885,-43.571880223150885,-43.08180649070876,-42.654354303752584,-42.654354303752584,-42.654354303752584,-42.654354303752584,-42.654354303752584,-42.654354303752584,-42.654354303752584,-42.654354303752584,-42.654354303752584,-42.654354303752584,-42.654354303752584,-42.654354303752584,-42.654354303752584,-42.654354303752584,-42.654354303752584,-42.654354303752584,-42.654354303752584,-42.654354303752584,-42.654354303752584,-42.654354303752584,-42.654354303752584,-42.654354303752584,-42.654354303752584,-42.654354303752584,-42.654354303752584,-42.654354303752584,-42.654354303752584,-42.654354303752584,-42.654354303752584,-42.654354303752584,-42.654354303752584,-42.654354303752584	0.992761823645097	-41.29404292748574	23	false	49
62	25	3	100	49118	18414	147312	0	0	-108.02696370202197	-84.50574840519074	-84.13346043658609	-84.05341386484552	-131.63492812991655,-131.63492812991655,-131.63492812991655,-131.63492812991655,-131.63492812991655,-131.63492812991655,-131.63492812991655,-131.63492812991655,-131.63492812991655,-131.63492812991655,-131.63492812991655,-131.63492812991655,-113.44266236009642,-93.13285262199481,-93.13285262199481,-84.50574840519074,-108.02696370202197,-108.02696370202197,-108.02696370202197,-108.02696370202197,-108.02696370202197,-108.02696370202197,-108.02696370202197,-108.02696370202197,-108.02696370202197,-108.02696370202197,-108.02696370202197,-108.02696370202197,-108.02696370202197,-108.02696370202197,-108.02696370202197,-108.02696370202197,-108.02696370202197,-108.02696370202197,-108.02696370202197,-108.02696370202197,-108.02696370202197,-108.02696370202197,-108.02696370202197,-108.02696370202197,-108.02696370202197,-108.02696370202197,-108.02696370202197,-108.02696370202197,-108.02696370202197,-108.02696370202197,-108.02696370202197,-108.02696370202197,-108.02696370202197,-108.02696370202197,-108.02696370202197,-108.02696370202197,-108.02696370202197,-108.02696370202197,-108.02696370202197,-108.02696370202197,-108.02696370202197,-108.02696370202197,-108.02696370202197,-108.02696370202197,-108.02696370202197,-108.02696370202197,-108.02696370202197,-108.02696370202197,-108.02696370202197,-108.02696370202197,-108.02696370202197,-108.02696370202197,-108.02696370202197,-108.02696370202197,-108.02696370202197,-108.02696370202197,-108.02696370202197,-108.02696370202197,-108.02696370202197,-108.02696370202197,-108.02696370202197,-108.02696370202197,-108.02696370202197,-108.02696370202197,-108.02696370202197,-108.02696370202197,-108.02696370202197,-108.02696370202197,-108.02696370202197,-108.02696370202197,-108.02696370202197,-108.02696370202197,-108.02696370202197,-108.02696370202197,-108.02696370202197,-108.02696370202197,-108.02696370202197,-108.02696370202197,-108.02696370202197,-108.02696370202197,-108.02696370202197,-108.02696370202197,-108.02696370202197,-108.02696370202197	0.9931895146255695	-84.50574840519074	26	false	14
63	25	1	3	406	124	992	0	0	-252.30643450274755	-252.30643450274755	-252.30643450274755	-252.30643450274755	-252.30643450274755,-252.30643450274755,-252.30643450274755	0.9932995079725986	-252.30643450274755	30	false	11
