INFO launcher : Processing jar directory: /home/lc2n18/t00/rmasbench-sequential/RSLB2/boot/../../roborescue/jars
INFO launcher : Processing ../../roborescue/jars/human.jar
INFO launcher : Processing ../../roborescue/jars/sample.jar
WARN launcher : Class sample.CustomRegistryTestAgent$CustomEntityFactory not found
INFO launcher : Processing ../../roborescue/jars/collapse.jar
INFO launcher : Processing ../../roborescue/jars/misc.jar
INFO launcher : Processing ../../roborescue/jars/clear.jar
INFO launcher : Processing ../../roborescue/jars/maps.jar
INFO launcher : Processing ../../roborescue/jars/resq-fire.jar
INFO launcher : Processing ../../roborescue/jars/ignition.jar
INFO launcher : Processing ../../roborescue/jars/handy.jar
INFO launcher : Processing ../../roborescue/jars/standard.jar
INFO launcher : Registered entity factory 'rescuecore2.standard.entities.StandardEntityFactory' with registry System
INFO launcher : Registered property factory 'rescuecore2.standard.entities.StandardPropertyFactory' with registry System
INFO launcher : Registered message factory 'rescuecore2.standard.messages.StandardMessageFactory' with registry System
INFO launcher : Processing ../../roborescue/jars/gis2.jar
INFO launcher : Processing ../../roborescue/jars/traffic3.jar
INFO launcher : Processing ../../roborescue/jars/kernel.jar
INFO launcher : Launching 1 instances of component 'firesimulator.FireSimulatorWrapper'...
INFO launcher : Launching instance 1...
INFO firesimulator.FireSimulatorWrapper : firesimulator.FireSimulatorWrapper@52c36bcd connected
INFO firesimulator.world.World : World initialising
INFO firesimulator.world.World : loaded radiation sample file "rays/14542274827.rays"
INFO firesimulator.world.World : World width: 944775mm
INFO firesimulator.world.World : World height: 964205mm
INFO firesimulator.world.World : grid cell size=5000mm, x*y=189*193 = 36477
INFO firesimulator.world.World : World initialised
INFO launcher : success
INFO firesimulator.FireSimulatorWrapper : Unrecognised message type: urn:rescuecore2:messages.control:ks_aftershocks_info : TIMES = [], INTENSITIES = []
INFO firesimulator.FireSimulatorWrapper : Time 1 took 211ms
INFO firesimulator.FireSimulatorWrapper : Time 2 took 140ms
INFO firesimulator.FireSimulatorWrapper : Time 3 took 123ms
INFO firesimulator.FireSimulatorWrapper : Time 4 took 68ms
INFO firesimulator.FireSimulatorWrapper : Time 5 took 149ms
INFO firesimulator.FireSimulatorWrapper : Time 6 took 72ms
INFO firesimulator.FireSimulatorWrapper : Time 7 took 107ms
INFO firesimulator.FireSimulatorWrapper : Time 8 took 39ms
INFO firesimulator.FireSimulatorWrapper : Time 9 took 56ms
INFO firesimulator.FireSimulatorWrapper : Time 10 took 35ms
INFO firesimulator.FireSimulatorWrapper : Time 11 took 162ms
INFO firesimulator.FireSimulatorWrapper : Time 12 took 24ms
INFO firesimulator.FireSimulatorWrapper : Time 13 took 33ms
INFO firesimulator.FireSimulatorWrapper : Time 14 took 28ms
INFO firesimulator.FireSimulatorWrapper : Time 15 took 26ms
INFO firesimulator.FireSimulatorWrapper : Time 16 took 34ms
INFO firesimulator.FireSimulatorWrapper : Time 17 took 35ms
INFO firesimulator.FireSimulatorWrapper : Time 18 took 89ms
INFO firesimulator.FireSimulatorWrapper : Time 19 took 29ms
INFO firesimulator.FireSimulatorWrapper : Time 20 took 25ms
INFO firesimulator.FireSimulatorWrapper : Time 21 took 38ms
INFO firesimulator.FireSimulatorWrapper : Time 22 took 46ms
INFO firesimulator.FireSimulatorWrapper : Time 23 took 39ms
INFO firesimulator.FireSimulatorWrapper : Time 24 took 114ms
INFO firesimulator.FireSimulatorWrapper : Time 25 took 157ms
INFO firesimulator.FireSimulatorWrapper : Time 26 took 65ms
INFO firesimulator.FireSimulatorWrapper : Time 27 took 22ms
INFO firesimulator.FireSimulatorWrapper : Time 28 took 31ms
INFO firesimulator.FireSimulatorWrapper : Time 29 took 53ms
INFO firesimulator.FireSimulatorWrapper : Time 30 took 125ms
INFO firesimulator.FireSimulatorWrapper : Time 31 took 39ms
INFO firesimulator.FireSimulatorWrapper : Time 32 took 72ms
INFO firesimulator.FireSimulatorWrapper : Time 33 took 78ms
INFO firesimulator.FireSimulatorWrapper : Time 34 took 37ms
INFO firesimulator.FireSimulatorWrapper : Time 35 took 113ms
INFO firesimulator.FireSimulatorWrapper : Time 36 took 26ms
INFO firesimulator.FireSimulatorWrapper : Time 37 took 35ms
INFO firesimulator.FireSimulatorWrapper : Time 38 took 50ms
INFO firesimulator.FireSimulatorWrapper : Time 39 took 36ms
INFO firesimulator.FireSimulatorWrapper : Time 40 took 25ms
INFO firesimulator.FireSimulatorWrapper : Time 41 took 21ms
INFO firesimulator.FireSimulatorWrapper : Time 42 took 24ms
INFO firesimulator.FireSimulatorWrapper : Time 43 took 36ms
INFO firesimulator.FireSimulatorWrapper : Time 44 took 21ms
INFO firesimulator.FireSimulatorWrapper : Time 45 took 26ms
INFO firesimulator.FireSimulatorWrapper : Time 46 took 20ms
INFO firesimulator.FireSimulatorWrapper : Time 47 took 22ms
INFO firesimulator.FireSimulatorWrapper : Time 48 took 26ms
INFO firesimulator.FireSimulatorWrapper : Time 49 took 60ms
INFO firesimulator.FireSimulatorWrapper : Time 50 took 25ms
INFO firesimulator.FireSimulatorWrapper : Time 51 took 35ms
INFO firesimulator.FireSimulatorWrapper : Time 52 took 23ms
INFO firesimulator.FireSimulatorWrapper : Time 53 took 24ms
INFO firesimulator.FireSimulatorWrapper : Time 54 took 23ms
INFO firesimulator.FireSimulatorWrapper : Time 55 took 20ms
INFO firesimulator.FireSimulatorWrapper : Time 56 took 25ms
INFO firesimulator.FireSimulatorWrapper : Time 57 took 19ms
