# solver: S-CTS
# max_time: 300000
# main_solver: S-CTS
# random.seed: 8
# run: d939849d-3d60-499d-868a-04750cec9043
# experiment.start_time: 25
# experiment.end_time: 300
# kernel.agents.ignoreuntil: 3
# agent.only_assigned: true
# util.class: RSLBench.Helpers.Utility.ThirdUtilityFunction
# util.fire_brigade_area: 200
# util.trade_off: 10
# util.hysteresis: 1.1
# map.name: paris
# map.scenario: 15agents.xml
# agent.search.class: RSLBench.Search.BreadthFirstSearch
# problem.prune: no
# problem.max_neighbors: 4
# agent.interteam: no
# util.blockade.fire_penalty: 100
# util.blockade.police_penalty: 50
# util.police.eta: 0.0
# dcop.iterations: 100
# dcop.anytime: yes
# dcop.greedy_correction: no
time	nOnceBurned	nBurning	iterations	NCCCs	MessageNum	MessageBytes	OtherNum	OtherBytes	final	best	final_greedy	best_greedy	utilities	score	utility	violations	solvable	cpu_time
25	15	15	1	15	15	195	0	0	27.50915818881016	27.50915818881016	36.767290923423914	36.767290923423914	27.50915818881016	0.9960817657423182	27.50915818881016	3	true	80
26	15	15	1	15	15	195	0	0	29.71821979168667	29.71821979168667	40.868627756315625	40.868627756315625	29.71821979168667	0.9960817657423182	29.71821979168667	4	true	2
27	15	15	1	15	15	195	0	0	28.480107418706886	28.480107418706886	41.93656232077305	41.93656232077305	28.480107418706886	0.9958718681688247	28.480107418706886	5	true	9
28	17	17	1	17	15	195	0	0	17.97747772813779	17.97747772813779	41.915560019440605	41.915560019440605	17.97747772813779	0.9952702495229601	17.97747772813779	7	true	3
29	17	17	1	17	15	195	0	0	20.013607450486127	20.013607450486127	42.84839459182031	42.84839459182031	20.013607450486127	0.9952702495229601	20.013607450486127	8	true	2
30	20	20	1	20	15	195	0	0	29.504487341762655	29.504487341762655	43.91047219617403	43.91047219617403	29.504487341762655	0.9948494308420032	29.504487341762655	5	true	2
31	20	19	1	19	15	195	0	0	32.94048771081468	32.94048771081468	44.68291773151856	44.68291773151856	32.94048771081468	0.9948198214664318	32.94048771081468	5	true	1
32	21	20	1	20	15	195	0	0	30.369772854282726	30.369772854282726	42.592066892123746	42.592066892123746	30.369772854282726	0.9934839999707561	30.369772854282726	6	true	3
33	23	22	1	22	15	195	0	0	29.366275887296613	29.366275887296613	43.12957650601359	43.12957650601359	29.366275887296613	0.9929424408360811	29.366275887296613	6	true	2
34	24	23	1	23	15	195	0	0	32.59541560178937	32.59541560178937	45.88943319345127	45.88943319345127	32.59541560178937	0.9928101856251965	32.59541560178937	5	true	8
35	24	22	1	22	15	195	0	0	32.397211584783314	32.397211584783314	44.644949743294056	44.644949743294056	32.397211584783314	0.9926371352746363	32.397211584783314	6	true	4
36	26	26	1	26	15	195	0	0	35.69891140249467	35.69891140249467	46.98209014166312	46.98209014166312	35.69891140249467	0.9923121632390465	35.69891140249467	4	true	1
37	27	26	1	26	15	195	0	0	36.44776312453045	36.44776312453045	46.844396863788404	46.844396863788404	36.44776312453045	0.9921856836841376	36.44776312453045	4	true	1
38	28	25	1	25	15	195	0	0	34.22764034041376	34.22764034041376	46.29871697194539	46.29871697194539	34.22764034041376	0.9921077123284666	34.22764034041376	5	true	1
39	30	25	1	25	15	195	0	0	28.019883387326388	28.019883387326388	45.37677050813029	45.37677050813029	28.019883387326388	0.991429036196548	28.019883387326388	5	true	1
40	32	25	1	25	15	195	0	0	30.330912358712673	30.330912358712673	45.69005917324543	45.69005917324543	30.330912358712673	0.9907605588495478	30.330912358712673	5	true	1
41	36	30	1	30	15	195	0	0	24.425157520169403	24.425157520169403	45.41223526988917	45.41223526988917	24.425157520169403	0.9898835730108715	24.425157520169403	7	true	1
42	36	30	1	30	15	195	0	0	33.55261454122308	33.55261454122308	46.461006887471676	46.461006887471676	33.55261454122308	0.9899042995737712	33.55261454122308	3	true	4
43	36	28	1	28	15	195	0	0	20.47146876919204	20.47146876919204	45.29406937163326	45.29406937163326	20.47146876919204	0.9899579254428612	20.47146876919204	7	true	1
44	37	30	1	30	15	195	0	0	35.003367691742184	35.003367691742184	46.57284263002254	46.57284263002254	35.003367691742184	0.9898892755572776	35.003367691742184	5	true	1
45	38	32	1	32	15	195	0	0	37.699491600224974	37.699491600224974	46.91697219472948	46.91697219472948	37.699491600224974	0.9895960330747692	37.699491600224974	4	true	2
46	38	32	1	32	15	195	0	0	31.380017778014206	31.380017778014206	46.928410889226356	46.928410889226356	31.380017778014206	0.9892769098047244	31.380017778014206	5	true	2
47	40	34	1	34	15	195	0	0	38.268215953695645	38.268215953695645	45.66275848492579	45.66275848492579	38.268215953695645	0.9880741477251959	38.268215953695645	4	true	1
48	41	34	1	34	15	195	0	0	35.765777970546196	35.765777970546196	46.07161668907715	46.07161668907715	35.765777970546196	0.9879846616123584	35.765777970546196	5	true	2
49	44	36	1	36	15	195	0	0	21.345668817220243	21.345668817220243	45.20779127603507	45.20779127603507	21.345668817220243	0.9870424254830714	21.345668817220243	7	true	2
50	44	37	1	37	15	195	0	0	22.84419525545539	22.84419525545539	46.46559284439813	46.46559284439813	22.84419525545539	0.9870055782601383	22.84419525545539	7	true	6
51	44	37	1	37	15	195	0	0	22.863467470408025	22.863467470408025	46.46820393345629	46.46820393345629	22.863467470408025	0.986970595331223	22.863467470408025	7	true	2
52	46	39	1	39	15	195	0	0	14.074259895439681	14.074259895439681	46.48406559805179	46.48406559805179	14.074259895439681	0.9864203361577997	14.074259895439681	9	true	2
53	46	37	1	37	15	195	0	0	12.450043245123538	12.450043245123538	42.22733818083423	42.22733818083423	12.450043245123538	0.9862430088974345	12.450043245123538	8	true	2
54	48	39	1	39	15	195	0	0	26.112587128679095	26.112587128679095	43.45316424106551	43.45316424106551	26.112587128679095	0.98592121712811	26.112587128679095	7	true	2
55	51	41	1	41	15	195	0	0	9.175324702075493	9.175324702075493	42.44894235594587	42.44894235594587	9.175324702075493	0.9847069402914148	9.175324702075493	9	true	2
56	52	41	1	41	15	195	0	0	15.564485721722399	15.564485721722399	41.4530745220987	41.4530745220987	15.564485721722399	0.9844049612153734	15.564485721722399	7	true	2
57	52	41	1	41	15	195	0	0	30.725699610042287	30.725699610042287	41.84946860121264	41.84946860121264	30.725699610042287	0.9842336654944763	30.725699610042287	5	true	2
58	54	43	1	43	15	195	0	0	7.678660775041827	7.678660775041827	43.691284895774665	43.691284895774665	7.678660775041827	0.9838895387517271	7.678660775041827	9	true	2
59	54	42	1	42	15	195	0	0	-2.32385809919289	-2.32385809919289	41.32328279030336	41.32328279030336	-2.32385809919289	0.9829633136181194	-2.32385809919289	9	true	2
60	54	42	1	42	15	195	0	0	-9.14548007111729	-9.14548007111729	38.862609552321125	38.862609552321125	-9.14548007111729	0.9819234762138015	-9.14548007111729	11	true	14
61	55	42	1	42	15	195	0	0	-3.691519191037173	-3.691519191037173	39.910560907076146	39.910560907076146	-3.691519191037173	0.9817910747837784	-3.691519191037173	11	true	2
62	59	47	1	47	15	195	0	0	-1.7638347387272617	-1.7638347387272617	41.74757636005977	41.74757636005977	-1.7638347387272617	0.9810001023533967	-1.7638347387272617	11	true	7
63	64	50	1	50	15	195	0	0	8.457839033616125	8.457839033616125	42.7490851938447	42.7490851938447	8.457839033616125	0.9782289572382126	8.457839033616125	8	true	3
64	65	52	1	52	15	195	0	0	8.85156401723036	8.85156401723036	45.09401698195101	45.09401698195101	8.85156401723036	0.9776754812437395	8.85156401723036	8	true	2
65	68	55	1	55	15	195	0	0	12.238047479755537	12.238047479755537	44.7958154055393	44.7958154055393	12.238047479755537	0.9768217442481044	12.238047479755537	8	true	3
66	70	57	1	57	15	195	0	0	12.603179163510916	12.603179163510916	44.53606735629081	44.53606735629081	12.603179163510916	0.9757881942667471	12.603179163510916	8	true	3
67	71	57	1	57	15	195	0	0	6.168152247269937	6.168152247269937	42.77363458127074	42.77363458127074	6.168152247269937	0.9753734802348275	6.168152247269937	8	true	6
68	73	60	1	60	15	195	0	0	9.44936066757112	9.44936066757112	43.89073017924647	43.89073017924647	9.44936066757112	0.974640300918987	9.44936066757112	8	true	2
69	75	61	1	61	15	195	0	0	10.26377560294577	10.26377560294577	44.6142244903467	44.6142244903467	10.26377560294577	0.9733761268012365	10.26377560294577	8	true	3
70	75	59	1	59	15	195	0	0	10.859988064538257	10.859988064538257	45.19767539029307	45.19767539029307	10.859988064538257	0.9733761268012365	10.859988064538257	8	true	3
71	76	59	1	59	15	195	0	0	11.423911089846996	11.423911089846996	45.7410569376392	45.7410569376392	11.423911089846996	0.9728014855864481	11.423911089846996	8	true	3
72	81	63	1	63	15	195	0	0	15.368746971917304	15.368746971917304	46.39795767024744	46.39795767024744	15.368746971917304	0.9714937381653881	15.368746971917304	7	true	3
73	84	65	1	65	15	195	0	0	29.53102842466776	29.53102842466776	47.06620575598879	47.06620575598879	29.53102842466776	0.9706626651362394	29.53102842466776	5	true	16
74	85	66	1	66	15	195	0	0	22.136114823339845	22.136114823339845	47.02024497123892	47.02024497123892	22.136114823339845	0.9688713710237529	22.136114823339845	6	true	3
75	88	68	1	68	15	195	0	0	24.87532449876901	24.87532449876901	47.6606819001175	47.6606819001175	24.87532449876901	0.9675215124907697	24.87532449876901	6	true	5
76	90	69	1	69	15	195	0	0	37.77962113809767	37.77962113809767	44.930971421898	44.930971421898	37.77962113809767	0.9648658439403132	37.77962113809767	2	true	3
77	92	70	1	70	15	195	0	0	38.91534667753366	38.91534667753366	47.0354724484126	47.0354724484126	38.91534667753366	0.9644875384739107	38.91534667753366	2	true	3
78	95	73	1	73	15	195	0	0	22.052957996731088	22.052957996731088	46.48124636866794	46.48124636866794	22.052957996731088	0.9638140165666285	22.052957996731088	7	true	4
79	97	72	1	72	15	195	0	0	37.5944660536717	37.5944660536717	45.581484391299895	45.581484391299895	37.5944660536717	0.9628277319218316	37.5944660536717	2	true	3
80	100	74	1	74	15	195	0	0	24.726196615507426	24.726196615507426	45.51710805369	45.51710805369	24.726196615507426	0.9619619684020445	24.726196615507426	5	true	3
81	104	79	1	79	15	195	0	0	22.856627761870087	22.856627761870087	45.294935421897804	45.294935421897804	22.856627761870087	0.9599946630014404	22.856627761870087	5	true	3
82	108	85	1	85	15	195	0	0	20.97773565727951	20.97773565727951	45.59393641336506	45.59393641336506	20.97773565727951	0.9589413003268	20.97773565727951	7	true	4
83	111	85	1	85	15	195	0	0	13.03243184328094	13.03243184328094	45.48017452059091	45.48017452059091	13.03243184328094	0.9575004569348085	13.03243184328094	7	true	5
84	112	86	1	86	15	195	0	0	28.463573050832984	28.463573050832984	46.17147644667024	46.17147644667024	28.463573050832984	0.9548485535271716	28.463573050832984	4	true	4
85	115	89	1	89	15	195	0	0	33.10072697555151	33.10072697555151	46.15625929202163	46.15625929202163	33.10072697555151	0.9539192577916528	33.10072697555151	4	true	4
86	122	95	1	95	15	195	0	0	19.02071657948897	19.02071657948897	46.46365789710632	46.46365789710632	19.02071657948897	0.9516581615867703	19.02071657948897	7	true	5
87	124	96	1	96	15	195	0	0	32.28311949203468	32.28311949203468	45.5826312278853	45.5826312278853	32.28311949203468	0.9506818198433997	32.28311949203468	4	true	14
88	128	101	1	101	15	195	0	0	21.219775006099958	21.219775006099958	46.79335793309828	46.79335793309828	21.219775006099958	0.949413953692399	21.219775006099958	6	true	5
89	131	103	1	103	15	195	0	0	23.257285005523833	23.257285005523833	46.097060671466984	46.097060671466984	23.257285005523833	0.9478256848538906	23.257285005523833	6	true	5
90	132	106	1	106	15	195	0	0	25.457408806792152	25.457408806792152	46.463733289667104	46.463733289667104	25.457408806792152	0.9470902025866165	25.457408806792152	6	true	15
91	137	109	1	109	15	195	0	0	36.6148873531714	36.6148873531714	45.89497548979122	45.89497548979122	36.6148873531714	0.9464192029594752	36.6148873531714	3	true	19
92	140	108	1	108	15	195	0	0	29.545502483651923	29.545502483651923	46.69260305081174	46.69260305081174	29.545502483651923	0.9448494308420028	29.545502483651923	5	true	5
93	144	112	1	112	15	195	0	0	34.06190056661454	34.06190056661454	46.69250663397553	46.69250663397553	34.06190056661454	0.9432824003333793	34.06190056661454	5	true	21
94	145	115	1	115	15	195	0	0	32.88290983044372	32.88290983044372	46.77006591853277	46.77006591853277	32.88290983044372	0.9424434680255296	32.88290983044372	5	true	11
95	150	118	1	118	15	195	0	0	19.905210447389734	19.905210447389734	46.09359676801188	46.09359676801188	19.905210447389734	0.9407741206746548	19.905210447389734	7	true	5
96	154	121	1	121	15	195	0	0	24.649242476810354	24.649242476810354	46.02459653391856	46.02459653391856	24.649242476810354	0.9397645871868167	24.649242476810354	7	true	15
97	160	128	1	128	15	195	0	0	28.245632953747634	28.245632953747634	47.27439244507452	47.27439244507452	28.245632953747634	0.9387958122838697	28.245632953747634	7	true	9
98	163	125	1	125	15	195	0	0	23.717108698325198	23.717108698325198	45.71527963014335	45.71527963014335	23.717108698325198	0.9370491150086635	23.717108698325198	7	true	6
99	164	128	1	128	15	195	0	0	38.917260701294694	38.917260701294694	45.89370680540304	45.89370680540304	38.917260701294694	0.9359026472975046	38.917260701294694	3	true	16
100	169	131	1	131	15	195	0	0	28.167385266570477	28.167385266570477	46.37516165543899	46.37516165543899	28.167385266570477	0.934569603965463	28.167385266570477	6	true	15
101	174	132	1	132	15	195	0	0	11.273415458397889	11.273415458397889	45.69138012338409	45.69138012338409	11.273415458397889	0.9333407052149056	11.273415458397889	9	true	10
102	182	139	1	139	15	195	0	0	22.477806434089967	22.477806434089967	46.09099354707968	46.09099354707968	22.477806434089967	0.9300973088367538	22.477806434089967	7	true	12
103	185	139	1	139	15	195	0	0	10.868036307215771	10.868036307215771	45.96518884780706	45.96518884780706	10.868036307215771	0.9296406664668339	10.868036307215771	9	true	7
104	189	143	1	143	15	195	0	0	11.022929446751075	11.022929446751075	46.64226230250209	46.64226230250209	11.022929446751075	0.9278383328093815	11.022929446751075	9	true	6
105	195	149	1	149	15	195	0	0	11.023739392965958	11.023739392965958	46.07166802926827	46.07166802926827	11.023739392965958	0.9264036671759969	11.023739392965958	9	true	7
106	199	152	1	152	15	195	0	0	16.94248453466243	16.94248453466243	46.043822916736204	46.043822916736204	16.94248453466243	0.9247666342547577	16.94248453466243	8	true	17
107	202	154	1	154	15	195	0	0	26.626566256177476	26.626566256177476	45.829304406142256	45.829304406142256	26.626566256177476	0.9229837842975268	26.626566256177476	7	true	7
108	205	154	1	154	15	195	0	0	11.023448866212835	11.023448866212835	46.03522889775799	46.03522889775799	11.023448866212835	0.9221458755236472	11.023448866212835	9	true	7
109	211	159	1	159	15	195	0	0	19.87745253511513	19.87745253511513	45.75505083297235	45.75505083297235	19.87745253511513	0.9195414933360626	19.87745253511513	7	true	7
110	216	163	1	163	15	195	0	0	4.396179741847359	4.396179741847359	45.471829260071765	45.471829260071765	4.396179741847359	0.9183888113115124	4.396179741847359	9	true	8
111	222	168	1	168	15	195	0	0	29.618474801895335	29.618474801895335	45.17053664254104	45.17053664254104	29.618474801895335	0.9164546611005913	29.618474801895335	4	true	17
112	225	167	1	167	15	195	0	0	2.1662825896814226	2.1662825896814226	45.6605125623884	45.6605125623884	2.1662825896814226	0.9160195494988338	2.1662825896814226	7	true	18
113	230	171	1	171	15	195	0	0	23.587219113355854	23.587219113355854	45.67256537356438	45.67256537356438	23.587219113355854	0.9147211601026459	23.587219113355854	3	true	8
114	235	176	1	176	15	195	0	0	16.476947745083802	16.476947745083802	45.99621908007442	45.99621908007442	16.476947745083802	0.9116009899035685	16.476947745083802	7	true	16
115	240	178	1	178	15	195	0	0	19.187635646934933	19.187635646934933	45.67837598295785	45.67837598295785	19.187635646934933	0.9095185003765143	19.187635646934933	5	true	24
116	244	181	1	181	15	195	0	0	20.167029912078902	20.167029912078902	45.089873266673386	45.089873266673386	20.167029912078902	0.9067004554726169	20.167029912078902	6	true	8
117	248	182	1	182	15	195	0	0	16.83494114216684	16.83494114216684	44.93830114670287	44.93830114670287	16.83494114216684	0.9059017334278886	16.83494114216684	5	true	19
118	253	184	1	184	15	195	0	0	16.922930670751096	16.922930670751096	45.42282995076714	45.42282995076714	16.922930670751096	0.9047818410451747	16.922930670751096	5	true	20
119	258	188	1	188	15	195	0	0	32.71184479578146	32.71184479578146	45.759138613959976	45.759138613959976	32.71184479578146	0.9030527631761724	32.71184479578146	3	true	19
120	262	190	1	190	15	195	0	0	24.415981517662747	24.415981517662747	44.86406912847863	44.86406912847863	24.415981517662747	0.9016127605442278	24.415981517662747	4	true	87
121	263	186	1	186	15	195	0	0	23.767703144296977	23.767703144296977	45.03726768971583	45.03726768971583	23.767703144296977	0.9004083900541744	23.767703144296977	3	true	8
122	270	192	1	192	15	195	0	0	26.50315034658913	26.50315034658913	44.3290031852559	44.3290031852559	26.50315034658913	0.8978504689978872	26.50315034658913	6	true	19
123	277	199	1	199	15	195	0	0	31.0520095450363	31.0520095450363	46.719139146594244	46.719139146594244	31.0520095450363	0.8958049363581198	31.0520095450363	6	true	19
124	281	205	1	205	15	195	0	0	43.92967062627278	43.92967062627278	47.626813512106146	47.626813512106146	43.92967062627278	0.8935570729852831	43.92967062627278	2	true	19
125	284	206	1	206	15	195	0	0	41.31522151058577	41.31522151058577	48.272553103970296	48.272553103970296	41.31522151058577	0.892045093982351	41.31522151058577	3	true	15
126	288	210	1	210	15	195	0	0	43.01263440564408	43.01263440564408	48.5916702925175	48.5916702925175	43.01263440564408	0.8902968614061891	43.01263440564408	2	true	9
127	296	211	1	211	15	195	0	0	41.47253252787607	41.47253252787607	46.15128309505149	46.15128309505149	41.47253252787607	0.8882515115403453	41.47253252787607	2	true	16
128	299	214	1	214	15	195	0	0	41.61296048070818	41.61296048070818	48.591967764074155	48.591967764074155	41.61296048070818	0.8859730883675362	41.61296048070818	3	true	19
129	306	219	1	219	15	195	0	0	34.302409913054845	34.302409913054845	47.99141027091071	47.99141027091071	34.302409913054845	0.884158764740717	34.302409913054845	5	true	20
130	310	222	1	222	15	195	0	0	34.81359063173325	34.81359063173325	47.393567446713696	47.393567446713696	34.81359063173325	0.8820907143536018	34.81359063173325	4	true	15
131	314	225	1	225	15	195	0	0	37.4159610415296	37.4159610415296	46.495912167268074	46.495912167268074	37.4159610415296	0.8808625466987373	37.4159610415296	3	true	21
132	317	225	1	225	15	195	0	0	38.31422609568489	38.31422609568489	47.393928662858826	47.393928662858826	38.31422609568489	0.8798987432465036	38.31422609568489	3	true	21
133	323	231	1	231	15	195	0	0	42.415473573091234	42.415473573091234	47.39425461417828	47.39425461417828	42.415473573091234	0.8768238278708302	42.415473573091234	2	true	20
134	327	232	1	232	15	195	0	0	40.61580480923142	40.61580480923142	47.09286807629484	47.09286807629484	40.61580480923142	0.8748690242065787	40.61580480923142	2	true	20
135	330	234	1	234	15	195	0	0	41.81615495767113	41.81615495767113	47.09447359377517	47.09447359377517	41.81615495767113	0.8732029667863229	41.81615495767113	2	true	13
136	335	239	1	239	15	195	0	0	47.99157557934648	47.99157557934648	48.593825699347896	48.593825699347896	47.99157557934648	0.8700988441377093	47.99157557934648	0	true	11
137	340	239	1	239	15	195	0	0	41.69370227685049	41.69370227685049	47.95118934572102	47.95118934572102	41.69370227685049	0.8681206819660626	41.69370227685049	1	true	11
138	348	242	1	242	15	195	0	0	42.41270521329635	42.41270521329635	48.29068261023774	48.29068261023774	42.41270521329635	0.8641516365577092	42.41270521329635	2	true	11
139	349	241	1	241	15	195	0	0	43.61353099243544	43.61353099243544	48.89091363243181	48.89091363243181	43.61353099243544	0.8627691711568127	43.61353099243544	2	true	20
140	351	241	1	241	15	195	0	0	38.4154909107029	38.4154909107029	47.093444799014186	47.093444799014186	38.4154909107029	0.861239682412031	38.4154909107029	4	true	10
141	354	241	1	241	15	195	0	0	38.494342565881425	38.494342565881425	46.45140733371112	46.45140733371112	38.494342565881425	0.8589149077722784	38.494342565881425	2	true	20
142	358	244	1	244	15	195	0	0	40.78967437326623	40.78967437326623	47.9910584064774	47.9910584064774	40.78967437326623	0.857747274840804	40.78967437326623	2	true	20
143	359	240	1	240	15	195	0	0	40.79084980765632	40.79084980765632	47.69262546777415	47.69262546777415	40.79084980765632	0.8568631608191196	40.79084980765632	2	true	20
144	364	241	1	241	15	195	0	0	35.18232626128489	35.18232626128489	47.09412982755935	47.09412982755935	35.18232626128489	0.8546146029053744	35.18232626128489	4	true	21
145	371	246	1	246	15	195	0	0	38.4940565347675	38.4940565347675	46.19557031006817	46.19557031006817	38.4940565347675	0.8521531133710091	38.4940565347675	2	true	20
146	378	252	1	252	15	195	0	0	42.19113270933609	42.19113270933609	47.094202947882806	47.094202947882806	42.19113270933609	0.8496418727747277	42.19113270933609	1	true	12
147	380	251	1	251	15	195	0	0	39.292476827897	39.292476827897	46.49402982871835	46.49402982871835	39.292476827897	0.8480350341056142	39.292476827897	2	true	21
148	383	251	1	251	15	195	0	0	39.29274384200012	39.29274384200012	47.095485372135734	47.095485372135734	39.29274384200012	0.8471775319671594	39.29274384200012	2	true	20
149	388	254	1	254	15	195	0	0	41.29282856285159	41.29282856285159	46.19539935390379	46.19539935390379	41.29282856285159	0.8417488540075011	41.29282856285159	1	true	22
150	391	254	1	254	15	195	0	0	32.280531468280316	32.280531468280316	46.177609967674684	46.177609967674684	32.280531468280316	0.8404802567608075	32.280531468280316	4	true	23
151	396	252	1	252	15	195	0	0	39.59538158194306	39.59538158194306	46.47805141085442	46.47805141085442	39.59538158194306	0.8381900995021239	39.59538158194306	2	true	21
152	401	251	1	251	15	195	0	0	38.64302855788034	38.64302855788034	45.80223187943371	45.80223187943371	38.64302855788034	0.8358019754205629	38.64302855788034	2	true	22
153	407	252	1	252	15	195	0	0	30.461465607380774	30.461465607380774	44.93446775455213	44.93446775455213	30.461465607380774	0.8327298382085232	30.461465607380774	4	true	17
154	410	252	1	252	15	195	0	0	31.98191847736848	31.98191847736848	46.453491166215414	46.453491166215414	31.98191847736848	0.8314117823381902	31.98191847736848	4	true	11
155	417	251	1	251	15	195	0	0	26.602284423641645	26.602284423641645	46.465065395169304	46.465065395169304	26.602284423641645	0.8295698232941708	26.602284423641645	6	true	21
156	421	253	1	253	15	195	0	0	42.49129333296908	42.49129333296908	46.19258059178779	46.19258059178779	42.49129333296908	0.8243395281508394	42.49129333296908	2	true	26
157	429	257	1	257	15	195	0	0	29.93756576166945	29.93756576166945	46.435458128323134	46.435458128323134	29.93756576166945	0.8225056477142291	29.93756576166945	5	true	19
158	431	254	1	254	15	195	0	0	26.38144751989934	26.38144751989934	46.41585697195599	46.41585697195599	26.38144751989934	0.8202369115593539	26.38144751989934	5	true	22
159	436	254	1	254	15	195	0	0	28.200593727880392	28.200593727880392	45.1922211961687	45.1922211961687	28.200593727880392	0.81689284330426	28.200593727880392	4	true	21
160	440	256	1	256	15	195	0	0	25.114461130802614	25.114461130802614	45.82313760042949	45.82313760042949	25.114461130802614	0.8158855762130705	25.114461130802614	3	true	12
161	442	254	1	254	15	195	0	0	22.403582980245282	22.403582980245282	44.87674677221783	44.87674677221783	22.403582980245282	0.8149233080617921	22.403582980245282	5	true	22
162	447	255	1	255	15	195	0	0	18.405321565924865	18.405321565924865	44.8926604362485	44.8926604362485	18.405321565924865	0.8132449682338919	18.405321565924865	5	true	23
163	450	254	1	254	15	195	0	0	14.769263286529172	14.769263286529172	44.83747245698597	44.83747245698597	14.769263286529172	0.8116264320336887	14.769263286529172	6	true	22
164	453	252	1	252	15	195	0	0	10.547522682867791	10.547522682867791	44.79716153302144	44.79716153302144	10.547522682867791	0.8058446348542556	10.547522682867791	6	true	26
165	457	257	1	257	15	195	0	0	22.862568346285634	22.862568346285634	45.457725270229396	45.457725270229396	22.862568346285634	0.8028788720655644	22.862568346285634	4	true	18
166	459	254	1	254	15	195	0	0	23.88168914518814	23.88168914518814	45.46146054167878	45.46146054167878	23.88168914518814	0.8020919572162797	23.88168914518814	5	true	30
167	460	254	1	254	15	195	0	0	37.028344485228615	37.028344485228615	45.95206952118029	45.95206952118029	37.028344485228615	0.800543971750462	37.028344485228615	2	true	21
168	463	248	1	248	15	195	0	0	30.741712741508156	30.741712741508156	46.33615049727134	46.33615049727134	30.741712741508156	0.7988042198843404	30.741712741508156	6	true	17
169	467	243	1	243	15	195	0	0	21.524953542228584	21.524953542228584	45.692604940357576	45.692604940357576	21.524953542228584	0.7968474057069327	21.524953542228584	7	true	21
170	474	246	1	246	15	195	0	0	26.48591895009998	26.48591895009998	45.35505601866281	45.35505601866281	26.48591895009998	0.7945577602152343	26.48591895009998	2	true	21
171	483	255	1	255	15	195	0	0	29.635814006880384	29.635814006880384	46.11481999239394	46.11481999239394	29.635814006880384	0.7916543598891658	29.635814006880384	4	true	42
172	486	255	1	255	15	195	0	0	36.19255067061744	36.19255067061744	45.51934844366118	45.51934844366118	36.19255067061744	0.7888599293761561	36.19255067061744	2	true	29
173	492	255	1	255	15	195	0	0	34.22196521371194	34.22196521371194	46.474796848649106	46.474796848649106	34.22196521371194	0.786085275001645	34.22196521371194	5	true	15
174	498	251	1	251	15	195	0	0	39.79939700768101	39.79939700768101	46.76425984809673	46.76425984809673	39.79939700768101	0.7809487428809557	39.79939700768101	3	true	21
175	498	246	1	246	15	195	0	0	38.40324739700482	38.40324739700482	46.73378163919449	46.73378163919449	38.40324739700482	0.7792875472470593	38.40324739700482	4	true	21
176	500	241	1	241	15	195	0	0	40.99991145361852	40.99991145361852	47.63276519220576	47.63276519220576	40.99991145361852	0.7785996227546226	40.99991145361852	3	true	87
177	504	240	1	240	15	195	0	0	40.318471630844385	40.318471630844385	47.580582906555456	47.580582906555456	40.318471630844385	0.7774885035202259	40.318471630844385	3	true	21
178	508	239	1	239	15	195	0	0	28.08190870068774	28.08190870068774	47.011886422305984	47.011886422305984	28.08190870068774	0.7767508279658727	28.08190870068774	7	true	22
179	517	249	1	249	15	195	0	0	39.799249764168465	39.799249764168465	46.77908310839289	46.77908310839289	39.799249764168465	0.7731786944093113	39.799249764168465	3	true	16
180	523	251	1	251	15	195	0	0	40.682014960773415	40.682014960773415	47.061150752759076	47.061150752759076	40.682014960773415	0.7714614602905376	40.682014960773415	3	true	22
181	532	256	1	256	15	195	0	0	42.70013078489714	42.70013078489714	47.98051594756747	47.98051594756747	42.70013078489714	0.7700225177473482	42.70013078489714	2	true	22
182	540	260	1	260	15	195	0	0	37.11957986934405	37.11957986934405	47.376897652100936	47.376897652100936	37.11957986934405	0.7674045006250872	37.11957986934405	4	true	23
183	541	262	1	262	15	195	0	0	40.69764235213162	40.69764235213162	47.676833028631464	47.676833028631464	40.69764235213162	0.7649931277004849	40.69764235213162	3	true	22
184	548	264	1	264	15	195	0	0	45.07891498633896	45.07891498633896	47.07996178109225	47.07996178109225	45.07891498633896	0.7628228701354722	45.07891498633896	1	true	22
185	553	265	1	265	15	195	0	0	47.17789785252428	47.17789785252428	49.177442217847656	49.177442217847656	47.17789785252428	0.7619310796090102	47.17789785252428	1	true	22
186	557	267	1	267	15	195	0	0	39.89955137510235	39.89955137510235	47.64889236881503	47.64889236881503	39.89955137510235	0.7577512958671162	39.89955137510235	3	true	23
187	563	271	1	271	15	195	0	0	40.512480941271406	40.512480941271406	47.96295819929823	47.96295819929823	40.512480941271406	0.7565253214993312	40.512480941271406	3	true	23
188	569	274	1	274	15	195	0	0	40.21473604059241	40.21473604059241	47.36761808593793	47.36761808593793	40.21473604059241	0.7553116660939753	40.21473604059241	3	true	22
189	574	272	1	272	15	195	0	0	45.190391163856134	45.190391163856134	47.662910132043535	47.662910132043535	45.190391163856134	0.7535693188381428	45.190391163856134	1	true	22
190	579	266	1	266	15	195	0	0	41.9938791532497	41.9938791532497	46.452188665003526	46.452188665003526	41.9938791532497	0.7510416285887661	41.9938791532497	2	true	21
191	592	280	1	280	15	195	0	0	44.59305633554241	44.59305633554241	48.26635427502709	48.26635427502709	44.59305633554241	0.7471426221478134	44.59305633554241	1	true	22
192	599	284	1	284	15	195	0	0	38.61339547186452	38.61339547186452	47.36488829626741	47.36488829626741	38.61339547186452	0.7440689496348178	38.61339547186452	3	true	23
193	606	289	1	289	15	195	0	0	41.61443032099328	41.61443032099328	47.96697906720585	47.96697906720585	41.61443032099328	0.738884896294076	41.61443032099328	2	true	24
194	612	293	1	293	15	195	0	0	45.19409953264788	45.19409953264788	47.966781254205166	47.966781254205166	45.19409953264788	0.7367015155613719	45.19409953264788	1	true	24
195	618	291	1	291	15	195	0	0	38.393785292642704	38.393785292642704	48.21259157742001	48.21259157742001	38.393785292642704	0.7351318165534689	38.393785292642704	1	true	24
196	631	298	1	298	15	195	0	0	34.81714568691936	34.81714568691936	45.83339088573025	45.83339088573025	34.81714568691936	0.7316142227356139	34.81714568691936	3	true	43
197	643	299	1	299	15	195	0	0	29.703550319595188	29.703550319595188	46.43243973302369	46.43243973302369	29.703550319595188	0.725501421981123	29.703550319595188	5	true	25
198	649	302	1	302	15	195	0	0	39.31432802622545	39.31432802622545	46.431533580890346	46.431533580890346	39.31432802622545	0.7225762350033995	39.31432802622545	2	true	43
199	653	304	1	304	15	195	0	0	38.31693025358072	38.31693025358072	46.76712507657062	46.76712507657062	38.31693025358072	0.7213114760090946	38.31693025358072	2	true	47
200	660	307	1	307	15	195	0	0	41.49398416491548	41.49398416491548	47.35344373587069	47.35344373587069	41.49398416491548	0.7176510626475896	41.49398416491548	2	true	22
201	669	316	1	316	15	195	0	0	38.21485196480741	38.21485196480741	47.37218989200481	47.37218989200481	38.21485196480741	0.7142541727286679	38.21485196480741	3	true	25
202	675	317	1	317	15	195	0	0	38.214701769978745	38.214701769978745	47.03612106226234	47.03612106226234	38.214701769978745	0.7128631535081621	38.214701769978745	3	true	25
203	679	319	1	319	15	195	0	0	40.69353559783154	40.69353559783154	47.64199806497452	47.64199806497452	40.69353559783154	0.7110520101476078	40.69353559783154	3	true	24
204	688	327	1	327	15	195	0	0	41.01389767043223	41.01389767043223	47.9933353127565	47.9933353127565	41.01389767043223	0.7053161257777029	41.01389767043223	3	true	26
205	689	322	1	322	15	195	0	0	40.713978549841826	40.713978549841826	47.94997033774058	47.94997033774058	40.713978549841826	0.7036633011894923	40.713978549841826	3	true	25
206	698	323	1	323	15	195	0	0	33.41798347897966	33.41798347897966	46.63268943040004	46.63268943040004	33.41798347897966	0.6968155664894975	33.41798347897966	4	true	25
207	706	327	1	327	15	195	0	0	41.69318942101228	41.69318942101228	47.393050965027555	47.393050965027555	41.69318942101228	0.6926448117794136	41.69318942101228	3	true	49
208	710	326	1	326	15	195	0	0	42.29234735309743	42.29234735309743	47.56141399566199	47.56141399566199	42.29234735309743	0.6877458126494176	42.29234735309743	3	true	24
209	711	319	1	319	15	195	0	0	26.155656237896054	26.155656237896054	46.274725075516166	46.274725075516166	26.155656237896054	0.6845560786951405	26.155656237896054	7	true	26
210	720	322	1	322	15	195	0	0	36.11598990398279	36.11598990398279	46.79474651545029	46.79474651545029	36.11598990398279	0.6816158311461389	36.11598990398279	5	true	45
211	727	322	1	322	15	195	0	0	36.11462342370373	36.11462342370373	46.68968466466227	46.68968466466227	36.11462342370373	0.679001688831051	36.11462342370373	5	true	44
212	736	328	1	328	15	195	0	0	30.334087967551163	30.334087967551163	46.57382393242174	46.57382393242174	30.334087967551163	0.6753422258939471	30.334087967551163	6	true	26
213	744	337	1	337	15	195	0	0	41.693860996780266	41.693860996780266	47.093741543291436	47.093741543291436	41.693860996780266	0.6718105950387845	41.693860996780266	3	true	44
214	749	337	1	337	15	195	0	0	39.992360971108056	39.992360971108056	46.988178197788635	46.988178197788635	39.992360971108056	0.6657783244748906	39.992360971108056	4	true	45
215	756	340	1	340	15	195	0	0	29.73588338289789	29.73588338289789	46.27433414316188	46.27433414316188	29.73588338289789	0.6626935758621448	29.73588338289789	6	true	23
216	761	340	1	340	15	195	0	0	30.63023425604713	30.63023425604713	46.87057084304877	46.87057084304877	30.63023425604713	0.6581217786096026	30.63023425604713	6	true	26
217	767	345	1	345	15	195	0	0	36.38718311776307	36.38718311776307	47.060643814188296	47.060643814188296	36.38718311776307	0.6536460107763505	36.38718311776307	5	true	46
218	774	346	1	346	15	195	0	0	34.817798209585575	34.817798209585575	46.297662242756545	46.297662242756545	34.817798209585575	0.6508127590820362	34.817798209585575	5	true	26
219	779	347	1	347	15	195	0	0	28.489722756415933	28.489722756415933	46.97826711917333	46.97826711917333	28.489722756415933	0.6453727491391351	28.489722756415933	7	true	39
220	788	348	1	348	15	195	0	0	24.092663973681976	24.092663973681976	47.203861928522215	47.203861928522215	24.092663973681976	0.6409275045510711	24.092663973681976	8	true	70
221	794	349	1	349	15	195	0	0	30.301952887573453	30.301952887573453	45.20768513534946	45.20768513534946	30.301952887573453	0.6377730094092019	30.301952887573453	6	true	26
222	798	351	1	351	15	195	0	0	35.99880607734396	35.99880607734396	45.697567010016336	45.697567010016336	35.99880607734396	0.635950205072342	35.99880607734396	4	true	39
223	801	346	1	346	15	195	0	0	30.777578562970078	30.777578562970078	45.76286646579864	45.76286646579864	30.777578562970078	0.6303395208398831	30.777578562970078	5	true	26
224	807	349	1	349	15	195	0	0	31.763874211243355	31.763874211243355	47.0303337174222	47.0303337174222	31.763874211243355	0.6261761136415147	31.763874211243355	5	true	26
225	812	353	1	353	15	195	0	0	36.38261193634679	36.38261193634679	47.29363066130718	47.29363066130718	36.38261193634679	0.623486814689175	36.38261193634679	4	true	45
226	815	352	1	352	15	195	0	0	34.4827345577202	34.4827345577202	46.4848119159941	46.4848119159941	34.4827345577202	0.6213924083023229	34.4827345577202	3	true	26
227	821	357	1	357	15	195	0	0	30.863683587681642	30.863683587681642	47.27653030707382	47.27653030707382	30.863683587681642	0.6192560735774706	30.863683587681642	5	true	46
228	826	359	1	359	15	195	0	0	34.182716066927185	34.182716066927185	46.48434813014344	46.48434813014344	34.182716066927185	0.6151466212412544	34.182716066927185	3	true	27
229	830	361	1	361	15	195	0	0	36.66574797108439	36.66574797108439	46.922065414007555	46.922065414007555	36.66574797108439	0.6120520028366514	36.66574797108439	4	true	43
230	837	361	1	361	15	195	0	0	30.091733430727608	30.091733430727608	46.705164353718665	46.705164353718665	30.091733430727608	0.6069642347986929	30.091733430727608	4	true	27
231	841	366	1	366	15	195	0	0	40.79339988243075	40.79339988243075	46.395380174010945	46.395380174010945	40.79339988243075	0.6036730613169958	40.79339988243075	3	true	46
232	844	360	1	360	15	195	0	0	34.81564800666497	34.81564800666497	46.47394606657676	46.47394606657676	34.81564800666497	0.6014671262821591	34.81564800666497	4	true	27
233	847	353	1	353	15	195	0	0	26.992281848579914	26.992281848579914	46.41534078527718	46.41534078527718	26.992281848579914	0.5997040890182117	26.992281848579914	6	true	46
234	849	348	1	348	15	195	0	0	38.89358504800829	38.89358504800829	45.73590810804535	45.73590810804535	38.89358504800829	0.597515992718287	38.89358504800829	3	true	49
235	856	344	1	344	15	195	0	0	26.049218167609837	26.049218167609837	45.451513961573895	45.451513961573895	26.049218167609837	0.593989077430345	26.049218167609837	4	true	40
236	863	346	1	346	15	195	0	0	27.58162434546957	27.58162434546957	44.869840917788196	44.869840917788196	27.58162434546957	0.5889912341626397	27.58162434546957	3	true	29
237	872	353	1	353	15	195	0	0	33.494232998162445	33.494232998162445	45.23659625891936	45.23659625891936	33.494232998162445	0.5835209203032584	33.494232998162445	1	true	28
238	875	349	1	349	15	195	0	0	26.87916188788222	26.87916188788222	45.462945106643716	45.462945106643716	26.87916188788222	0.5814909965565391	26.87916188788222	3	true	26
239	876	348	1	348	15	195	0	0	32.62332092360646	32.62332092360646	45.12003821575887	45.12003821575887	32.62332092360646	0.5785344455735809	32.62332092360646	2	true	26
240	880	346	1	346	15	195	0	0	34.51587739861252	34.51587739861252	46.40079733619475	46.40079733619475	34.51587739861252	0.5757291217347437	34.51587739861252	3	true	45
241	888	347	1	347	15	195	0	0	31.215751591642064	31.215751591642064	46.0805714690694	46.0805714690694	31.215751591642064	0.57360196226084	31.215751591642064	3	true	61
242	891	341	1	341	15	195	0	0	22.6432891060294	22.6432891060294	44.864126869400934	44.864126869400934	22.6432891060294	0.5695707006090026	22.6432891060294	5	true	46
243	896	341	1	341	15	195	0	0	43.78683770504126	43.78683770504126	46.08662513035686	46.08662513035686	43.78683770504126	0.5667631834830859	43.78683770504126	1	true	40
244	903	343	1	343	15	195	0	0	44.294850816199215	44.294850816199215	48.53733108462791	48.53733108462791	44.294850816199215	0.5648283387312564	44.294850816199215	2	true	26
245	906	338	1	338	15	195	0	0	36.07381616107744	36.07381616107744	45.685482487552115	45.685482487552115	36.07381616107744	0.5623533239265686	36.07381616107744	3	true	27
246	915	342	1	342	15	195	0	0	44.63668512640154	44.63668512640154	46.63681904120191	46.63681904120191	44.63668512640154	0.5580132108991745	44.63668512640154	1	true	26
247	920	335	1	335	15	195	0	0	42.248862972725604	42.248862972725604	47.219602583620436	47.219602583620436	42.248862972725604	0.5538321477398175	42.248862972725604	2	true	26
248	920	332	1	332	15	195	0	0	37.03663999185382	37.03663999185382	45.75008551933088	45.75008551933088	37.03663999185382	0.5523731731746369	37.03663999185382	3	true	23
249	923	330	1	330	15	195	0	0	38.91535828125237	38.91535828125237	47.20830680714822	47.20830680714822	38.91535828125237	0.5512934179454747	38.91535828125237	2	true	45
250	929	330	1	330	15	195	0	0	44.39457781285756	44.39457781285756	47.22850314284925	47.22850314284925	44.39457781285756	0.5474732236202396	44.39457781285756	1	true	44
251	939	330	1	330	15	195	0	0	44.09311505398631	44.09311505398631	47.52913443944732	47.52913443944732	44.09311505398631	0.544481177941381	44.09311505398631	0	true	44
252	943	326	1	326	15	195	0	0	41.892313397931886	41.892313397931886	48.42684537643714	48.42684537643714	41.892313397931886	0.5428271104904924	41.892313397931886	1	true	46
253	949	322	1	322	15	195	0	0	43.89406187361883	43.89406187361883	47.5288051116623	47.5288051116623	43.89406187361883	0.5401611700455476	43.89406187361883	0	true	45
254	952	318	1	318	15	195	0	0	44.4929510805445	44.4929510805445	47.82759465260792	47.82759465260792	44.4929510805445	0.5369765903159066	44.4929510805445	0	true	35
255	958	319	1	319	15	195	0	0	43.09339489128216	43.09339489128216	48.12770531021412	48.12770531021412	43.09339489128216	0.5336922160241557	43.09339489128216	1	true	25
256	963	317	1	317	15	195	0	0	41.794588123235926	41.794588123235926	47.528989321018216	47.528989321018216	41.794588123235926	0.5310713476286913	41.794588123235926	1	true	25
257	965	311	1	311	15	195	0	0	42.99453702110838	42.99453702110838	46.62820556032981	46.62820556032981	42.99453702110838	0.5294588795227411	42.99453702110838	0	true	43
258	969	313	1	313	15	195	0	0	38.61264266625774	38.61264266625774	47.82950280449759	47.82950280449759	38.61264266625774	0.5274470138396419	38.61264266625774	2	true	25
259	975	307	1	307	15	195	0	0	39.491513049918765	39.491513049918765	46.63396533313009	46.63396533313009	39.491513049918765	0.5256100628011203	39.491513049918765	0	true	38
260	981	309	1	309	15	195	0	0	40.39082355908949	40.39082355908949	47.8316242996607	47.8316242996607	40.39082355908949	0.5215211908086651	40.39082355908949	0	true	44
261	988	319	1	319	15	195	0	0	47.21814848445951	47.21814848445951	47.81783842857026	47.81783842857026	47.21814848445951	0.5195711758212033	47.21814848445951	0	true	24
262	992	318	1	318	15	195	0	0	45.52680166639423	45.52680166639423	47.827500419294495	47.827500419294495	45.52680166639423	0.51761337466461	45.52680166639423	1	true	44
263	998	319	1	319	15	195	0	0	39.40969292729979	39.40969292729979	46.688825662082444	46.688825662082444	39.40969292729979	0.5147478085406599	39.40969292729979	3	true	26
264	1001	317	1	317	15	195	0	0	41.85299307724458	41.85299307724458	48.53234967420579	48.53234967420579	41.85299307724458	0.5135963693787879	41.85299307724458	3	true	44
265	1004	317	1	317	15	195	0	0	32.519705412115066	32.519705412115066	45.833354513885226	45.833354513885226	32.519705412115066	0.5103300531506568	32.519705412115066	4	true	44
266	1010	318	1	318	15	195	0	0	34.93556893862269	34.93556893862269	47.65767425055107	47.65767425055107	34.93556893862269	0.5069071362250603	34.93556893862269	4	true	46
267	1012	311	1	311	15	195	0	0	42.392581482810414	42.392581482810414	47.66955763078613	47.66955763078613	42.392581482810414	0.5046438832878833	42.392581482810414	2	true	24
268	1018	314	1	314	15	195	0	0	41.31418723953675	41.31418723953675	48.873772229694296	48.873772229694296	41.31418723953675	0.5023739042703298	41.31418723953675	3	true	25
269	1022	314	1	314	15	195	0	0	41.27230263279917	41.27230263279917	47.95073253261129	47.95073253261129	41.27230263279917	0.5000717935970639	41.27230263279917	3	true	25
270	1024	308	1	308	15	195	0	0	27.593537070395946	27.593537070395946	46.407738504562765	46.407738504562765	27.593537070395946	0.49731099348593744	27.593537070395946	2	true	44
271	1030	304	1	304	15	195	0	0	12.754387359428328	12.754387359428328	45.24637486014687	45.24637486014687	12.754387359428328	0.49573475117158083	12.754387359428328	7	true	24
272	1034	302	1	302	15	195	0	0	34.70251421592039	34.70251421592039	45.203298053982905	45.203298053982905	34.70251421592039	0.49373531411526456	34.70251421592039	4	true	36
273	1041	303	1	303	15	195	0	0	24.192526963962422	24.192526963962422	46.688477010687826	46.688477010687826	24.192526963962422	0.49117070353338543	24.192526963962422	3	true	24
274	1045	298	1	298	15	195	0	0	8.457379508271728	8.457379508271728	44.86125298736963	44.86125298736963	8.457379508271728	0.4890011405092813	8.457379508271728	8	true	24
275	1049	296	1	296	15	195	0	0	15.916740796023898	15.916740796023898	44.818785992387475	44.818785992387475	15.916740796023898	0.4871769836453893	15.916740796023898	5	true	24
276	1054	299	1	299	15	195	0	0	30.359576675305174	30.359576675305174	44.908695706509825	44.908695706509825	30.359576675305174	0.48336940072086026	30.359576675305174	5	true	24
277	1061	293	1	293	15	195	0	0	22.97609581642208	22.97609581642208	45.09016222835184	45.09016222835184	22.97609581642208	0.48036379321689404	22.97609581642208	2	true	22
278	1063	291	1	291	15	195	0	0	16.267272944926297	16.267272944926297	45.12118571958923	45.12118571958923	16.267272944926297	0.47892905447393996	16.267272944926297	6	true	36
279	1067	289	1	289	15	195	0	0	27.092836388468335	27.092836388468335	46.09583469047098	46.09583469047098	27.092836388468335	0.47709012947704715	27.092836388468335	5	true	21
280	1074	285	1	285	15	195	0	0	15.954048171027843	15.954048171027843	44.91377478610585	44.91377478610585	15.954048171027843	0.4740444579290982	15.954048171027843	7	true	46
281	1078	283	1	283	15	195	0	0	15.328851320805867	15.328851320805867	45.144496517867594	45.144496517867594	15.328851320805867	0.47177875582134937	15.328851320805867	6	true	14
282	1080	282	1	282	15	195	0	0	13.555967422764532	13.555967422764532	45.831768200248895	45.831768200248895	13.555967422764532	0.4704764550632032	13.555967422764532	8	true	22
283	1084	282	1	282	15	195	0	0	20.315248325045026	20.315248325045026	45.80008632674623	45.80008632674623	20.315248325045026	0.46882081575657436	20.315248325045026	5	true	23
284	1089	283	1	283	15	195	0	0	14.656551974274421	14.656551974274421	45.23262096694838	45.23262096694838	14.656551974274421	0.4670220644680181	14.656551974274421	7	true	23
285	1094	282	1	282	15	195	0	0	27.12661543191347	27.12661543191347	46.13019721390079	46.13019721390079	27.12661543191347	0.46566460253982633	27.12661543191347	5	true	14
286	1099	282	1	282	15	195	0	0	20.542753923309604	20.542753923309604	45.51456151380087	45.51456151380087	20.542753923309604	0.462568741272545	20.542753923309604	6	true	44
287	1105	281	1	281	15	195	0	0	20.048258382158323	20.048258382158323	46.677510578260566	46.677510578260566	20.048258382158323	0.45916216433568974	20.048258382158323	5	true	20
288	1106	276	1	276	15	195	0	0	21.635332670490072	21.635332670490072	46.40173395478511	46.40173395478511	21.635332670490072	0.4577716934369538	21.635332670490072	6	true	21
289	1109	275	1	275	15	195	0	0	17.41613392321191	17.41613392321191	46.60680724622354	46.60680724622354	17.41613392321191	0.4558702963130842	17.41613392321191	4	true	43
290	1115	278	1	278	15	195	0	0	18.21345088032712	18.21345088032712	46.36859095412077	46.36859095412077	18.21345088032712	0.4535946147491244	18.21345088032712	4	true	20
291	1119	283	1	283	15	195	0	0	19.454839047989395	19.454839047989395	46.09874969766661	46.09874969766661	19.454839047989395	0.45129235785671984	19.454839047989395	6	true	24
292	1121	281	1	281	15	195	0	0	10.883169054274559	10.883169054274559	45.8676460973703	45.8676460973703	10.883169054274559	0.44855959526542427	10.883169054274559	5	true	24
293	1126	283	1	283	15	195	0	0	25.096239840593412	25.096239840593412	46.054551801094334	46.054551801094334	25.096239840593412	0.4460673631571637	25.096239840593412	6	true	22
294	1134	289	1	289	15	195	0	0	20.85722768049292	20.85722768049292	46.420414775962115	46.420414775962115	20.85722768049292	0.4422266981525212	20.85722768049292	5	true	14
295	1137	289	1	289	15	195	0	0	17.384464586663185	17.384464586663185	46.080419888932276	46.080419888932276	17.384464586663185	0.4411905162266689	17.384464586663185	3	true	134
296	1142	289	1	289	15	195	0	0	12.862842456206339	12.862842456206339	45.37499354330245	45.37499354330245	12.862842456206339	0.4381091306541112	12.862842456206339	4	true	25
297	1145	289	1	289	15	195	0	0	22.994405863424547	22.994405863424547	46.092115038459745	46.092115038459745	22.994405863424547	0.4369722768513171	22.994405863424547	2	true	25
298	1151	289	1	289	15	195	0	0	37.985990317246774	37.985990317246774	45.26411145152089	45.26411145152089	37.985990317246774	0.43359030128453524	37.985990317246774	3	true	25
299	1154	283	1	283	15	195	0	0	24.89503589105012	24.89503589105012	46.615704174441824	46.615704174441824	24.89503589105012	0.4314294017443944	24.89503589105012	2	true	26
